*Ballymena:N054.51.48.000:W006.16.24.000
*Cluntoe:N054.37.14.000:W006.32.02.000
N054.36.27.000:W006.00.34.000*Divis:
*Glengormley:N054.40.50.000:W005.58.54.000
*Lame:N054.51.12.000:W005.49.31.000
*Portadown:N054.25.30.000:W006.26.51.000
*Toome:N054.45.28.000:W006.29.40.000