ATZ's N00.00.00.000 W000.00.00.000 N00.00.00.000 W000.00.00.000
;
;Cumbernauld ATZ
N056.00.28.999 W003.58.32.002 N056.00.27.175 W003.59.09.273  
N056.00.27.175 W003.59.09.273 N056.00.21.756 W003.59.45.409  
N056.00.21.756 W003.59.45.409 N056.00.12.909 W004.00.19.309  
N056.00.12.909 W004.00.19.309 N056.00.00.903 W004.00.49.942  
N056.00.00.903 W004.00.49.942 N055.59.46.103 W004.01.16.374  
N055.59.46.103 W004.01.16.374 N055.59.28.960 W004.01.37.805  
N055.59.28.960 W004.01.37.805 N055.59.09.996 W004.01.53.583  
N055.59.09.996 W004.01.53.583 N055.58.49.787 W004.02.03.230  
N055.58.49.787 W004.02.03.230 N055.58.28.947 W004.02.06.456  
N055.58.28.947 W004.02.06.456 N055.58.08.111 W004.02.03.167  
N055.58.08.111 W004.02.03.167 N055.57.47.911 W004.01.53.464  
N055.57.47.911 W004.01.53.464 N055.57.28.960 W004.01.37.645  
N055.57.28.960 W004.01.37.645 N055.57.11.834 W004.01.16.193  
N055.57.11.834 W004.01.16.193 N055.56.57.053 W004.00.49.760  
N055.56.57.053 W004.00.49.760 N055.56.45.063 W004.00.19.149  
N055.56.45.063 W004.00.19.149 N055.56.36.230 W003.59.45.290  
N055.56.36.230 W003.59.45.290 N055.56.30.821 W003.59.09.210  
N055.56.30.821 W003.59.09.210 N055.56.28.999 W003.58.32.002  
N055.56.28.999 W003.58.32.002 N055.56.30.821 W003.57.54.793  
N055.56.30.821 W003.57.54.793 N055.56.36.230 W003.57.18.713  
N055.56.36.230 W003.57.18.713 N055.56.45.063 W003.56.44.854  
N055.56.45.063 W003.56.44.854 N055.56.57.053 W003.56.14.244  
N055.56.57.053 W003.56.14.244 N055.57.11.834 W003.55.47.811  
N055.57.11.834 W003.55.47.811 N055.57.28.960 W003.55.26.358  
N055.57.28.960 W003.55.26.358 N055.57.47.911 W003.55.10.539  
N055.57.47.911 W003.55.10.539 N055.58.08.111 W003.55.00.837  
N055.58.08.111 W003.55.00.837 N055.58.28.947 W003.54.57.547  
N055.58.28.947 W003.54.57.547 N055.58.49.787 W003.55.00.773  
N055.58.49.787 W003.55.00.773 N055.59.09.996 W003.55.10.421  
N055.59.09.996 W003.55.10.421 N055.59.28.960 W003.55.26.198  
N055.59.28.960 W003.55.26.198 N055.59.46.103 W003.55.47.629  
N055.59.46.103 W003.55.47.629 N056.00.00.903 W003.56.14.062  
N056.00.00.903 W003.56.14.062 N056.00.12.909 W003.56.44.694  
N056.00.12.909 W003.56.44.694 N056.00.21.756 W003.57.18.594  
N056.00.21.756 W003.57.18.594 N056.00.27.175 W003.57.54.730  
N056.00.27.175 W003.57.54.730 N056.00.28.999 W003.58.32.002  
;Oban ATZ
N056.29.49.000 W005.24.00.000 N056.29.47.175 W005.24.37.750  
N056.29.47.175 W005.24.37.750 N056.29.41.757 W005.25.14.351  
N056.29.41.757 W005.25.14.351 N056.29.32.909 W005.25.48.686  
N056.29.32.909 W005.25.48.686 N056.29.20.903 W005.26.19.712  
N056.29.20.903 W005.26.19.712 N056.29.06.103 W005.26.46.485  
N056.29.06.103 W005.26.46.485 N056.28.48.960 W005.27.08.190  
N056.28.48.960 W005.27.08.190 N056.28.29.995 W005.27.24.170  
N056.28.29.995 W005.27.24.170 N056.28.09.786 W005.27.33.940  
N056.28.09.786 W005.27.33.940 N056.27.48.947 W005.27.37.208  
N056.27.48.947 W005.27.37.208 N056.27.28.111 W005.27.33.875  
N056.27.28.111 W005.27.33.875 N056.27.07.911 W005.27.24.047  
N056.27.07.911 W005.27.24.047 N056.26.48.960 W005.27.08.025  
N056.26.48.960 W005.27.08.025 N056.26.31.834 W005.26.46.297  
N056.26.31.834 W005.26.46.297 N056.26.17.053 W005.26.19.525  
N056.26.17.053 W005.26.19.525 N056.26.05.063 W005.25.48.521  
N056.26.05.063 W005.25.48.521 N056.25.56.230 W005.25.14.228  
N056.25.56.230 W005.25.14.228 N056.25.50.821 W005.24.37.685  
N056.25.50.821 W005.24.37.685 N056.25.49.000 W005.24.00.000  
N056.25.49.000 W005.24.00.000 N056.25.50.821 W005.23.22.315  
N056.25.50.821 W005.23.22.315 N056.25.56.230 W005.22.45.772  
N056.25.56.230 W005.22.45.772 N056.26.05.063 W005.22.11.479  
N056.26.05.063 W005.22.11.479 N056.26.17.053 W005.21.40.475  
N056.26.17.053 W005.21.40.475 N056.26.31.834 W005.21.13.703  
N056.26.31.834 W005.21.13.703 N056.26.48.960 W005.20.51.975  
N056.26.48.960 W005.20.51.975 N056.27.07.911 W005.20.35.953  
N056.27.07.911 W005.20.35.953 N056.27.28.111 W005.20.26.125  
N056.27.28.111 W005.20.26.125 N056.27.48.947 W005.20.22.792  
N056.27.48.947 W005.20.22.792 N056.28.09.786 W005.20.26.060  
N056.28.09.786 W005.20.26.060 N056.28.29.995 W005.20.35.830  
N056.28.29.995 W005.20.35.830 N056.28.48.960 W005.20.51.810  
N056.28.48.960 W005.20.51.810 N056.29.06.103 W005.21.13.515  
N056.29.06.103 W005.21.13.515 N056.29.20.903 W005.21.40.288  
N056.29.20.903 W005.21.40.288 N056.29.32.909 W005.22.11.314  
N056.29.32.909 W005.22.11.314 N056.29.41.757 W005.22.45.649  
N056.29.41.757 W005.22.45.649 N056.29.47.175 W005.23.22.250  
N056.29.47.175 W005.23.22.250 N056.29.49.000 W005.24.00.000  
;Carlise ATZ
N054.58.15.000 W002.48.33.001 N054.58.13.175 W002.49.09.304  
N054.58.13.175 W002.49.09.304 N054.58.07.757 W002.49.44.501  
N054.58.07.757 W002.49.44.501 N054.57.58.911 W002.50.17.520  
N054.57.58.911 W002.50.17.520 N054.57.46.905 W002.50.47.357  
N054.57.46.905 W002.50.47.357 N054.57.32.105 W002.51.13.104  
N054.57.32.105 W002.51.13.104 N054.57.14.963 W002.51.33.979  
N054.57.14.963 W002.51.33.979 N054.56.55.998 W002.51.49.348  
N054.56.55.998 W002.51.49.348 N054.56.35.790 W002.51.58.746  
N054.56.35.790 W002.51.58.746 N054.56.14.950 W002.52.01.889  
N054.56.14.950 W002.52.01.889 N054.55.54.114 W002.51.58.686  
N054.55.54.114 W002.51.58.686 N054.55.33.914 W002.51.49.236  
N054.55.33.914 W002.51.49.236 N054.55.14.963 W002.51.33.829  
N054.55.14.963 W002.51.33.829 N054.54.57.836 W002.51.12.934  
N054.54.57.836 W002.51.12.934 N054.54.43.054 W002.50.47.187  
N054.54.43.054 W002.50.47.187 N054.54.31.065 W002.50.17.370  
N054.54.31.065 W002.50.17.370 N054.54.22.231 W002.49.44.390  
N054.54.22.231 W002.49.44.390 N054.54.16.822 W002.49.09.245  
N054.54.16.822 W002.49.09.245 N054.54.15.000 W002.48.33.001  
N054.54.15.000 W002.48.33.001 N054.54.16.822 W002.47.56.758  
N054.54.16.822 W002.47.56.758 N054.54.22.231 W002.47.21.613  
N054.54.22.231 W002.47.21.613 N054.54.31.065 W002.46.48.632  
N054.54.31.065 W002.46.48.632 N054.54.43.054 W002.46.18.816  
N054.54.43.054 W002.46.18.816 N054.54.57.836 W002.45.53.069  
N054.54.57.836 W002.45.53.069 N054.55.14.963 W002.45.32.174  
N054.55.14.963 W002.45.32.174 N054.55.33.914 W002.45.16.766  
N054.55.33.914 W002.45.16.766 N054.55.54.114 W002.45.07.316  
N054.55.54.114 W002.45.07.316 N054.56.14.950 W002.45.04.113  
N054.56.14.950 W002.45.04.113 N054.56.35.790 W002.45.07.257  
N054.56.35.790 W002.45.07.257 N054.56.55.998 W002.45.16.655  
N054.56.55.998 W002.45.16.655 N054.57.14.963 W002.45.32.024  
N054.57.14.963 W002.45.32.024 N054.57.32.105 W002.45.52.898  
N054.57.32.105 W002.45.52.898 N054.57.46.905 W002.46.18.645  
N054.57.46.905 W002.46.18.645 N054.57.58.911 W002.46.48.482  
N054.57.58.911 W002.46.48.482 N054.58.07.757 W002.47.21.501  
N054.58.07.757 W002.47.21.501 N054.58.13.175 W002.47.56.698  
N054.58.13.175 W002.47.56.698 N054.58.15.000 W002.48.33.001  
;Durham Tees ATZ
N054.33.03.001 W001.25.45.998 N054.33.00.720 W001.26.30.908  
N054.33.00.720 W001.26.30.908 N054.32.53.946 W001.27.14.449  
N054.32.53.946 W001.27.14.449 N054.32.42.886 W001.27.55.295  
N054.32.42.886 W001.27.55.295 N054.32.27.876 W001.28.32.202  
N054.32.27.876 W001.28.32.202 N054.32.09.374 W001.29.04.048  
N054.32.09.374 W001.29.04.048 N054.31.47.944 W001.29.29.864  
N054.31.47.944 W001.29.29.864 N054.31.24.237 W001.29.48.867  
N054.31.24.237 W001.29.48.867 N054.30.58.974 W001.30.00.484  
N054.30.58.974 W001.30.00.484 N054.30.32.925 W001.30.04.364  
N054.30.32.925 W001.30.04.364 N054.30.06.880 W001.30.00.394  
N054.30.06.880 W001.30.00.394 N054.29.41.631 W001.29.48.698  
N054.29.41.631 W001.29.48.698 N054.29.17.944 W001.29.29.635  
N054.29.17.944 W001.29.29.635 N054.28.56.538 W001.29.03.788  
N054.28.56.538 W001.29.03.788 N054.28.38.063 W001.28.31.943  
N054.28.38.063 W001.28.31.943 N054.28.23.078 W001.27.55.067  
N054.28.23.078 W001.27.55.067 N054.28.12.038 W001.27.14.280  
N054.28.12.038 W001.27.14.280 N054.28.05.278 W001.26.30.818  
N054.28.05.278 W001.26.30.818 N054.28.03.001 W001.25.45.998  
N054.28.03.001 W001.25.45.998 N054.28.05.278 W001.25.01.179  
N054.28.05.278 W001.25.01.179 N054.28.12.038 W001.24.17.717  
N054.28.12.038 W001.24.17.717 N054.28.23.078 W001.23.36.930  
N054.28.23.078 W001.23.36.930 N054.28.38.063 W001.23.00.054  
N054.28.38.063 W001.23.00.054 N054.28.56.538 W001.22.28.209  
N054.28.56.538 W001.22.28.209 N054.29.17.944 W001.22.02.361  
N054.29.17.944 W001.22.02.361 N054.29.41.631 W001.21.43.299  
N054.29.41.631 W001.21.43.299 N054.30.06.880 W001.21.31.603  
N054.30.06.880 W001.21.31.603 N054.30.32.925 W001.21.27.633  
N054.30.32.925 W001.21.27.633 N054.30.58.974 W001.21.31.513  
N054.30.58.974 W001.21.31.513 N054.31.24.237 W001.21.43.130  
N054.31.24.237 W001.21.43.130 N054.31.47.944 W001.22.02.133  
N054.31.47.944 W001.22.02.133 N054.32.09.374 W001.22.27.949  
N054.32.09.374 W001.22.27.949 N054.32.27.876 W001.22.59.794  
N054.32.27.876 W001.22.59.794 N054.32.42.886 W001.23.36.701  
N054.32.42.886 W001.23.36.701 N054.32.53.946 W001.24.17.547  
N054.32.53.946 W001.24.17.547 N054.33.00.720 W001.25.01.089  
N054.33.00.720 W001.25.01.089 N054.33.03.001 W001.25.45.998  
;Enniskillen ATZ
N054.25.55.000 W007.39.06.998 N054.25.53.175 W007.39.42.822
N054.25.53.175 W007.39.42.822 N054.25.47.757 W007.40.17.555
N054.25.47.757 W007.40.17.555 N054.25.38.910 W007.40.50.138 
N054.25.38.910 W007.40.50.138 N054.25.26.905 W007.41.19.582 
N054.25.26.905 W007.41.19.582 N054.25.12.105 W007.41.44.990 
N054.25.12.105 W007.41.44.990 N054.24.54.963 W007.42.05.589 
N054.24.54.963 W007.42.05.589 N054.24.35.999 W007.42.20.756 
N054.24.35.999 W007.42.20.756 N054.24.15.790 W007.42.30.030 
N054.24.15.790 W007.42.30.030 N054.23.54.951 W007.42.33.133 
N054.23.54.951 W007.42.33.133 N054.23.34.115 W007.42.29.973 
N054.23.34.115 W007.42.29.973 N054.23.13.914 W007.42.20.648 
N054.23.13.914 W007.42.20.648 N054.22.54.963 W007.42.05.444 
N054.22.54.963 W007.42.05.444 N054.22.37.836 W007.41.44.825 
N054.22.37.836 W007.41.44.825 N054.22.23.054 W007.41.19.417 
N054.22.23.054 W007.41.19.417 N054.22.11.064 W007.40.49.993 
N054.22.11.064 W007.40.49.993 N054.22.02.231 W007.40.17.447 
N054.22.02.231 W007.40.17.447 N054.21.56.821 W007.39.42.765 
N054.21.56.821 W007.39.42.765 N054.21.55.000 W007.39.06.998 
N054.21.55.000 W007.39.06.998 N054.21.56.821 W007.38.31.232 
N054.21.56.821 W007.38.31.232 N054.22.02.231 W007.37.56.550 
N054.22.02.231 W007.37.56.550 N054.22.11.064 W007.37.24.003 
N054.22.11.064 W007.37.24.003 N054.22.23.054 W007.36.54.580 
N054.22.23.054 W007.36.54.580 N054.22.37.836 W007.36.29.172 
N054.22.37.836 W007.36.29.172 N054.22.54.963 W007.36.08.553 
N054.22.54.963 W007.36.08.553 N054.23.13.914 W007.35.53.349 
N054.23.13.914 W007.35.53.349 N054.23.34.115 W007.35.44.024 
N054.23.34.115 W007.35.44.024 N054.23.54.951 W007.35.40.863 
N054.23.54.951 W007.35.40.863 N054.24.15.790 W007.35.43.966 
N054.24.15.790 W007.35.43.966 N054.24.35.999 W007.35.53.241 
N054.24.35.999 W007.35.53.241 N054.24.54.963 W007.36.08.408 
N054.24.54.963 W007.36.08.408 N054.25.12.105 W007.36.29.007 
N054.25.12.105 W007.36.29.007 N054.25.26.905 W007.36.54.415 
N054.25.26.905 W007.36.54.415 N054.25.38.910 W007.37.23.858 
N054.25.38.910 W007.37.23.858 N054.25.47.757 W007.37.56.442 
N054.25.47.757 W007.37.56.442 N054.25.53.175 W007.38.31.175 
N054.25.53.175 W007.38.31.175 N054.25.55.000 W007.39.06.998  
;
;Scatsa ATZ
N060.27.58.001 W001.17.46.000 N060.27.56.176 W001.18.28.272 
N060.27.56.176 W001.18.28.272 N060.27.50.757 W001.19.09.255 
N060.27.50.757 W001.19.09.255 N060.27.41.908 W001.19.47.702 
N060.27.41.908 W001.19.47.702 N060.27.29.901 W001.20.22.441 
N060.27.29.901 W001.20.22.441 N060.27.15.099 W001.20.52.416 
N060.27.15.099 W001.20.52.416 N060.26.57.955 W001.21.16.715 
N060.26.57.955 W001.21.16.715 N060.26.38.989 W001.21.34.602 
N060.26.38.989 W001.21.34.602 N060.26.18.779 W001.21.45.536 
N060.26.18.779 W001.21.45.536 N060.25.57.939 W001.21.49.188 
N060.25.57.939 W001.21.49.188 N060.25.37.103 W001.21.45.451 
N060.25.37.103 W001.21.45.451 N060.25.16.904 W001.21.34.442 
N060.25.16.904 W001.21.34.442 N060.24.57.955 W001.21.16.499 
N060.24.57.955 W001.21.16.499 N060.24.40.830 W001.20.52.170 
N060.24.40.830 W001.20.52.170 N060.24.26.050 W001.20.22.195 
N060.24.26.050 W001.20.22.195 N060.24.14.062 W001.19.47.486 
N060.24.14.062 W001.19.47.486 N060.24.05.230 W001.19.09.095 
N060.24.05.230 W001.19.09.095 N060.23.59.822 W001.18.28.186 
N060.23.59.822 W001.18.28.186 N060.23.58.001 W001.17.46.000 
N060.23.58.001 W001.17.46.000 N060.23.59.822 W001.17.03.813 
N060.23.59.822 W001.17.03.813 N060.24.05.230 W001.16.22.904 
N060.24.05.230 W001.16.22.904 N060.24.14.062 W001.15.44.513 
N060.24.14.062 W001.15.44.513 N060.24.26.050 W001.15.09.804 
N060.24.26.050 W001.15.09.804 N060.24.40.830 W001.14.39.829 
N060.24.40.830 W001.14.39.829 N060.24.57.955 W001.14.15.500 
N060.24.57.955 W001.14.15.500 N060.25.16.904 W001.13.57.557 
N060.25.16.904 W001.13.57.557 N060.25.37.103 W001.13.46.548 
N060.25.37.103 W001.13.46.548 N060.25.57.939 W001.13.42.811 
N060.25.57.939 W001.13.42.811 N060.26.18.779 W001.13.46.463 
N060.26.18.779 W001.13.46.463 N060.26.38.989 W001.13.57.397 
N060.26.38.989 W001.13.57.397 N060.26.57.955 W001.14.15.284 
N060.26.57.955 W001.14.15.284 N060.27.15.099 W001.14.39.584 
N060.27.15.099 W001.14.39.584 N060.27.29.901 W001.15.09.558 
N060.27.29.901 W001.15.09.558 N060.27.41.908 W001.15.44.297 
N060.27.41.908 W001.15.44.297 N060.27.50.757 W001.16.22.744 
N060.27.50.757 W001.16.22.744 N060.27.56.176 W001.17.03.728 
N060.27.56.176 W001.17.03.728 N060.27.58.001 W001.17.46.000 


;Newtownards ATZ
N054.36.52.000 W005.41.30.998 N054.36.50.175 W005.42.06.983  
N054.36.50.175 W005.42.06.983 N054.36.44.757 W005.42.41.871  
N054.36.44.757 W005.42.41.871 N054.36.35.910 W005.43.14.600  
N054.36.35.910 W005.43.14.600 N054.36.23.905 W005.43.44.176  
N054.36.23.905 W005.43.44.176 N054.36.09.105 W005.44.09.697  
N054.36.09.105 W005.44.09.697 N054.35.51.963 W005.44.30.389  
N054.35.51.963 W005.44.30.389 N054.35.32.999 W005.44.45.623  
N054.35.32.999 W005.44.45.623 N054.35.12.790 W005.44.54.939  
N054.35.12.790 W005.44.54.939 N054.34.51.951 W005.44.58.056  
N054.34.51.951 W005.44.58.056 N054.34.31.114 W005.44.54.881  
N054.34.31.114 W005.44.54.881 N054.34.10.914 W005.44.45.514  
N054.34.10.914 W005.44.45.514 N054.33.51.963 W005.44.30.242  
N054.33.51.963 W005.44.30.242 N054.33.34.836 W005.44.09.530  
N054.33.34.836 W005.44.09.530 N054.33.20.054 W005.43.44.009  
N054.33.20.054 W005.43.44.009 N054.33.08.064 W005.43.14.454  
N054.33.08.064 W005.43.14.454 N054.32.59.231 W005.42.41.762  
N054.32.59.231 W005.42.41.762 N054.32.53.821 W005.42.06.925  
N054.32.53.821 W005.42.06.925 N054.32.52.000 W005.41.30.998  
N054.32.52.000 W005.41.30.998 N054.32.53.821 W005.40.55.072  
N054.32.53.821 W005.40.55.072 N054.32.59.231 W005.40.20.235  
N054.32.59.231 W005.40.20.235 N054.33.08.064 W005.39.47.543  
N054.33.08.064 W005.39.47.543 N054.33.20.054 W005.39.17.988  
N054.33.20.054 W005.39.17.988 N054.33.34.836 W005.38.52.467  
N054.33.34.836 W005.38.52.467 N054.33.51.963 W005.38.31.755  
N054.33.51.963 W005.38.31.755 N054.34.10.914 W005.38.16.483  
N054.34.10.914 W005.38.16.483 N054.34.31.114 W005.38.07.116  
N054.34.31.114 W005.38.07.116 N054.34.51.951 W005.38.03.941  
N054.34.51.951 W005.38.03.941 N054.35.12.790 W005.38.07.058  
N054.35.12.790 W005.38.07.058 N054.35.32.999 W005.38.16.374  
N054.35.32.999 W005.38.16.374 N054.35.51.963 W005.38.31.608  
N054.35.51.963 W005.38.31.608 N054.36.09.105 W005.38.52.300  
N054.36.09.105 W005.38.52.300 N054.36.23.905 W005.39.17.821  
N054.36.23.905 W005.39.17.821 N054.36.35.910 W005.39.47.396  
N054.36.35.910 W005.39.47.396 N054.36.44.757 W005.40.20.126  
N054.36.44.757 W005.40.20.126 N054.36.50.175 W005.40.55.014  
N054.36.50.175 W005.40.55.014 N054.36.52.000 W005.41.30.998  
;KIRKWALL CTZ
N058.59.24.911 W002.53.07.191 N058.59.12.923 W002.52.16.118  
N058.59.12.923 W002.52.16.118 N058.58.53.853 W002.51.32.260  
N058.58.53.853 W002.51.32.260 N058.58.29.000 W002.50.58.606  
N058.58.29.000 W002.50.58.606 N058.58.00.058 W002.50.37.451  
N058.58.00.058 W002.50.37.451 N058.57.29.000 W002.50.30.235  
N058.57.29.000 W002.50.30.235 N058.56.57.942 W002.50.37.451  
N058.56.57.942 W002.50.37.451 N058.56.29.000 W002.50.58.606  
N058.56.29.000 W002.50.58.606 N058.56.04.147 W002.51.32.260  
N058.56.04.147 W002.51.32.260 N058.55.45.077 W002.52.16.118  
N058.55.45.077 W002.52.16.118 N058.55.33.089 W002.53.07.191  
N058.55.33.089 W002.53.07.191 N058.55.29.000 W002.54.02.000  
N058.55.29.000 W002.54.02.000 N058.55.33.089 W002.54.56.809  
N058.55.33.089 W002.54.56.809 N058.55.45.077 W002.55.47.882  
N058.55.45.077 W002.55.47.882 N058.56.04.147 W002.56.31.740  
N058.56.04.147 W002.56.31.740 N058.56.29.000 W002.57.05.394  
N058.56.29.000 W002.57.05.394 N058.56.57.942 W002.57.26.549  
N058.56.57.942 W002.57.26.549 N058.57.29.000 W002.57.33.765  
N058.57.29.000 W002.57.33.765 N058.58.00.058 W002.57.26.549  
N058.58.00.058 W002.57.26.549 N058.58.29.000 W002.57.05.394  
N058.58.29.000 W002.57.05.394 N058.58.53.853 W002.56.31.740  
N058.58.53.853 W002.56.31.740 N058.59.12.923 W002.55.47.882  
N058.59.12.923 W002.55.47.882 N058.59.24.911 W002.54.56.809  
N058.59.24.911 W002.54.56.809 N058.59.29.000 W002.54.02.000  
N058.59.29.000 W002.54.02.000 N058.59.24.911 W002.53.07.191  
;Barra ATZ
N057.03.22.001 W007.26.35.002 N057.03.20.176 W007.27.13.319  
N057.03.20.176 W007.27.13.319 N057.03.14.758 W007.27.50.468  
N057.03.14.758 W007.27.50.468 N057.03.05.910 W007.28.25.319  
N057.03.05.910 W007.28.25.319 N057.02.53.904 W007.28.56.811  
N057.02.53.904 W007.28.56.811 N057.02.39.104 W007.29.23.984  
N057.02.39.104 W007.29.23.984 N057.02.21.960 W007.29.46.015  
N057.02.21.960 W007.29.46.015 N057.02.02.996 W007.30.02.234  
N057.02.02.996 W007.30.02.234 N057.01.42.786 W007.30.12.150  
N057.01.42.786 W007.30.12.150 N057.01.21.947 W007.30.15.466  
N057.01.21.947 W007.30.15.466 N057.01.01.111 W007.30.12.083  
N057.01.01.111 W007.30.12.083 N057.00.40.911 W007.30.02.107  
N057.00.40.911 W007.30.02.107 N057.00.21.960 W007.29.45.844  
N057.00.21.960 W007.29.45.844 N057.00.04.835 W007.29.23.790  
N057.00.04.835 W007.29.23.790 N056.59.50.053 W007.28.56.616  
N056.59.50.053 W007.28.56.616 N056.59.38.064 W007.28.25.148  
N056.59.38.064 W007.28.25.148 N056.59.29.231 W007.27.50.341  
N056.59.29.231 W007.27.50.341 N056.59.23.822 W007.27.13.251  
N056.59.23.822 W007.27.13.251 N056.59.22.001 W007.26.35.002  
N056.59.22.001 W007.26.35.002 N056.59.23.822 W007.25.56.752  
N056.59.23.822 W007.25.56.752 N056.59.29.231 W007.25.19.662  
N056.59.29.231 W007.25.19.662 N056.59.38.064 W007.24.44.855  
N056.59.38.064 W007.24.44.855 N056.59.50.053 W007.24.13.387  
N056.59.50.053 W007.24.13.387 N057.00.04.835 W007.23.46.213  
N057.00.04.835 W007.23.46.213 N057.00.21.960 W007.23.24.159  
N057.00.21.960 W007.23.24.159 N057.00.40.911 W007.23.07.896  
N057.00.40.911 W007.23.07.896 N057.01.01.111 W007.22.57.920  
N057.01.01.111 W007.22.57.920 N057.01.21.947 W007.22.54.537  
N057.01.21.947 W007.22.54.537 N057.01.42.786 W007.22.57.853  
N057.01.42.786 W007.22.57.853 N057.02.02.996 W007.23.07.769  
N057.02.02.996 W007.23.07.769 N057.02.21.960 W007.23.23.988  
N057.02.21.960 W007.23.23.988 N057.02.39.104 W007.23.46.019  
N057.02.39.104 W007.23.46.019 N057.02.53.904 W007.24.13.192  
N057.02.53.904 W007.24.13.192 N057.03.05.910 W007.24.44.684  
N057.03.05.910 W007.24.44.684 N057.03.14.758 W007.25.19.535  
N057.03.14.758 W007.25.19.535 N057.03.20.176 W007.25.56.685  
N057.03.20.176 W007.25.56.685 N057.03.22.001 W007.26.35.002  
;WICK ATZ
N058.29.27.911 W003.04.40.191 N058.29.15.923 W003.03.49.118  
N058.29.15.923 W003.03.49.118 N058.28.56.853 W003.03.05.260  
N058.28.56.853 W003.03.05.260 N058.28.32.000 W003.02.31.606  
N058.28.32.000 W003.02.31.606 N058.28.03.058 W003.02.10.451  
N058.28.03.058 W003.02.10.451 N058.27.32.000 W003.02.03.235  
N058.27.32.000 W003.02.03.235 N058.27.00.942 W003.02.10.451  
N058.27.00.942 W003.02.10.451 N058.26.32.000 W003.02.31.606  
N058.26.32.000 W003.02.31.606 N058.26.07.147 W003.03.05.260  
N058.26.07.147 W003.03.05.260 N058.25.48.077 W003.03.49.118  
N058.25.48.077 W003.03.49.118 N058.25.36.089 W003.04.40.191  
N058.25.36.089 W003.04.40.191 N058.25.32.000 W003.05.35.000  
N058.25.32.000 W003.05.35.000 N058.25.36.089 W003.06.29.809   
N058.25.36.089 W003.06.29.809 N058.25.48.077 W003.07.20.882  
N058.25.48.077 W003.07.20.882 N058.26.07.147 W003.08.04.740  
N058.26.07.147 W003.08.04.740 N058.26.32.000 W003.08.38.394  
N058.26.32.000 W003.08.38.394 N058.27.00.942 W003.08.59.549  
N058.27.00.942 W003.08.59.549 N058.27.32.000 W003.09.06.765  
N058.27.32.000 W003.09.06.765 N058.28.03.058 W003.08.59.549  
N058.28.03.058 W003.08.59.549 N058.28.32.000 W003.08.38.394  
N058.28.32.000 W003.08.38.394 N058.28.56.853 W003.08.04.740  
N058.28.56.853 W003.08.04.740 N058.29.15.923 W003.07.20.882  
N058.29.15.923 W003.07.20.882 N058.29.27.911 W003.06.29.809  
N058.29.27.911 W003.06.29.809 N058.29.32.000 W003.05.35.000  
N058.29.32.000 W003.05.35.000 N058.29.27.911 W003.04.40.191  
;INVERNESS ATZ
N057.34.29.911 W004.01.56.191 N057.34.17.923 W004.01.05.118  
N057.34.17.923 W004.01.05.118 N057.33.58.853 W004.00.21.260  
N057.33.58.853 W004.00.21.260 N057.33.34.000 W003.59.47.606  
N057.33.34.000 W003.59.47.606 N057.33.05.058 W003.59.26.451  
N057.33.05.058 W003.59.26.451 N057.32.34.000 W003.59.19.235  
N057.32.34.000 W003.59.19.235 N057.32.02.942 W003.59.26.451  
N057.32.02.942 W003.59.26.451 N057.31.34.000 W003.59.47.606  
N057.31.34.000 W003.59.47.606 N057.31.09.147 W004.00.21.260  
N057.31.09.147 W004.00.21.260 N057.30.50.077 W004.01.05.118  
N057.30.50.077 W004.01.05.118 N057.30.38.089 W004.01.56.191  
N057.30.38.089 W004.01.56.191 N057.30.34.000 W004.02.51.000  
N057.30.34.000 W004.02.51.000 N057.30.38.089 W004.03.45.809  
N057.30.38.089 W004.03.45.809 N057.30.50.077 W004.04.36.882  
N057.30.50.077 W004.04.36.882 N057.31.09.147 W004.05.20.740  
N057.31.09.147 W004.05.20.740 N057.31.34.000 W004.05.54.394  
N057.31.34.000 W004.05.54.394 N057.32.02.942 W004.06.15.549  
N057.32.02.942 W004.06.15.549 N057.32.34.000 W004.06.22.765  
N057.32.34.000 W004.06.22.765 N057.33.05.058 W004.06.15.549  
N057.33.05.058 W004.06.15.549 N057.33.34.000 W004.05.54.394  
N057.33.34.000 W004.05.54.394 N057.33.58.853 W004.05.20.740  
N057.33.58.853 W004.05.20.740 N057.34.17.923 W004.04.36.882  
N057.34.17.923 W004.04.36.882 N057.34.29.911 W004.03.45.809  
N057.34.29.911 W004.03.45.809 N057.34.34.000 W004.02.51.000  
N057.34.34.000 W004.02.51.000 N057.34.29.911 W004.01.56.191  
;STORNOWAY ATZ
N058.14.51.911 W006.18.57.191 N058.14.39.923 W006.18.06.118  
N058.14.39.923 W006.18.06.118 N058.14.20.853 W006.17.22.260  
N058.14.20.853 W006.17.22.260 N058.13.56.000 W006.16.48.606  
N058.13.56.000 W006.16.48.606 N058.13.27.058 W006.16.27.451  
N058.13.27.058 W006.16.27.451 N058.12.56.000 W006.16.20.235  
N058.12.56.000 W006.16.20.235 N058.12.24.942 W006.16.27.451  
N058.12.24.942 W006.16.27.451 N058.11.56.000 W006.16.48.606  
N058.11.56.000 W006.16.48.606 N058.11.31.147 W006.17.22.260  
N058.11.31.147 W006.17.22.260 N058.11.12.077 W006.18.06.118  
N058.11.12.077 W006.18.06.118 N058.11.00.089 W006.18.57.191  
N058.11.00.089 W006.18.57.191 N058.10.56.000 W006.19.52.000  
N058.10.56.000 W006.19.52.000 N058.11.00.089 W006.20.46.809  
N058.11.00.089 W006.20.46.809 N058.11.12.077 W006.21.37.882  
N058.11.12.077 W006.21.37.882 N058.11.31.147 W006.22.21.740  
N058.11.31.147 W006.22.21.740 N058.11.56.000 W006.22.55.394  
N058.11.56.000 W006.22.55.394 N058.12.24.942 W006.23.16.549  
N058.12.24.942 W006.23.16.549 N058.12.56.000 W006.23.23.765  
N058.12.56.000 W006.23.23.765 N058.13.27.058 W006.23.16.549  
N058.13.27.058 W006.23.16.549 N058.13.56.000 W006.22.55.394  
N058.13.56.000 W006.22.55.394 N058.14.20.853 W006.22.21.740  
N058.14.20.853 W006.22.21.740 N058.14.39.923 W006.21.37.882  
N058.14.39.923 W006.21.37.882 N058.14.51.911 W006.20.46.809  
N058.14.51.911 W006.20.46.809 N058.14.56.000 W006.19.52.000  
N058.14.56.000 W006.19.52.000 N058.14.51.911 W006.18.57.191  
;BENBECULA ATZ
N057.30.47.911 W007.20.51.191 N057.30.35.923 W007.20.00.118  
N057.30.35.923 W007.20.00.118 N057.30.16.853 W007.19.16.260  
N057.30.16.853 W007.19.16.260 N057.29.52.000 W007.18.42.606  
N057.29.52.000 W007.18.42.606 N057.29.23.058 W007.18.21.451  
N057.29.23.058 W007.18.21.451 N057.28.52.000 W007.18.14.235  
N057.28.52.000 W007.18.14.235 N057.28.20.942 W007.18.21.451  
N057.28.20.942 W007.18.21.451 N057.27.52.000 W007.18.42.606  
N057.27.52.000 W007.18.42.606 N057.27.27.147 W007.19.16.260   
N057.27.27.147 W007.19.16.260 N057.27.08.077 W007.20.00.118  
N057.27.08.077 W007.20.00.118 N057.26.56.089 W007.20.51.191  
N057.26.56.089 W007.20.51.191 N057.26.52.000 W007.21.46.000  
N057.26.52.000 W007.21.46.000 N057.26.56.089 W007.22.40.809  
N057.26.56.089 W007.22.40.809 N057.27.08.077 W007.23.31.882   
N057.27.08.077 W007.23.31.882 N057.27.27.147 W007.24.15.740   
N057.27.27.147 W007.24.15.740 N057.27.52.000 W007.24.49.394   
N057.27.52.000 W007.24.49.394 N057.28.20.942 W007.25.10.549  
N057.28.20.942 W007.25.10.549 N057.28.52.000 W007.25.17.765  
N057.28.52.000 W007.25.17.765 N057.29.23.058 W007.25.10.549  
N057.29.23.058 W007.25.10.549 N057.29.52.000 W007.24.49.394  
N057.29.52.000 W007.24.49.394 N057.30.16.853 W007.24.15.740   
N057.30.16.853 W007.24.15.740 N057.30.35.923 W007.23.31.882  
N057.30.35.923 W007.23.31.882 N057.30.47.911 W007.22.40.809  
N057.30.47.911 W007.22.40.809 N057.30.52.000 W007.21.46.000  
N057.30.52.000 W007.21.46.000 N057.30.47.911 W007.20.51.191   
;DUNDEE ATZ
N056.29.04.911 W003.00.38.191 N056.28.52.923 W002.59.47.118  
N056.28.52.923 W002.59.47.118 N056.28.33.853 W002.59.03.260  
N056.28.33.853 W002.59.03.260 N056.28.09.000 W002.58.29.606  
N056.28.09.000 W002.58.29.606 N056.27.40.058 W002.58.08.451  
N056.27.40.058 W002.58.08.451 N056.27.09.000 W002.58.01.235  
N056.27.09.000 W002.58.01.235 N056.26.37.942 W002.58.08.451  
N056.26.37.942 W002.58.08.451 N056.26.09.000 W002.58.29.606  
N056.26.09.000 W002.58.29.606 N056.25.44.147 W002.59.03.260  
N056.25.44.147 W002.59.03.260 N056.25.25.077 W002.59.47.118  
N056.25.25.077 W002.59.47.118 N056.25.13.089 W003.00.38.191  
N056.25.13.089 W003.00.38.191 N056.25.09.000 W003.01.33.000  
N056.25.09.000 W003.01.33.000 N056.25.13.089 W003.02.27.809  
N056.25.13.089 W003.02.27.809 N056.25.25.077 W003.03.18.882   
N056.25.25.077 W003.03.18.882 N056.25.44.147 W003.04.02.740  
N056.25.44.147 W003.04.02.740 N056.26.09.000 W003.04.36.394   
N056.26.09.000 W003.04.36.394 N056.26.37.942 W003.04.57.549  
N056.26.37.942 W003.04.57.549 N056.27.09.000 W003.05.04.765  
N056.27.09.000 W003.05.04.765 N056.27.40.058 W003.04.57.549  
N056.27.40.058 W003.04.57.549 N056.28.09.000 W003.04.36.394  
N056.28.09.000 W003.04.36.394 N056.28.33.853 W003.04.02.740  
N056.28.33.853 W003.04.02.740 N056.28.52.923 W003.03.18.882  
N056.28.52.923 W003.03.18.882 N056.29.04.911 W003.02.27.809  
N056.29.04.911 W003.02.27.809 N056.29.09.000 W003.01.33.000  
N056.29.09.000 W003.01.33.000 N056.29.04.911 W003.00.38.191  
;TIREE ATZ
N056.31.52.911 W006.51.14.191 N056.31.40.923 W006.50.23.118  
N056.31.40.923 W006.50.23.118 N056.31.21.853 W006.49.39.260  
N056.31.21.853 W006.49.39.260 N056.30.57.000 W006.49.05.606  
N056.30.57.000 W006.49.05.606 N056.30.28.058 W006.48.44.451  
N056.30.28.058 W006.48.44.451 N056.29.57.000 W006.48.37.235  
N056.29.57.000 W006.48.37.235 N056.29.25.942 W006.48.44.451  
N056.29.25.942 W006.48.44.451 N056.28.57.000 W006.49.05.606  
N056.28.57.000 W006.49.05.606 N056.28.32.147 W006.49.39.260  
N056.28.32.147 W006.49.39.260 N056.28.13.077 W006.50.23.118  
N056.28.13.077 W006.50.23.118 N056.28.01.089 W006.51.14.191  
N056.28.01.089 W006.51.14.191 N056.27.57.000 W006.52.09.000  
N056.27.57.000 W006.52.09.000 N056.28.01.089 W006.53.03.809  
N056.28.01.089 W006.53.03.809 N056.28.13.077 W006.53.54.882  
N056.28.13.077 W006.53.54.882 N056.28.32.147 W006.54.38.740  
N056.28.32.147 W006.54.38.740 N056.28.57.000 W006.55.12.394  
N056.28.57.000 W006.55.12.394 N056.29.25.942 W006.55.33.549  
N056.29.25.942 W006.55.33.549 N056.29.57.000 W006.55.40.765  
N056.29.57.000 W006.55.40.765 N056.30.28.058 W006.55.33.549  
N056.30.28.058 W006.55.33.549 N056.30.57.000 W006.55.12.394  
N056.30.57.000 W006.55.12.394 N056.31.21.853 W006.54.38.740  
N056.31.21.853 W006.54.38.740 N056.31.40.923 W006.53.54.882  
N056.31.40.923 W006.53.54.882 N056.31.52.911 W006.53.03.809  
N056.31.52.911 W006.53.03.809 N056.31.57.000 W006.52.09.000  
N056.31.57.000 W006.52.09.000 N056.31.52.911 W006.51.14.191  
;ISLAY ATZ
N055.42.55.911 W006.14.40.191 N055.42.43.923 W006.13.49.118  
N055.42.43.923 W006.13.49.118 N055.42.24.853 W006.13.05.260  
N055.42.24.853 W006.13.05.260 N055.42.00.000 W006.12.31.606  
N055.42.00.000 W006.12.31.606 N055.41.31.058 W006.12.10.451  
N055.41.31.058 W006.12.10.451 N055.41.00.000 W006.12.03.235  
N055.41.00.000 W006.12.03.235 N055.40.28.942 W006.12.10.451   
N055.40.28.942 W006.12.10.451 N055.40.00.000 W006.12.31.606  
N055.40.00.000 W006.12.31.606 N055.39.35.147 W006.13.05.260  
N055.39.35.147 W006.13.05.260 N055.39.16.077 W006.13.49.118  
N055.39.16.077 W006.13.49.118 N055.39.04.089 W006.14.40.191  
N055.39.04.089 W006.14.40.191 N055.39.00.000 W006.15.35.000  
N055.39.00.000 W006.15.35.000 N055.39.04.089 W006.16.29.809  
N055.39.04.089 W006.16.29.809 N055.39.16.077 W006.17.20.882  
N055.39.16.077 W006.17.20.882 N055.39.35.147 W006.18.04.740  
N055.39.35.147 W006.18.04.740 N055.40.00.000 W006.18.38.394  
N055.40.00.000 W006.18.38.394 N055.40.28.942 W006.18.59.549   
N055.40.28.942 W006.18.59.549 N055.41.00.000 W006.19.06.765  
N055.41.00.000 W006.19.06.765 N055.41.31.058 W006.18.59.549  
N055.41.31.058 W006.18.59.549 N055.42.00.000 W006.18.38.394  
N055.42.00.000 W006.18.38.394 N055.42.24.853 W006.18.04.740  
N055.42.24.853 W006.18.04.740 N055.42.43.923 W006.17.20.882  
N055.42.43.923 W006.17.20.882 N055.42.55.911 W006.16.29.809  
N055.42.55.911 W006.16.29.809 N055.43.00.000 W006.15.35.000  
N055.43.00.000 W006.15.35.000 N055.42.55.911 W006.14.40.191  
;DERRY ATZ
N055.04.29.911 W007.08.45.191 N055.04.17.923 W007.07.54.118  
N055.04.17.923 W007.07.54.118 N055.03.58.853 W007.07.10.260  
N055.03.58.853 W007.07.10.260 N055.03.34.000 W007.06.36.606  
N055.03.34.000 W007.06.36.606 N055.03.05.058 W007.06.15.451  
N055.03.05.058 W007.06.15.451 N055.02.34.000 W007.06.08.235  
N055.02.34.000 W007.06.08.235 N055.02.02.942 W007.06.15.451  
N055.02.02.942 W007.06.15.451 N055.01.34.000 W007.06.36.606  
N055.01.34.000 W007.06.36.606 N055.01.09.147 W007.07.10.260  
N055.01.09.147 W007.07.10.260 N055.00.50.077 W007.07.54.118  
N055.00.50.077 W007.07.54.118 N055.00.38.089 W007.08.45.191  
N055.00.38.089 W007.08.45.191 N055.00.34.000 W007.09.40.000  
N055.00.34.000 W007.09.40.000 N055.00.38.089 W007.10.34.809  
N055.00.38.089 W007.10.34.809 N055.00.50.077 W007.11.25.882  
N055.00.50.077 W007.11.25.882 N055.01.09.147 W007.12.09.740  
N055.01.09.147 W007.12.09.740 N055.01.34.000 W007.12.43.394  
N055.01.34.000 W007.12.43.394 N055.02.02.942 W007.13.04.549  
N055.02.02.942 W007.13.04.549 N055.02.34.000 W007.13.11.765  
N055.02.34.000 W007.13.11.765 N055.03.05.058 W007.13.04.549  
N055.03.05.058 W007.13.04.549 N055.03.34.000 W007.12.43.394  
N055.03.34.000 W007.12.43.394 N055.03.58.853 W007.12.09.740  
N055.03.58.853 W007.12.09.740 N055.04.17.923 W007.11.25.882  
N055.04.17.923 W007.11.25.882 N055.04.29.911 W007.10.34.809  
N055.04.29.911 W007.10.34.809 N055.04.34.000 W007.09.40.000  
N055.04.34.000 W007.09.40.000 N055.04.29.911 W007.08.45.191  
;CAMPBELTOWN ATZ
N055.28.09.911 W005.40.16.191 N055.27.57.923 W005.39.25.118  
N055.27.57.923 W005.39.25.118 N055.27.38.853 W005.38.41.260  
N055.27.38.853 W005.38.41.260 N055.27.14.000 W005.38.07.606  
N055.27.14.000 W005.38.07.606 N055.26.45.058 W005.37.46.451  
N055.26.45.058 W005.37.46.451 N055.26.14.000 W005.37.39.235  
N055.26.14.000 W005.37.39.235 N055.25.42.942 W005.37.46.451  
N055.25.42.942 W005.37.46.451 N055.25.14.000 W005.38.07.606  
N055.25.14.000 W005.38.07.606 N055.24.49.147 W005.38.41.260  
N055.24.49.147 W005.38.41.260 N055.24.30.077 W005.39.25.118  
N055.24.30.077 W005.39.25.118 N055.24.18.089 W005.40.16.191   
N055.24.18.089 W005.40.16.191 N055.24.14.000 W005.41.11.000   
N055.24.14.000 W005.41.11.000 N055.24.18.089 W005.42.05.809  
N055.24.18.089 W005.42.05.809 N055.24.30.077 W005.42.56.882  
N055.24.30.077 W005.42.56.882 N055.24.49.147 W005.43.40.740  
N055.24.49.147 W005.43.40.740 N055.25.14.000 W005.44.14.394  
N055.25.14.000 W005.44.14.394 N055.25.42.942 W005.44.35.549  
N055.25.42.942 W005.44.35.549 N055.26.14.000 W005.44.42.765  
N055.26.14.000 W005.44.42.765 N055.26.45.058 W005.44.35.549  
N055.26.45.058 W005.44.35.549 N055.27.14.000 W005.44.14.394  
N055.27.14.000 W005.44.14.394 N055.27.38.853 W005.43.40.740  
N055.27.38.853 W005.43.40.740 N055.27.57.923 W005.42.56.882  
N055.27.57.923 W005.42.56.882 N055.28.09.911 W005.42.05.809  
N055.28.09.911 W005.42.05.809 N055.28.14.000 W005.41.11.000  
N055.28.14.000 W005.41.11.000 N055.28.09.911 W005.40.16.191  
;PERTH ATZ
N056.28.23.911 W003.21.32.191 N056.28.11.923 W003.20.41.118  
N056.28.11.923 W003.20.41.118 N056.27.52.853 W003.19.57.260  
N056.27.52.853 W003.19.57.260 N056.27.28.000 W003.19.23.606  
N056.27.28.000 W003.19.23.606 N056.26.59.058 W003.19.02.451  
N056.26.59.058 W003.19.02.451 N056.26.28.000 W003.18.55.235  
N056.26.28.000 W003.18.55.235 N056.25.56.942 W003.19.02.451  
N056.25.56.942 W003.19.02.451 N056.25.28.000 W003.19.23.606  
N056.25.28.000 W003.19.23.606 N056.25.03.147 W003.19.57.260  
N056.25.03.147 W003.19.57.260 N056.24.44.077 W003.20.41.118  
N056.24.44.077 W003.20.41.118 N056.24.32.089 W003.21.32.191  
N056.24.32.089 W003.21.32.191 N056.24.28.000 W003.22.27.000  
N056.24.28.000 W003.22.27.000 N056.24.32.089 W003.23.21.809  
N056.24.32.089 W003.23.21.809 N056.24.44.077 W003.24.12.882  
N056.24.44.077 W003.24.12.882 N056.25.03.147 W003.24.56.740  
N056.25.03.147 W003.24.56.740 N056.25.28.000 W003.25.30.394  
N056.25.28.000 W003.25.30.394 N056.25.56.942 W003.25.51.549  
N056.25.56.942 W003.25.51.549 N056.26.28.000 W003.25.58.765  
N056.26.28.000 W003.25.58.765 N056.26.59.058 W003.25.51.549  
N056.26.59.058 W003.25.51.549 N056.27.28.000 W003.25.30.394  
N056.27.28.000 W003.25.30.394 N056.27.52.853 W003.24.56.740  
N056.27.52.853 W003.24.56.740 N056.28.11.923 W003.24.12.882  
N056.28.11.923 W003.24.12.882 N056.28.23.911 W003.23.21.809  
N056.28.23.911 W003.23.21.809 N056.28.28.000 W003.22.27.000  
N056.28.28.000 W003.22.27.000 N056.28.23.911 W003.21.32.191  