;Scottish FIR
EGPX Scottish FIR N054.34.09.000 W010.00.13.000 N054.45.02.000 W009.00.14.000
EGPX Scottish FIR N054.45.02.000 W009.00.14.000 N055.20.09.000 W008.15.09.000
EGPX Scottish FIR N055.20.09.000 W008.15.09.000 N055.25.05.000 W007.20.08.000
EGPX Scottish FIR N055.25.05.000 W007.20.08.000 N055.20.12.000 W006.55.20.000
EGPX Scottish FIR N055.20.12.000 W006.55.20.000 N054.25.07.000 W008.10.07.000
EGPX Scottish FIR N054.25.07.000 W008.10.07.000 N053.55.08.000 W005.30.11.000
EGPX Scottish FIR N053.55.08.000 W005.30.11.000 N055.00.08.000 W005.30.05.000
EGPX Scottish FIR N055.00.08.000 W005.30.05.000 N055.00.11.000 E004.59.90.000
EGPX Scottish FIR N055.00.11.000 E004.59.90.000 N057.00.12.000 E004.59.82.000
EGPX Scottish FIR N057.00.12.000 E004.59.82.000 N060.00.11.000 W000.00.04.000
EGPX Scottish FIR N060.00.11.000 W000.00.04.000 N061.00.06.000 W000.00.11.000
EGPX Scottish FIR N061.00.06.000 W000.00.11.000 N061.00.06.000 W010.00.07.000
EGPX Scottish FIR RATSU		     RATSU			N054.34.09.000 W010.00.13.000

;Copenhagen FIR
EKDK Copenhagen FIR N054.30.00.000 E004.32.09.000 N054.38.43.000 E004.20.00.000
EKDK Copenhagen FIR N054.38.43.000 E004.20.00.000 N054.49.27.000 E004.11.10.000
EKDK Copenhagen FIR N054.49.27.000 E004.11.10.000 N055.02.52.000 E004.00.00.000
EKDK Copenhagen FIR N055.02.52.000 E004.00.00.000 N055.51.16.000 E003.30.00.000
EKDK Copenhagen FIR N055.51.16.000 E003.30.00.000 N056.30.35.000 E003.30.00.000
EKDK Copenhagen FIR N056.30.35.000 E003.30.00.000 N057.20.00.000 E004.29.58.000
EKDK Copenhagen FIR N057.20.00.000 E004.29.58.000 N057.00.00.000 E005.00.00.000
EKDK Copenhagen FIR N057.00.00.000 E005.00.00.000 N055.00.00.000 E005.00.00.000
EKDK Copenhagen FIR N055.00.00.000 E005.00.00.000 N054.30.00.000 E004.32.09.000

;Reykjavik FIR
BIRK Reykjavik  N061.00.00.000 W007.00.00.000 N060.30.00.000 W010.00.00.000

;Shannon FIR
EISN Shannon FIR N054.25.00.000 W008.10.00.000 N054.38.58.000 W009.33.20.000
EISN Shannon FIR N054.25.00.000 W008.10.00.000 N053.55.00.000 W005.30.00.000
EISN Shannon FIR N053.55.00.000 W005.30.00.000 N052.20.00.000 W005.30.00.000
EISN Shannon FIR N052.20.00.000 W005.30.00.000 N051.00.00.000 W008.00.00.000
EISN Shannon FIR N051.00.00.000 W008.00.00.000 N048.30.00.000 W008.00.00.000
EISN Shannon FIR N048.30.00.000 W008.00.00.000 N049.00.00.000 W015.00.00.000
EISN Shannon FIR N049.00.00.000 W015.00.00.000 N057.00.00.000 W015.00.00.000
EISN Shannon FIR N057.00.00.000 W015.00.00.000 N057.00.00.000 W010.00.00.000
EISN Shannon FIR N057.00.00.000 W010.00.00.000 N054.34.00.000 W010.00.00.000
EISN Shannon FIR N054.34.00.000 W010.00.00.000 N054.38.58.000 W009.33.20.000
EISN Shannon FIR N054.38.58.000 W009.33.20.000 N054.45.00.000 W009.00.00.000 ; - FL245 Shelf
EISN Shannon FIR N054.45.00.000 W009.00.00.000 N055.20.00.000 W008.15.00.000 ; - FL245 Shelf
EISN Shannon FIR N055.20.00.000 W008.15.00.000 N055.25.00.000 W007.20.00.000 ; - FL245 Shelf
EISN Shannon FIR N055.25.00.000 W007.20.00.000 N055.20.00.000 W006.55.00.000 ; - FL245 Shelf
EISN Shannon FIR N055.20.00.000 W006.55.00.000 N054.25.00.000 W008.10.00.000 ; - FL245 Shelf

;LONDON FIR
EGTT London FIR N053.14.57.103 E003.25.46.498 N052.57.32.551 E003.11.07.732
EGTT London FIR N052.57.32.551 E003.11.07.732 N052.37.05.380 E002.54.03.740
EGTT London FIR N052.37.05.380 E002.54.03.740 N052.28.34.950 E002.47.46.021
EGTT London FIR N052.28.34.950 E002.47.46.021 N052.23.20.378 E002.43.29.798
EGTT London FIR N052.23.20.378 E002.43.29.798 N052.13.52.770 E002.35.21.300
EGTT London FIR N052.13.52.770 E002.35.21.300 N051.52.30.850 E002.17.41.870
EGTT London FIR N051.52.30.850 E002.17.41.870 N051.42.23.288 E002.09.44.230
EGTT London FIR N051.42.23.288 E002.09.44.230 N051.30.00.000 E002.00.00.000
EGTT London FIR N051.30.00.000 E002.00.00.000 N051.07.00.001 E002.00.00.000
EGTT London FIR N051.07.00.001 E002.00.00.000 N051.00.00.000 E001.28.00.001
EGTT London FIR N051.00.00.000 E001.28.00.001 N050.40.00.001 E001.28.00.001
EGTT London FIR N050.40.00.001 E001.28.00.001 N050.00.00.000 W000.15.00.000
EGTT London FIR N050.00.00.000 W000.15.00.000 N050.00.00.000 W002.00.00.000
EGTT London FIR N050.00.00.000 W002.00.00.000 N049.49.29.000 W003.02.03.000
EGTT London FIR N049.49.29.000 W003.02.03.000 N049.47.07.000 W003.15.34.000
EGTT London FIR N049.47.07.000 W003.15.34.000 N049.44.14.000 W003.31.46.000
EGTT London FIR N049.44.14.000 W003.31.46.000 N049.39.05.000 W004.00.05.000
EGTT London FIR N049.39.05.000 W004.00.05.000 N049.35.25.000 W004.19.49.000
EGTT London FIR N049.35.25.000 W004.19.49.000 N049.24.38.000 W005.15.59.000
EGTT London FIR N049.24.38.000 W005.15.59.000 N049.17.30.000 W005.51.35.000
EGTT London FIR N049.17.30.000 W005.51.35.000 N049.00.26.000 W007.12.53.000
EGTT London FIR N049.00.26.000 W007.12.53.000 N048.49.59.999 W008.00.00.000
EGTT London FIR N048.49.59.999 W008.00.00.000 N051.00.00.000 W008.00.00.000
EGTT London FIR N051.00.00.000 W008.00.00.000 N051.14.24.000 W007.34.05.000
EGTT London FIR N051.14.24.000 W007.34.05.000 N051.29.55.000 W007.05.37.000
EGTT London FIR N051.29.55.000 W007.05.37.000 N051.37.09.000 W006.52.11.000
EGTT London FIR N051.37.09.000 W006.52.11.000 N051.46.56.000 W006.33.48.000
EGTT London FIR N051.46.56.000 W006.33.48.000 N051.57.10.000 W006.14.21.000
EGTT London FIR N051.57.10.000 W006.14.21.000 N052.09.31.000 W005.50.32.000
EGTT London FIR N052.09.31.000 W005.50.32.000 N052.14.30.000 W005.40.49.000
EGTT London FIR N052.14.30.000 W005.40.49.000 N052.19.59.999 W005.30.00.000
EGTT London FIR N053.40.48.000 W005.30.00.000 N052.19.59.999 W005.30.00.000

;Shanwick Oceanic FIR
EGGX Shanwick RATSU          RATSU          N061.00.00.000 W030.00.24.000
EGGX Shanwick N061.00.00.000 W030.00.24.000 N045.00.16.000 W030.00.21.000
EGGX Shanwick N045.00.16.000 W030.00.21.000 N045.00.28.000 W008.00.17.000
EGGX Shanwick N045.00.28.000 W008.00.17.000 N051.00.00.000 W008.00.00.000

;Amsterdam FIR
EHAA Amsterdam FIR N052.08.37.000 E006.52.37.999 N052.07.04.040 E006.50.12.959
EHAA Amsterdam FIR N052.07.04.040 E006.50.12.959 N052.06.25.060 E006.45.18.000
EHAA Amsterdam FIR N052.06.25.060 E006.45.18.000 N052.05.13.891 E006.44.50.978
EHAA Amsterdam FIR N052.05.13.891 E006.44.50.978 N052.04.48.112 E006.44.30.970
EHAA Amsterdam FIR N052.04.48.112 E006.44.30.970 N052.03.39.010 E006.41.24.101
EHAA Amsterdam FIR N052.03.39.010 E006.41.24.101 N052.02.20.011 E006.41.17.081
EHAA Amsterdam FIR N052.02.20.011 E006.41.17.081 N052.01.34.010 E006.44.49.949
EHAA Amsterdam FIR N052.01.34.010 E006.44.49.949 N051.59.31.909 E006.49.13.969
EHAA Amsterdam FIR N051.59.31.909 E006.49.13.969 N051.59.07.980 E006.49.35.011
EHAA Amsterdam FIR N051.59.07.980 E006.49.35.011 N051.58.17.029 E006.49.50.891
EHAA Amsterdam FIR N051.58.17.029 E006.49.50.891 N051.57.55.991 E006.49.44.080
EHAA Amsterdam FIR N051.57.55.991 E006.49.44.080 N051.57.39.082 E006.49.11.078
EHAA Amsterdam FIR N051.57.39.082 E006.49.11.078 N051.57.18.040 E006.48.06.109
EHAA Amsterdam FIR N051.57.18.040 E006.48.06.109 N051.55.16.961 E006.46.36.998
EHAA Amsterdam FIR N051.55.16.961 E006.46.36.998 N051.54.21.060 E006.44.42.940
EHAA Amsterdam FIR N051.54.21.060 E006.44.42.940 N051.54.13.021 E006.42.06.998
EHAA Amsterdam FIR N051.54.13.021 E006.42.06.998 N051.54.46.019 E006.40.22.012
EHAA Amsterdam FIR N051.54.46.019 E006.40.22.012 N051.54.22.100 E006.39.20.959
EHAA Amsterdam FIR N051.54.22.100 E006.39.20.959 N051.53.60.000 E006.36.45.000
EHAA Amsterdam FIR N051.53.60.000 E006.36.45.000 N051.53.24.961 E006.34.36.930
EHAA Amsterdam FIR N051.53.24.961 E006.34.36.930 N051.51.51.941 E006.29.57.030
EHAA Amsterdam FIR N051.51.51.941 E006.29.57.030 N051.51.28.012 E006.29.17.020
EHAA Amsterdam FIR N051.51.28.012 E006.29.17.020 N051.51.31.928 E006.27.16.970
EHAA Amsterdam FIR N051.51.31.928 E006.27.16.970 N051.51.42.030 E006.26.53.041
EHAA Amsterdam FIR N051.51.42.030 E006.26.53.041 N051.51.52.970 E006.23.38.951
EHAA Amsterdam FIR N051.51.52.970 E006.23.38.951 N051.50.58.931 E006.24.10.091
EHAA Amsterdam FIR N051.50.58.931 E006.24.10.091 N051.49.40.958 E006.24.12.982
EHAA Amsterdam FIR N051.49.40.958 E006.24.12.982 N051.49.43.021 E006.21.43.031
EHAA Amsterdam FIR N051.49.43.021 E006.21.43.031 N051.50.32.939 E006.21.51.070
EHAA Amsterdam FIR N051.50.32.939 E006.21.51.070 N051.52.24.938 E006.16.37.960
EHAA Amsterdam FIR N051.52.24.938 E006.16.37.960 N051.52.38.960 E006.11.52.901
EHAA Amsterdam FIR N051.52.38.960 E006.11.52.901 N051.52.57.940 E006.11.43.001
EHAA Amsterdam FIR N051.52.57.940 E006.11.43.001 N051.53.16.091 E006.11.12.059
EHAA Amsterdam FIR N051.53.16.091 E006.11.12.059 N051.54.06.008 E006.10.13.069
EHAA Amsterdam FIR N051.54.06.008 E006.10.13.069 N051.54.15.908 E006.09.05.000
EHAA Amsterdam FIR N051.54.15.908 E006.09.05.000 N051.53.34.040 E006.06.36.079
EHAA Amsterdam FIR N051.53.34.040 E006.06.36.079 N051.50.43.040 E006.10.12.040
EHAA Amsterdam FIR N051.50.43.040 E006.10.12.040 N051.50.14.989 E006.10.01.110
EHAA Amsterdam FIR N051.50.14.989 E006.10.01.110 N051.51.05.940 E006.05.18.110
EHAA Amsterdam FIR N051.51.05.940 E006.05.18.110 N051.51.02.020 E006.02.50.010
EHAA Amsterdam FIR N051.51.02.020 E006.02.50.010 N051.49.30.029 E005.56.53.999
EHAA Amsterdam FIR N051.49.30.029 E005.56.53.999 N051.49.23.009 E005.56.53.999
EHAA Amsterdam FIR N051.49.23.009 E005.56.53.999 N051.49.07.950 E005.57.14.011
EHAA Amsterdam FIR N051.49.07.950 E005.57.14.011 N051.48.51.041 E005.56.42.040
EHAA Amsterdam FIR N051.48.51.041 E005.56.42.040 N051.48.41.969 E005.56.46.990
EHAA Amsterdam FIR N051.48.41.969 E005.56.46.990 N051.48.12.060 E005.57.58.979
EHAA Amsterdam FIR N051.48.12.060 E005.57.58.979 N051.47.13.070 E005.58.22.901
EHAA Amsterdam FIR N051.47.13.070 E005.58.22.901 N051.47.01.579 E005.59.01.241
EHAA Amsterdam FIR N051.47.01.579 E005.59.01.241 N051.46.37.999 E005.59.02.911
EHAA Amsterdam FIR N051.46.37.999 E005.59.02.911 N051.46.30.000 E005.58.30.000
EHAA Amsterdam FIR N051.46.30.000 E005.58.30.000 N051.46.01.081 E005.59.11.990
EHAA Amsterdam FIR N051.46.01.081 E005.59.11.990 N051.45.49.939 E005.59.09.100
EHAA Amsterdam FIR N051.45.49.939 E005.59.09.100 N051.44.49.920 E005.57.08.021
EHAA Amsterdam FIR N051.44.49.920 E005.57.08.021 N051.44.27.020 E005.57.11.941
EHAA Amsterdam FIR N051.44.27.020 E005.57.11.941 N051.44.11.969 E005.57.28.030
EHAA Amsterdam FIR N051.44.11.969 E005.57.28.030 N051.43.05.959 E006.02.13.088
EHAA Amsterdam FIR N051.43.05.959 E006.02.13.088 N051.42.55.030 E006.02.14.950
EHAA Amsterdam FIR N051.42.55.030 E006.02.14.950 N051.42.44.921 E006.01.51.020
EHAA Amsterdam FIR N051.42.44.921 E006.01.51.020 N051.42.24.091 E006.01.44.011
EHAA Amsterdam FIR N051.42.24.091 E006.01.44.011 N051.40.32.909 E006.01.52.050
EHAA Amsterdam FIR N051.40.32.909 E006.01.52.050 N051.40.13.109 E006.02.20.929
EHAA Amsterdam FIR N051.40.13.109 E006.02.20.929 N051.39.05.000 E006.07.00.001
EHAA Amsterdam FIR N051.39.05.000 E006.07.00.001 N051.36.16.110 E006.05.38.940
EHAA Amsterdam FIR N051.36.16.110 E006.05.38.940 N051.33.20.999 E006.09.36.968
EHAA Amsterdam FIR N051.33.20.999 E006.09.36.968 N051.33.15.001 E006.10.19.999
EHAA Amsterdam FIR N051.33.15.001 E006.10.19.999 N051.30.13.910 E006.12.30.031
EHAA Amsterdam FIR N051.30.13.910 E006.12.30.031 N051.29.51.011 E006.12.27.968
EHAA Amsterdam FIR N051.29.51.011 E006.12.27.968 N051.27.56.948 E006.13.19.949
EHAA Amsterdam FIR N051.27.56.948 E006.13.19.949 N051.26.49.920 E006.12.46.940
EHAA Amsterdam FIR N051.26.49.920 E006.12.46.940 N051.26.20.011 E006.12.58.079
EHAA Amsterdam FIR N051.26.20.011 E006.12.58.079 N051.25.56.078 E006.12.57.049
EHAA Amsterdam FIR N051.25.56.078 E006.12.57.049 N051.24.24.908 E006.12.23.018
EHAA Amsterdam FIR N051.24.24.908 E006.12.23.018 N051.24.06.970 E006.12.31.061
EHAA Amsterdam FIR N051.24.06.970 E006.12.31.061 N051.23.51.911 E006.13.25.928
EHAA Amsterdam FIR N051.23.51.911 E006.13.25.928 N051.23.42.011 E006.13.29.021
EHAA Amsterdam FIR N051.23.42.011 E006.13.29.021 N051.23.13.960 E006.12.54.990
EHAA Amsterdam FIR N051.23.13.960 E006.12.54.990 N051.22.05.059 E006.13.20.978
EHAA Amsterdam FIR N051.22.05.059 E006.13.20.978 N051.21.41.962 E006.13.19.949
EHAA Amsterdam FIR N051.21.41.962 E006.13.19.949 N051.18.41.069 E006.09.21.920
EHAA Amsterdam FIR N051.18.41.069 E006.09.21.920 N051.18.06.001 E006.08.56.962
EHAA Amsterdam FIR N051.18.06.001 E006.08.56.962 N051.14.46.000 E006.04.48.000
EHAA Amsterdam FIR N051.14.46.000 E006.04.48.000 N051.14.25.091 E006.04.35.000
EHAA Amsterdam FIR N051.14.25.091 E006.04.35.000 N051.13.30.022 E006.04.59.959
EHAA Amsterdam FIR N051.13.30.022 E006.04.59.959 N051.13.05.059 E006.04.19.949
EHAA Amsterdam FIR N051.13.05.059 E006.04.19.949 N051.12.41.962 E006.04.17.062
EHAA Amsterdam FIR N051.12.41.962 E006.04.17.062 N051.11.23.989 E006.04.29.021
EHAA Amsterdam FIR N051.11.23.989 E006.04.29.021 N051.10.26.029 E006.04.52.950
EHAA Amsterdam FIR N051.10.26.029 E006.04.52.950 N051.10.07.061 E006.05.43.890
EHAA Amsterdam FIR N051.10.07.061 E006.05.43.890 N051.10.15.920 E006.06.23.911
EHAA Amsterdam FIR N051.10.15.920 E006.06.23.911 N051.11.28.939 E006.10.15.960
EHAA Amsterdam FIR N051.11.28.939 E006.10.15.960 N051.11.12.030 E006.10.26.890
EHAA Amsterdam FIR N051.11.12.030 E006.10.26.890 N051.10.19.020 E006.08.35.920
EHAA Amsterdam FIR N051.10.19.020 E006.08.35.920 N051.09.55.091 E006.09.16.970
EHAA Amsterdam FIR N051.09.55.091 E006.09.16.970 N051.09.37.969 E006.10.08.940
EHAA Amsterdam FIR N051.09.37.969 E006.10.08.940 N051.09.27.040 E006.10.11.010
EHAA Amsterdam FIR N051.09.27.040 E006.10.11.010 N051.07.45.970 E006.05.41.010
EHAA Amsterdam FIR N051.07.45.970 E006.05.41.010 N051.07.12.968 E006.04.55.009
EHAA Amsterdam FIR N051.07.12.968 E006.04.55.009 N051.06.30.060 E006.03.07.960
EHAA Amsterdam FIR N051.06.30.060 E006.03.07.960 N051.03.48.971 E005.58.30.940
EHAA Amsterdam FIR N051.03.48.971 E005.58.30.940 N051.02.07.080 E005.56.37.090
EHAA Amsterdam FIR N051.02.07.080 E005.56.37.090 N051.02.27.910 E005.55.30.050
EHAA Amsterdam FIR N051.02.27.910 E005.55.30.050 N051.03.33.919 E005.53.51.040
EHAA Amsterdam FIR N051.03.33.919 E005.53.51.040 N051.03.11.020 E005.53.10.000
EHAA Amsterdam FIR N051.03.11.020 E005.53.10.000 N051.02.36.989 E005.51.51.001
EHAA Amsterdam FIR N051.02.36.989 E005.51.51.001 N051.02.08.999 E005.52.21.000
EHAA Amsterdam FIR N051.02.08.999 E005.52.21.000 N051.01.08.090 E005.52.09.970
EHAA Amsterdam FIR N051.01.08.090 E005.52.09.970 N051.00.43.949 E005.52.32.041
EHAA Amsterdam FIR N051.00.43.949 E005.52.32.041 N050.59.56.929 E005.53.52.901
EHAA Amsterdam FIR N050.59.56.929 E005.53.52.901 N050.59.37.950 E005.54.03.010
EHAA Amsterdam FIR N050.59.37.950 E005.54.03.010 N050.58.22.040 E005.53.30.001
EHAA Amsterdam FIR N050.58.22.040 E005.53.30.001 N050.58.39.990 E005.59.04.981
EHAA Amsterdam FIR N050.58.39.990 E005.59.04.981 N050.58.24.931 E006.01.44.011
EHAA Amsterdam FIR N050.58.24.931 E006.01.44.011 N050.57.39.960 E006.00.38.009
EHAA Amsterdam FIR N050.57.39.960 E006.00.38.009 N050.57.23.051 E006.00.49.972
EHAA Amsterdam FIR N050.57.23.051 E006.00.49.972 N050.57.09.029 E006.00.32.018
EHAA Amsterdam FIR N050.57.09.029 E006.00.32.018 N050.55.39.922 E006.01.23.999
EHAA Amsterdam FIR N050.55.39.922 E006.01.23.999 N050.54.42.001 E006.05.02.000
EHAA Amsterdam FIR N050.54.42.001 E006.05.02.000 N050.53.55.961 E006.04.18.091
EHAA Amsterdam FIR N050.53.55.961 E006.04.18.091 N050.53.32.039 E006.04.16.021
EHAA Amsterdam FIR N050.53.32.039 E006.04.16.021 N050.52.25.000 E006.05.04.909
EHAA Amsterdam FIR N050.52.25.000 E006.05.04.909 N050.52.14.070 E006.05.03.059
EHAA Amsterdam FIR N050.52.14.070 E006.05.03.059 N050.51.35.910 E006.04.24.899
EHAA Amsterdam FIR N050.51.35.910 E006.04.24.899 N050.51.07.031 E006.04.11.899
EHAA Amsterdam FIR N050.51.07.031 E006.04.11.899 N050.50.54.031 E006.03.52.920
EHAA Amsterdam FIR N050.50.54.031 E006.03.52.920 N050.50.54.031 E006.03.23.011
EHAA Amsterdam FIR N050.50.54.031 E006.03.23.011 N050.51.07.031 E006.03.05.900
EHAA Amsterdam FIR N050.51.07.031 E006.03.05.900 N050.50.30.109 E006.00.49.972
EHAA Amsterdam FIR N050.50.30.109 E006.00.49.972 N050.50.18.971 E006.00.48.110
EHAA Amsterdam FIR N050.50.18.971 E006.00.48.110 N050.49.21.011 E006.01.12.040
EHAA Amsterdam FIR N050.49.21.011 E006.01.12.040 N050.49.09.052 E006.01.12.040
EHAA Amsterdam FIR N050.49.09.052 E006.01.12.040 N050.48.29.030 E006.00.54.922
EHAA Amsterdam FIR N050.48.29.030 E006.00.54.922 N050.48.04.072 E006.00.18.000
EHAA Amsterdam FIR N050.48.04.072 E006.00.18.000 N050.48.15.001 E005.59.06.011
EHAA Amsterdam FIR N050.48.15.001 E005.59.06.011 N050.48.02.009 E005.58.48.061
EHAA Amsterdam FIR N050.48.02.009 E005.58.48.061 N050.47.45.100 E005.58.42.910
EHAA Amsterdam FIR N050.47.45.100 E005.58.42.910 N050.45.54.950 E006.00.58.010
EHAA Amsterdam FIR N050.45.54.950 E006.00.58.010 N050.45.24.008 E006.00.41.879
EHAA Amsterdam FIR N050.45.24.008 E006.00.41.879 N050.45.14.000 E005.59.56.000
EHAA Amsterdam FIR N050.45.14.000 E005.59.56.000 N050.45.25.042 E005.55.57.068
EHAA Amsterdam FIR N050.45.25.042 E005.55.57.068 N050.45.15.998 E005.53.33.000
EHAA Amsterdam FIR N050.45.15.998 E005.53.33.000 N050.45.59.080 E005.52.59.059
EHAA Amsterdam FIR N050.45.59.080 E005.52.59.059 N050.45.33.091 E005.51.16.960
EHAA Amsterdam FIR N050.45.33.091 E005.51.16.960 N050.46.00.930 E005.50.49.942
EHAA Amsterdam FIR N050.46.00.930 E005.50.49.942 N050.45.42.001 E005.50.20.000
EHAA Amsterdam FIR N050.45.42.001 E005.50.20.000 N050.45.53.100 E005.48.15.041
EHAA Amsterdam FIR N050.45.53.100 E005.48.15.041 N050.46.10.009 E005.47.50.910
EHAA Amsterdam FIR N050.46.10.009 E005.47.50.910 N050.46.33.110 E005.46.47.989
EHAA Amsterdam FIR N050.46.33.110 E005.46.47.989 N050.46.45.901 E005.46.43.039
EHAA Amsterdam FIR N050.46.45.901 E005.46.43.039 N050.46.53.940 E005.46.29.021
EHAA Amsterdam FIR N050.46.53.940 E005.46.29.021 N050.46.34.972 E005.45.43.020
EHAA Amsterdam FIR N050.46.34.972 E005.45.43.020 N050.45.33.908 E005.44.13.909
EHAA Amsterdam FIR N050.45.33.908 E005.44.13.909 N050.45.33.091 E005.41.35.092
EHAA Amsterdam FIR N050.45.33.091 E005.41.35.092 N050.45.45.050 E005.41.35.920
EHAA Amsterdam FIR N050.45.45.050 E005.41.35.920 N050.47.22.999 E005.41.48.998
EHAA Amsterdam FIR N050.47.22.999 E005.41.48.998 N050.47.59.950 E005.41.53.030
EHAA Amsterdam FIR N050.47.59.950 E005.41.53.030 N050.48.11.909 E005.42.01.901
EHAA Amsterdam FIR N050.48.11.909 E005.42.01.901 N050.48.24.901 E005.42.00.050
EHAA Amsterdam FIR N050.48.24.901 E005.42.00.050 N050.49.57.000 E005.38.49.999
EHAA Amsterdam FIR N050.49.57.000 E005.38.49.999 N050.50.35.059 E005.38.22.031
EHAA Amsterdam FIR N050.50.35.059 E005.38.22.031 N050.51.01.051 E005.38.15.011
EHAA Amsterdam FIR N050.51.01.051 E005.38.15.011 N050.52.03.961 E005.38.51.940
EHAA Amsterdam FIR N050.52.03.961 E005.38.51.940 N050.52.41.909 E005.39.11.941
EHAA Amsterdam FIR N050.52.41.909 E005.39.11.941 N050.52.36.998 E005.39.56.002
EHAA Amsterdam FIR N050.52.36.998 E005.39.56.002 N050.52.59.401 E005.41.02.641
EHAA Amsterdam FIR N050.52.59.401 E005.41.02.641 N050.54.38.041 E005.42.54.090
EHAA Amsterdam FIR N050.54.38.041 E005.42.54.090 N050.54.51.030 E005.43.47.100
EHAA Amsterdam FIR N050.54.51.030 E005.43.47.100 N050.57.28.001 E005.44.39.080
EHAA Amsterdam FIR N050.57.28.001 E005.44.39.080 N050.57.22.021 E005.43.41.941
EHAA Amsterdam FIR N050.57.22.021 E005.43.41.941 N050.57.28.001 E005.43.26.062
EHAA Amsterdam FIR N050.57.28.001 E005.43.26.062 N050.57.55.019 E005.43.21.940
EHAA Amsterdam FIR N050.57.55.019 E005.43.21.940 N050.58.55.049 E005.44.52.901
EHAA Amsterdam FIR N050.58.55.049 E005.44.52.901 N050.59.23.921 E005.45.51.070
EHAA Amsterdam FIR N050.59.23.921 E005.45.51.070 N051.01.33.049 E005.46.37.060
EHAA Amsterdam FIR N051.01.33.049 E005.46.37.060 N051.01.42.938 E005.46.29.021
EHAA Amsterdam FIR N051.01.42.938 E005.46.29.021 N051.02.07.080 E005.45.46.940
EHAA Amsterdam FIR N051.02.07.080 E005.45.46.940 N051.02.21.930 E005.45.47.970
EHAA Amsterdam FIR N051.02.21.930 E005.45.47.970 N051.02.51.011 E005.46.17.051
EHAA Amsterdam FIR N051.02.51.011 E005.46.17.051 N051.03.34.949 E005.46.31.080
EHAA Amsterdam FIR N051.03.34.949 E005.46.31.080 N051.03.41.962 E005.48.08.021
EHAA Amsterdam FIR N051.03.41.962 E005.48.08.021 N051.05.36.020 E005.48.10.091
EHAA Amsterdam FIR N051.05.36.020 E005.48.10.091 N051.05.45.100 E005.48.23.080
EHAA Amsterdam FIR N051.05.45.100 E005.48.23.080 N051.06.20.992 E005.50.26.020
EHAA Amsterdam FIR N051.06.20.992 E005.50.26.020 N051.07.21.011 E005.49.01.031
EHAA Amsterdam FIR N051.07.21.011 E005.49.01.031 N051.08.07.001 E005.50.49.999
EHAA Amsterdam FIR N051.08.07.001 E005.50.49.999 N051.08.50.309 E005.51.21.668
EHAA Amsterdam FIR N051.08.50.309 E005.51.21.668 N051.09.03.938 E005.51.18.000
EHAA Amsterdam FIR N051.09.03.938 E005.51.18.000 N051.10.01.070 E005.49.41.048
EHAA Amsterdam FIR N051.10.01.070 E005.49.41.048 N051.10.09.941 E005.46.45.930
EHAA Amsterdam FIR N051.10.09.941 E005.46.45.930 N051.10.48.929 E005.46.37.060
EHAA Amsterdam FIR N051.10.48.929 E005.46.37.060 N051.11.29.980 E005.44.07.930
EHAA Amsterdam FIR N051.11.29.980 E005.44.07.930 N051.10.55.999 E005.42.38.002
EHAA Amsterdam FIR N051.10.55.999 E005.42.38.002 N051.11.47.090 E005.39.19.991
EHAA Amsterdam FIR N051.11.47.090 E005.39.19.991 N051.12.06.070 E005.38.57.919
EHAA Amsterdam FIR N051.12.06.070 E005.38.57.919 N051.13.27.959 E005.33.33.052
EHAA Amsterdam FIR N051.13.27.959 E005.33.33.052 N051.13.52.921 E005.33.26.039
EHAA Amsterdam FIR N051.13.52.921 E005.33.26.039 N051.15.20.999 E005.33.24.001
EHAA Amsterdam FIR N051.15.20.999 E005.33.24.001 N051.15.50.080 E005.33.28.102
EHAA Amsterdam FIR N051.15.50.080 E005.33.28.102 N051.16.36.901 E005.32.33.029
EHAA Amsterdam FIR N051.16.36.901 E005.32.33.029 N051.17.44.999 E005.31.01.999
EHAA Amsterdam FIR N051.17.44.999 E005.31.01.999 N051.16.57.940 E005.28.04.058
EHAA Amsterdam FIR N051.16.57.940 E005.28.04.058 N051.16.03.889 E005.23.15.079
EHAA Amsterdam FIR N051.16.03.889 E005.23.15.079 N051.16.10.081 E005.20.50.071
EHAA Amsterdam FIR N051.16.10.081 E005.20.50.071 N051.15.43.891 E005.19.46.960
EHAA Amsterdam FIR N051.15.43.891 E005.19.46.960 N051.15.48.010 E005.15.01.080
EHAA Amsterdam FIR N051.15.48.010 E005.15.01.080 N051.16.08.018 E005.13.30.832
EHAA Amsterdam FIR N051.16.08.018 E005.13.30.832 N051.18.43.960 E005.13.41.041
EHAA Amsterdam FIR N051.18.43.960 E005.13.41.041 N051.19.00.041 E005.10.44.069
EHAA Amsterdam FIR N051.19.00.041 E005.10.44.069 N051.19.01.898 E005.08.58.049
EHAA Amsterdam FIR N051.19.01.898 E005.08.58.049 N051.19.15.100 E005.08.24.011
EHAA Amsterdam FIR N051.19.15.100 E005.08.24.011 N051.20.59.060 E005.07.40.080
EHAA Amsterdam FIR N051.20.59.060 E005.07.40.080 N051.23.30.041 E005.04.43.111
EHAA Amsterdam FIR N051.23.30.041 E005.04.43.111 N051.23.56.029 E005.04.35.890
EHAA Amsterdam FIR N051.23.56.029 E005.04.35.890 N051.26.23.921 E005.06.02.110
EHAA Amsterdam FIR N051.26.23.921 E005.06.02.110 N051.28.19.020 E005.03.41.018
EHAA Amsterdam FIR N051.28.19.020 E005.03.41.018 N051.28.28.920 E005.03.01.001
EHAA Amsterdam FIR N051.28.28.920 E005.03.01.001 N051.29.12.030 E005.02.29.029
EHAA Amsterdam FIR N051.29.12.030 E005.02.29.029 N051.29.07.080 E005.01.52.939
EHAA Amsterdam FIR N051.29.07.080 E005.01.52.939 N051.28.32.020 E005.01.00.959
EHAA Amsterdam FIR N051.28.32.020 E005.01.00.959 N051.25.25.961 E004.58.41.110
EHAA Amsterdam FIR N051.25.25.961 E004.58.41.110 N051.24.32.951 E004.54.34.009
EHAA Amsterdam FIR N051.24.32.951 E004.54.34.009 N051.24.57.910 E004.53.23.050
EHAA Amsterdam FIR N051.24.57.910 E004.53.23.050 N051.24.36.050 E004.48.23.969
EHAA Amsterdam FIR N051.24.36.050 E004.48.23.969 N051.25.03.068 E004.46.45.991
EHAA Amsterdam FIR N051.25.03.068 E004.46.45.991 N051.25.49.069 E004.46.51.971
EHAA Amsterdam FIR N051.25.49.069 E004.46.51.971 N051.25.57.940 E004.47.04.970
EHAA Amsterdam FIR N051.25.57.940 E004.47.04.970 N051.25.16.061 E004.50.22.981
EHAA Amsterdam FIR N051.25.16.061 E004.50.22.981 N051.26.15.061 E004.49.53.900
EHAA Amsterdam FIR N051.26.15.061 E004.49.53.900 N051.27.24.980 E004.50.13.081
EHAA Amsterdam FIR N051.27.24.980 E004.50.13.081 N051.27.41.069 E004.50.40.931
EHAA Amsterdam FIR N051.27.41.069 E004.50.40.931 N051.28.59.041 E004.50.26.902
EHAA Amsterdam FIR N051.28.59.041 E004.50.26.902 N051.30.00.000 E004.48.29.999
EHAA Amsterdam FIR N051.30.00.000 E004.48.29.999 N051.30.09.990 E004.46.09.070
EHAA Amsterdam FIR N051.30.09.990 E004.46.09.070 N051.27.51.998 E004.41.54.949
EHAA Amsterdam FIR N051.27.51.998 E004.41.54.949 N051.26.57.959 E004.41.02.969
EHAA Amsterdam FIR N051.26.57.959 E004.41.02.969 N051.26.27.020 E004.40.07.079
EHAA Amsterdam FIR N051.26.27.020 E004.40.07.079 N051.25.50.920 E004.40.22.958
EHAA Amsterdam FIR N051.25.50.920 E004.40.22.958 N051.25.38.960 E004.40.18.008
EHAA Amsterdam FIR N051.25.38.960 E004.40.18.008 N051.25.37.999 E004.37.25.000
EHAA Amsterdam FIR N051.25.37.999 E004.37.25.000 N051.26.23.100 E004.32.07.102
EHAA Amsterdam FIR N051.26.23.100 E004.32.07.102 N051.27.08.888 E004.32.17.002
EHAA Amsterdam FIR N051.27.08.888 E004.32.17.002 N051.27.46.019 E004.32.41.960
EHAA Amsterdam FIR N051.27.46.019 E004.32.41.960 N051.29.06.050 E004.32.44.020
EHAA Amsterdam FIR N051.29.06.050 E004.32.44.020 N051.28.50.002 E004.30.45.000
EHAA Amsterdam FIR N051.28.50.002 E004.30.45.000 N051.28.44.000 E004.29.55.000
EHAA Amsterdam FIR N051.28.44.000 E004.29.55.000 N051.28.17.990 E004.27.55.040
EHAA Amsterdam FIR N051.28.17.990 E004.27.55.040 N051.27.01.051 E004.23.38.040
EHAA Amsterdam FIR N051.27.01.051 E004.23.38.040 N051.26.27.020 E004.24.28.980
EHAA Amsterdam FIR N051.26.27.020 E004.24.28.980 N051.26.15.061 E004.24.33.930
EHAA Amsterdam FIR N051.26.15.061 E004.24.33.930 N051.25.01.009 E004.23.47.940
EHAA Amsterdam FIR N051.25.01.009 E004.23.47.940 N051.22.27.998 E004.25.41.002
EHAA Amsterdam FIR N051.22.27.998 E004.25.41.002 N051.21.52.070 E004.25.53.969
EHAA Amsterdam FIR N051.21.52.070 E004.25.53.969 N051.21.32.890 E004.25.06.931
EHAA Amsterdam FIR N051.21.32.890 E004.25.06.931 N051.21.45.061 E004.20.49.110
EHAA Amsterdam FIR N051.21.45.061 E004.20.49.110 N051.21.53.100 E004.20.35.081
EHAA Amsterdam FIR N051.21.53.100 E004.20.35.081 N051.22.36.001 E004.20.02.080
EHAA Amsterdam FIR N051.22.36.001 E004.20.02.080 N051.22.30.022 E004.15.05.159
EHAA Amsterdam FIR N051.22.30.022 E004.15.05.159 N051.16.14.999 E004.06.29.999
EHAA Amsterdam FIR N051.16.14.999 E004.06.29.999 N051.13.17.450 E003.58.15.949
EHAA Amsterdam FIR N051.13.17.450 E003.58.15.949 N051.12.56.981 E003.56.55.331
EHAA Amsterdam FIR N051.12.56.981 E003.56.55.331 N051.12.59.479 E003.56.21.008
EHAA Amsterdam FIR N051.12.59.479 E003.56.21.008 N051.13.21.439 E003.55.48.281
EHAA Amsterdam FIR N051.13.21.439 E003.55.48.281 N051.13.15.449 E003.55.22.739
EHAA Amsterdam FIR N051.13.15.449 E003.55.22.739 N051.12.35.010 E003.54.46.030
EHAA Amsterdam FIR N051.12.35.010 E003.54.46.030 N051.12.32.011 E003.53.04.661
EHAA Amsterdam FIR N051.12.32.011 E003.53.04.661 N051.13.01.970 E003.53.18.229
EHAA Amsterdam FIR N051.13.01.970 E003.53.18.229 N051.13.35.620 E003.53.18.460
EHAA Amsterdam FIR N051.13.35.620 E003.53.18.460 N051.13.38.420 E003.52.43.900
EHAA Amsterdam FIR N051.13.38.420 E003.52.43.900 N051.12.50.990 E003.51.50.429
EHAA Amsterdam FIR N051.12.50.990 E003.51.50.429 N051.12.43.499 E003.50.44.182
EHAA Amsterdam FIR N051.12.43.499 E003.50.44.182 N051.12.52.481 E003.48.13.320
EHAA Amsterdam FIR N051.12.52.481 E003.48.13.320 N051.13.11.960 E003.47.25.429
EHAA Amsterdam FIR N051.13.11.960 E003.47.25.429 N051.15.05.299 E003.47.26.228
EHAA Amsterdam FIR N051.15.05.299 E003.47.26.228 N051.15.45.241 E003.47.27.031
EHAA Amsterdam FIR N051.15.45.241 E003.47.27.031 N051.16.01.211 E003.46.42.330
EHAA Amsterdam FIR N051.16.01.211 E003.46.42.330 N051.15.52.729 E003.46.07.208
EHAA Amsterdam FIR N051.15.52.729 E003.46.07.208 N051.16.20.190 E003.45.28.102
EHAA Amsterdam FIR N051.16.20.190 E003.45.28.102 N051.16.21.810 E003.43.51.960
EHAA Amsterdam FIR N051.16.21.810 E003.43.51.960 N051.16.28.178 E003.42.50.069
EHAA Amsterdam FIR N051.16.28.178 E003.42.50.069 N051.16.53.641 E003.41.29.450
EHAA Amsterdam FIR N051.16.53.641 E003.41.29.450 N051.17.00.629 E003.39.30.521
EHAA Amsterdam FIR N051.17.00.629 E003.39.30.521 N051.17.14.111 E003.39.07.369
EHAA Amsterdam FIR N051.17.14.111 E003.39.07.369 N051.17.15.608 E003.38.29.062
EHAA Amsterdam FIR N051.17.15.608 E003.38.29.062 N051.18.13.529 E003.36.13.370
EHAA Amsterdam FIR N051.18.13.529 E003.36.13.370 N051.18.23.011 E003.35.34.260
EHAA Amsterdam FIR N051.18.23.011 E003.35.34.260 N051.18.04.540 E003.35.08.722
EHAA Amsterdam FIR N051.18.04.540 E003.35.08.722 N051.17.23.100 E003.35.01.540
EHAA Amsterdam FIR N051.17.23.100 E003.35.01.540 N051.17.48.559 E003.33.52.099
EHAA Amsterdam FIR N051.17.48.559 E003.33.52.099 N051.17.22.600 E003.32.37.072
EHAA Amsterdam FIR N051.17.22.600 E003.32.37.072 N051.17.44.070 E003.31.34.010
EHAA Amsterdam FIR N051.17.44.070 E003.31.34.010 N051.17.35.081 E003.31.14.851
EHAA Amsterdam FIR N051.17.35.081 E003.31.14.851 N051.15.02.801 E003.31.48.382
EHAA Amsterdam FIR N051.15.02.801 E003.31.48.382 N051.14.46.820 E003.29.53.441
EHAA Amsterdam FIR N051.14.46.820 E003.29.53.441 N051.14.42.518 E003.27.18.158
EHAA Amsterdam FIR N051.14.42.518 E003.27.18.158 N051.14.55.309 E003.25.57.979
EHAA Amsterdam FIR N051.14.55.309 E003.25.57.979 N051.15.32.260 E003.25.33.240
EHAA Amsterdam FIR N051.15.32.260 E003.25.33.240 N051.17.01.000 E003.22.53.000
EHAA Amsterdam FIR N051.17.01.000 E003.22.53.000 N051.17.55.550 E003.21.53.741
EHAA Amsterdam FIR N051.17.55.550 E003.21.53.741 N051.18.07.042 E003.21.52.942
EHAA Amsterdam FIR N051.18.07.042 E003.21.52.942 N051.18.18.022 E003.22.26.461
EHAA Amsterdam FIR N051.18.18.022 E003.22.26.461 N051.19.06.449 E003.21.44.960
EHAA Amsterdam FIR N051.19.06.449 E003.21.44.960 N051.19.52.889 E003.23.01.579
EHAA Amsterdam FIR N051.19.52.889 E003.23.01.579 N051.20.28.781 E003.23.14.071
EHAA Amsterdam FIR N051.20.28.781 E003.23.14.071 N051.22.25.000 E003.21.50.000
EHAA Amsterdam FIR N051.22.25.000 E003.21.50.000 N051.23.57.998 E003.06.01.001
EHAA Amsterdam FIR N051.23.57.998 E003.06.01.001 N051.30.00.000 E002.00.00.000
EHAA Amsterdam FIR N051.30.00.000 E002.00.00.000 N051.42.23.288 E002.09.44.230
EHAA Amsterdam FIR N051.42.23.288 E002.09.44.230 N051.52.30.850 E002.17.41.870
EHAA Amsterdam FIR N051.52.30.850 E002.17.41.870 N052.13.52.770 E002.35.21.300
EHAA Amsterdam FIR N052.13.52.770 E002.35.21.300 N052.23.20.378 E002.43.29.798
EHAA Amsterdam FIR N052.23.20.378 E002.43.29.798 N052.28.34.950 E002.47.46.021
EHAA Amsterdam FIR N052.28.34.950 E002.47.46.021 N052.37.05.380 E002.54.03.740
EHAA Amsterdam FIR N052.37.05.380 E002.54.03.740 N052.57.32.551 E003.11.07.732
EHAA Amsterdam FIR N052.57.32.551 E003.11.07.732 N053.10.30.461 E003.21.57.010
EHAA Amsterdam FIR N053.10.30.461 E003.21.57.010 N053.27.55.001 E003.36.56.002
EHAA Amsterdam FIR N053.27.55.001 E003.36.56.002 N053.34.08.558 E003.42.30.982
EHAA Amsterdam FIR N053.34.08.558 E003.42.30.982 N053.59.17.840 E004.05.28.691
EHAA Amsterdam FIR N053.59.17.840 E004.05.28.691 N054.30.01.192 E004.32.36.161
EHAA Amsterdam FIR N054.30.01.192 E004.32.36.161 N055.00.00.000 E005.00.00.000
EHAA Amsterdam FIR N055.00.00.000 E005.00.00.000 N055.00.00.000 E006.30.00.000
EHAA Amsterdam FIR N055.00.00.000 E006.30.00.000 N053.40.00.001 E006.30.00.000
EHAA Amsterdam FIR N053.40.00.001 E006.30.00.000 N053.37.59.999 E006.34.59.999
EHAA Amsterdam FIR N053.37.59.999 E006.34.59.999 N053.31.00.001 E006.40.59.999
EHAA Amsterdam FIR N053.31.00.001 E006.40.59.999 N053.30.15.001 E006.44.30.001
EHAA Amsterdam FIR N053.30.15.001 E006.44.30.001 N053.27.00.000 E006.52.59.999
EHAA Amsterdam FIR N053.27.00.000 E006.52.59.999 N053.19.00.001 E006.58.59.999
EHAA Amsterdam FIR N053.19.00.001 E006.58.59.999 N053.19.00.001 E007.12.00.000
EHAA Amsterdam FIR N053.19.00.001 E007.12.00.000 N053.17.60.000 E007.11.30.001
EHAA Amsterdam FIR N053.17.60.000 E007.11.30.001 N053.16.59.999 E007.12.00.000
EHAA Amsterdam FIR N053.16.59.999 E007.12.00.000 N053.14.53.711 E007.12.26.089
EHAA Amsterdam FIR N053.14.53.711 E007.12.26.089 N053.12.30.082 E007.13.05.030
EHAA Amsterdam FIR N053.12.30.082 E007.13.05.030 N053.11.53.992 E007.13.00.908
EHAA Amsterdam FIR N053.11.53.992 E007.13.00.908 N053.08.00.082 E007.11.08.081
EHAA Amsterdam FIR N053.08.00.082 E007.11.08.081 N053.07.28.942 E007.11.15.090
EHAA Amsterdam FIR N053.07.28.942 E007.11.15.090 N053.06.29.999 E007.12.00.000
EHAA Amsterdam FIR N053.06.29.999 E007.12.00.000 N053.06.15.091 E007.12.14.911
EHAA Amsterdam FIR N053.06.15.091 E007.12.14.911 N053.01.28.999 E007.12.34.920
EHAA Amsterdam FIR N053.01.28.999 E007.12.34.920 N053.00.41.980 E007.12.58.021
EHAA Amsterdam FIR N053.00.41.980 E007.12.58.021 N053.00.00.000 E007.12.29.999
EHAA Amsterdam FIR N053.00.00.000 E007.12.29.999 N052.55.23.092 E007.10.08.062
EHAA Amsterdam FIR N052.55.23.092 E007.10.08.062 N052.52.12.090 E007.06.23.029
EHAA Amsterdam FIR N052.52.12.090 E007.06.23.029 N052.50.55.979 E007.05.22.999
EHAA Amsterdam FIR N052.50.55.979 E007.05.22.999 N052.50.24.011 E007.05.28.979
EHAA Amsterdam FIR N052.50.24.011 E007.05.28.979 N052.48.29.941 E007.04.07.921
EHAA Amsterdam FIR N052.48.29.941 E007.04.07.921 N052.43.05.002 E007.03.50.000
EHAA Amsterdam FIR N052.43.05.002 E007.03.50.000 N052.39.49.950 E007.03.32.029
EHAA Amsterdam FIR N052.39.49.950 E007.03.32.029 N052.39.24.998 E007.03.29.999
EHAA Amsterdam FIR N052.39.24.998 E007.03.29.999 N052.38.05.989 E007.02.35.930
EHAA Amsterdam FIR N052.38.05.989 E007.02.35.930 N052.37.56.921 E007.01.29.921
EHAA Amsterdam FIR N052.37.56.921 E007.01.29.921 N052.38.48.070 E006.54.36.979
EHAA Amsterdam FIR N052.38.48.070 E006.54.36.979 N052.39.07.049 E006.54.07.891
EHAA Amsterdam FIR N052.39.07.049 E006.54.07.891 N052.38.57.970 E006.49.27.991
EHAA Amsterdam FIR N052.38.57.970 E006.49.27.991 N052.38.27.031 E006.44.29.940
EHAA Amsterdam FIR N052.38.27.031 E006.44.29.940 N052.37.36.908 E006.43.08.051
EHAA Amsterdam FIR N052.37.36.908 E006.43.08.051 N052.36.46.991 E006.43.47.039
EHAA Amsterdam FIR N052.36.46.991 E006.43.47.039 N052.36.35.032 E006.43.47.039
EHAA Amsterdam FIR N052.36.35.032 E006.43.47.039 N052.35.15.000 E006.43.13.001
EHAA Amsterdam FIR N052.35.15.000 E006.43.13.001 N052.34.01.981 E006.45.39.038
EHAA Amsterdam FIR N052.34.01.981 E006.45.39.038 N052.33.53.111 E006.45.34.088
EHAA Amsterdam FIR N052.33.53.111 E006.45.34.088 N052.33.33.930 E006.43.21.050
EHAA Amsterdam FIR N052.33.33.930 E006.43.21.050 N052.33.12.892 E006.43.14.041
EHAA Amsterdam FIR N052.33.12.892 E006.43.14.041 N052.33.00.929 E006.42.32.990
EHAA Amsterdam FIR N052.33.00.929 E006.42.32.990 N052.32.57.001 E006.41.19.972
EHAA Amsterdam FIR N052.32.57.001 E006.41.19.972 N052.31.20.888 E006.42.18.961
EHAA Amsterdam FIR N052.31.20.888 E006.42.18.961 N052.30.08.899 E006.42.21.031
EHAA Amsterdam FIR N052.30.08.899 E006.42.21.031 N052.29.26.002 E006.42.09.061
EHAA Amsterdam FIR N052.29.26.002 E006.42.09.061 N052.29.03.930 E006.42.31.961
EHAA Amsterdam FIR N052.29.03.930 E006.42.31.961 N052.27.24.919 E006.46.59.902
EHAA Amsterdam FIR N052.27.24.919 E006.46.59.902 N052.26.53.981 E006.51.56.920
EHAA Amsterdam FIR N052.26.53.981 E006.51.56.920 N052.26.04.060 E006.56.46.100
EHAA Amsterdam FIR N052.26.04.060 E006.56.46.100 N052.27.04.090 E006.59.56.069
EHAA Amsterdam FIR N052.27.04.090 E006.59.56.069 N052.24.02.002 E007.03.33.998
EHAA Amsterdam FIR N052.24.02.002 E007.03.33.998 N052.23.49.999 E007.03.40.000
EHAA Amsterdam FIR N052.23.49.999 E007.03.40.000 N052.22.59.999 E007.04.00.001
EHAA Amsterdam FIR N052.22.59.999 E007.04.00.001 N052.21.23.800 E007.04.16.000
EHAA Amsterdam FIR N052.21.23.800 E007.04.16.000 N052.19.58.001 E007.03.02.002
EHAA Amsterdam FIR N052.19.58.001 E007.03.02.002 N052.16.59.999 E007.02.60.000
EHAA Amsterdam FIR N052.16.59.999 E007.02.60.000 N052.16.17.040 E007.01.48.068
EHAA Amsterdam FIR N052.16.17.040 E007.01.48.068 N052.14.15.000 E007.04.00.001
EHAA Amsterdam FIR N052.14.15.000 E007.04.00.001 N052.12.55.102 E006.58.49.040
EHAA Amsterdam FIR N052.12.55.102 E006.58.49.040 N052.11.02.069 E006.57.30.031
EHAA Amsterdam FIR N052.11.02.069 E006.57.30.031 N052.10.02.050 E006.53.47.069
EHAA Amsterdam FIR N052.10.02.050 E006.53.47.069 N052.08.37.000 E006.52.37.999

;- MANCHESTER TCA SCTR 1
Manchester TCA N053.51.10.001 W002.03.47.999 N053.47.26.002 W001.59.12.998
Manchester TCA N053.47.26.002 W001.59.12.998 N053.37.13.001 W001.48.29.999
Manchester TCA N053.37.13.001 W001.48.29.999 N053.36.50.000 W001.52.16.000
Manchester TCA N053.36.50.000 W001.52.16.000 N053.27.19.001 W001.46.17.000
Manchester TCA N053.27.19.001 W001.46.17.000 N053.26.56.000 W001.49.59.999
Manchester TCA N053.26.56.000 W001.49.59.999 N053.07.32.002 W002.00.56.002
Manchester TCA N053.07.32.002 W002.00.56.002 N053.06.02.002 W002.22.45.998
Manchester TCA N053.06.02.002 W002.22.45.998 N053.06.25.999 W002.43.49.001
Manchester TCA N053.06.25.999 W002.43.49.001 N053.14.26.999 W003.01.40.001
Manchester TCA N053.14.26.999 W003.01.40.001 N053.23.08.999 W003.12.05.000
Manchester TCA N053.23.08.999 W003.12.05.000 N053.27.33.998 W003.03.10.001
Manchester TCA N053.27.33.998 W003.03.10.001 N053.32.12.998 W003.14.06.000
Manchester TCA N053.32.12.998 W003.14.06.000 N053.32.22.999 W002.59.07.001
Manchester TCA N053.32.22.999 W002.59.07.001 N053.51.10.001 W002.03.47.999
;- MANCHESTER TCA SCTR 2
Manchester TCA N053.39.18.000 W002.38.60.000 N053.32.22.999 W002.59.07.001
Manchester TCA N053.32.22.999 W002.59.07.001 N053.32.21.998 W003.00.59.000
Manchester TCA N053.32.21.998 W003.00.59.000 N053.36.29.999 W003.01.36.001
Manchester TCA N053.36.29.999 W003.01.36.001 N053.39.18.000 W002.38.60.000
;
;BELFAST TMA1
EGAA TCA N054.53.10.000 W005.47.01.000 N054.46.32.000 W005.30.24.000  
EGAA TCA N054.46.32.000 W005.30.24.000 N054.24.22.000 W005.57.01.000  
EGAA TCA N054.24.22.000 W005.57.01.000 N054.21.30.000 W006.05.07.000  
EGAA TCA N054.21.30.000 W006.05.07.000 N054.26.34.000 W006.10.18.000  
EGAA TCA N054.50.30.000 W006.24.42.000 N054.49.23.651 W006.27.26.291  
EGAA TCA N054.49.23.651 W006.27.26.291 N054.47.47.149 W006.30.12.486  
EGAA TCA N054.47.47.149 W006.30.12.486 N054.45.55.435 W006.32.26.866  
EGAA TCA N054.45.55.435 W006.32.26.866 N054.43.51.935 W006.34.05.389  
EGAA TCA N054.43.51.935 W006.34.05.389 N054.41.40.426 W006.35.05.136  
EGAA TCA N054.41.40.426 W006.35.05.136 N054.39.24.920 W006.35.24.390  
EGAA TCA N054.39.24.920 W006.35.24.390 N054.37.09.540 W006.35.02.677  
EGAA TCA N054.37.09.540 W006.35.02.677 N054.34.58.392 W006.34.00.768  
EGAA TCA N054.34.58.392 W006.34.00.768 N054.32.55.445 W006.32.20.639  
EGAA TCA N054.32.55.445 W006.32.20.639 N054.31.04.410 W006.30.05.405  
EGAA TCA N054.31.04.410 W006.30.05.405 N054.29.28.630 W006.27.19.210  
EGAA TCA N054.29.28.630 W006.27.19.210 N054.28.10.983 W006.24.07.104  
EGAA TCA N054.28.10.983 W006.24.07.104 N054.27.13.798 W006.20.34.884  
EGAA TCA N054.27.13.798 W006.20.34.884 N054.26.38.788 W006.16.48.927  
EGAA TCA N054.26.38.788 W006.16.48.927 N054.26.27.000 W006.12.56.002  
EGAA TCA N054.26.27.000 W006.12.56.002 N054.26.34.000 W006.10.18.000
EGAA TCA N054.50.30.000 W006.24.42.000 N054.54.18.000 W005.29.60.000  
EGAA TCA N054.53.10.000 W005.47.01.000 N054.54.18.000 W005.30.00.000  
EGAA TCA N054.54.18.000 W005.30.00.000 N054.57.15.000 W005.15.30.000  
EGAA TCA N054.57.15.000 W005.15.30.000 N054.11.00.000 W005.54.28.000  
EGAA TCA N054.11.00.000 W005.54.28.000 N054.21.30.000 W006.05.07.000  
EGAA TCA N054.21.30.000 W006.05.07.000 N054.24.22.000 W005.57.01.000  
EGAA TCA N054.24.22.000 W005.57.01.000 N054.46.32.000 W005.30.24.000  
EGAA TCA N054.46.32.000 W005.30.24.000 N054.53.10.000 W005.47.01.000  
EGAA TCA N054.21.38.999 W006.05.17.002 N054.53.46.000 W005.38.10.000  
;- Daventry CTA SCTR 1
Daventry CTA N053.26.13.999 W001.50.24.000 N053.19.52.000 W001.47.57.001
Daventry CTA N053.19.52.000 W001.47.57.001 N053.04.12.000 W001.56.47.000
Daventry CTA N053.04.12.000 W001.56.47.000 N053.07.32.002 W002.00.56.002
Daventry CTA N053.07.32.002 W002.00.56.002 N053.26.13.999 W001.50.24.000
;- Daventry CTA SCTR 2
Daventry CTA N053.19.52.000 W001.47.57.001 N053.09.51.998 W001.44.07.001
Daventry CTA N053.09.51.998 W001.44.07.001 N053.01.08.000 W001.52.59.999
Daventry CTA N053.01.08.000 W001.52.59.999 N053.04.12.000 W001.56.47.000
Daventry CTA N053.04.12.000 W001.56.47.000 N053.19.52.000 W001.47.57.001
;- Daventry CTA SCTR 3
Daventry CTA N053.11.44.999 W001.35.57.998 N052.14.03.001 W001.00.09.000
Daventry CTA N052.14.03.001 W001.00.09.000 N052.13.54.998 W001.00.25.999
Daventry CTA N052.13.54.998 W001.00.25.999 N052.47.02.000 W001.35.40.999
Daventry CTA N052.47.02.000 W001.35.40.999 N053.01.08.000 W001.52.59.999
Daventry CTA N053.01.08.000 W001.52.59.999 N053.09.51.998 W001.44.07.001
Daventry CTA N053.09.51.998 W001.44.07.001 N053.11.44.999 W001.35.57.998
;- Daventry CTA SCTR 4
Daventry CTA N052.14.03.001 W001.00.09.000 N052.10.49.001 W001.06.50.000
Daventry CTA N052.10.49.001 W001.06.50.000 N052.06.33.001 W001.26.17.002
Daventry CTA N052.06.33.001 W001.26.17.002 N052.04.27.998 W001.22.45.001
Daventry CTA N052.04.27.998 W001.22.45.001 N052.08.43.001 W001.03.38.999
Daventry CTA N052.08.43.001 W001.03.38.999 N052.12.22.000 W000.56.08.002
Daventry CTA N052.12.22.000 W000.56.08.002 N052.14.03.001 W001.00.09.000
;- Daventry CTA SCTR 5
Daventry CTA N052.12.22.000 W000.56.08.002 N052.08.43.001 W001.03.38.999
Daventry CTA N052.08.43.001 W001.03.38.999 N052.04.27.998 W001.22.45.001
Daventry CTA N052.04.27.998 W001.22.45.001 N051.57.45.000 W001.11.26.002
Daventry CTA N051.57.45.000 W001.11.26.002 N052.04.21.000 W000.37.12.000
Daventry CTA N052.04.21.000 W000.37.12.000 N052.12.22.000 W000.56.08.002
;- Daventry CTA SCTR 6
Daventry CTA N051.57.45.000 W001.11.26.002 N051.44.20.000 W001.00.41.000
Daventry CTA N051.44.20.000 W001.00.41.000 N051.44.57.001 W001.00.00.000
Daventry CTA N051.44.57.001 W001.00.00.000 N051.49.05.002 W000.36.47.002
Daventry CTA N051.49.05.002 W000.36.47.002 N051.52.44.000 W000.38.28.000
Daventry CTA N051.52.44.000 W000.38.28.000 N051.55.03.000 W000.43.53.000
Daventry CTA N051.55.03.000 W000.43.53.000 N052.03.15.998 W000.34.41.002
Daventry CTA N052.03.15.998 W000.34.41.002 N052.04.21.000 W000.37.12.000
Daventry CTA N052.04.21.000 W000.37.12.000 N051.57.45.000 W001.11.26.002
;- Daventry CTA SCTR 7
Daventry CTA N053.07.32.002 W002.00.56.002 N053.04.12.000 W001.56.47.000
Daventry CTA N053.04.12.000 W001.56.47.000 N053.01.14.999 W001.58.26.000
Daventry CTA N053.01.14.999 W001.58.26.000 N052.58.27.998 W002.08.53.999
Daventry CTA N052.58.27.998 W002.08.53.999 N052.58.58.001 W002.33.14.000
Daventry CTA N052.58.58.001 W002.33.14.000 N053.04.43.000 W002.40.00.998
Daventry CTA N053.04.43.000 W002.40.00.998 N053.06.25.999 W002.43.49.001
Daventry CTA N053.06.25.999 W002.43.49.001 N053.06.02.002 W002.22.45.998
Daventry CTA N053.06.02.002 W002.22.45.998 N053.07.32.002 W002.00.56.002
;- Daventry CTA SCTR 8
Daventry CTA N053.04.12.000 W001.56.47.000 N052.58.32.999 W001.49.48.000
Daventry CTA N052.58.32.999 W001.49.48.000 N052.47.60.000 W001.52.16.000
Daventry CTA N052.47.60.000 W001.52.16.000 N052.42.15.998 W002.13.43.000
Daventry CTA N052.42.15.998 W002.13.43.000 N052.58.58.001 W002.33.14.000
Daventry CTA N052.58.58.001 W002.33.14.000 N052.58.27.998 W002.08.53.999
Daventry CTA N052.58.27.998 W002.08.53.999 N053.01.14.999 W001.58.26.000
Daventry CTA N053.01.14.999 W001.58.26.000 N053.04.12.000 W001.56.47.000
;- Daventry CTA SCTR 9
Daventry CTA N052.58.32.999 W001.49.48.000 N052.47.02.000 W001.35.40.999
Daventry CTA N052.47.02.000 W001.35.40.999 N052.13.54.998 W001.00.25.999
Daventry CTA N052.13.54.998 W001.00.25.999 N052.10.49.001 W001.06.50.000
Daventry CTA N052.10.49.001 W001.06.50.000 N052.06.33.001 W001.26.17.002
Daventry CTA N052.06.33.001 W001.26.17.002 N052.11.35.002 W001.34.50.002
Daventry CTA N052.11.35.002 W001.34.50.002 N052.11.03.977 W001.37.06.744
Daventry CTA N052.11.03.977 W001.37.06.744 N052.10.39.000 W001.40.12.000
Daventry CTA N052.10.39.000 W001.40.12.000 N052.14.30.998 W001.41.58.999
Daventry CTA N052.14.30.998 W001.41.58.999 N052.42.15.998 W002.13.43.000
Daventry CTA N052.42.15.998 W002.13.43.000 N052.47.60.000 W001.52.16.000
Daventry CTA N052.47.60.000 W001.52.16.000 N052.58.32.999 W001.49.48.000
;
;EHAA Deligated Airspace
EHAA_175-245 N053.20.00.000 E002.30.00.000 N053.14.41.000 E003.11.02.000
EHAA_175-245 N053.14.41.000 E003.11.02.000 N053.10.29.000 E003.21.58.000
EHAA_175-245 N053.10.29.000 E003.21.58.000 N052.37.04.000 E002.53.56.000
EHAA_175-245 N052.37.04.000 E002.53.56.000 N052.40.10.000 E002.30.00.000
EHAA_175-245 N052.40.10.000 E002.30.00.000 N053.20.00.000 E002.30.00.000
EHAA_175-245 N054.34.19.999 E003.43.41.999 N053.59.17.840 E004.05.28.691
EHAA_175-245 N053.59.17.840 E004.05.28.691 N053.34.08.558 E003.42.30.982
EHAA_175-245 N053.34.08.558 E003.42.30.982 N053.41.48.001 E003.00.00.000
EHAA_175-245 N053.41.48.001 E003.00.00.000 N053.44.12.001 E003.00.00.000
EHAA_175-245 N053.44.12.001 E003.00.00.000 N054.34.19.999 E003.43.41.999
EHAA_175-245 N053.41.48.001 E003.00.00.000 N053.34.08.558 E003.42.30.982
EHAA_175-245 N053.34.08.558 E003.42.30.982 N053.27.55.001 E003.36.56.002
EHAA_175-245 N053.27.55.001 E003.36.56.002 N053.10.30.461 E003.21.57.010
EHAA_175-245 N053.10.30.461 E003.21.57.010 N053.14.40.999 E003.11.02.000
EHAA_175-245 N053.14.40.999 E003.11.02.000 N053.16.08.000 E003.00.00.000
EHAA_175-245 N053.16.08.000 E003.00.00.000 N053.41.48.001 E003.00.00.000
;
;STRANGFORD CTA SCTR 1 
Strangford CTA N054.08.04.999 W004.40.53.000 N053.59.56.000 W004.50.43.001  
Strangford CTA N053.59.56.000 W004.50.43.001 N054.06.36.000 W005.39.13.000  
Strangford CTA N054.35.42.000 W005.14.44.002 N054.08.04.999 W004.40.53.000  
;STRANGFORD CTA SCTR 2 
Strangford CTA N054.35.42.000 W005.14.44.002 N054.25.25.822 W005.23.23.711  
Strangford CTA N054.44.44.370 W005.26.01.897 N054.35.42.000 W005.14.44.002   
;STRANGFORD CTA SCTR 3 ;see ARTCC LOW
;STRANGFORD CTA SCTR 4
Strangford CTA N054.16.18.137 W005.31.01.758 N054.06.36.000 W005.39.13.000  
Strangford CTA N054.06.36.000 W005.39.13.000 N054.11.00.000 W005.54.28.000  