Regional Pressure			N000.00.00.000 W000.00.00.000 N000.00.00.000 W000.00.00.000	
						N057.10.00.000 W010.00.00.000 N059.00.00.000 W008.00.00.000  
						N059.00.00.000 W008.00.00.000 N060.00.00.000 W005.42.00.000  
						N060.00.00.000 W005.42.00.000 N061.00.00.000 W003.58.00.000  
						N061.00.00.000 W003.58.00.000 N063.26.00.000 W000.40.00.000  
						N063.26.00.000 W000.40.00.000 N063.25.00.000 W000.00.00.000  
						N063.25.00.000 W000.00.00.000 N061.20.00.000 E001.50.00.000  
						N061.20.00.000 E001.50.00.000 N059.53.00.000 E002.05.00.000  
						N059.55.00.000 E002.05.00.000 N059.15.00.000 E001.45.00.000  
						N059.15.00.000 E001.45.00.000 N058.25.00.000 E001.30.00.000  
						N058.20.00.000 E001.30.00.000 N057.50.00.000 E002.00.00.000  
						N057.50.00.000 E002.00.00.000 N056.35.00.000 E002.35.00.000  
						N056.35.00.000 E002.35.00.000 N056.05.00.000 E003.15.00.000  
						N056.05.00.000 E003.15.00.000 N055.50.00.000 E003.22.00.000  
						N055.50.00.000 E003.22.00.000 N055.00.00.000 E003.03.00.000  
						N055.00.00.000 E003.03.00.000 N054.23.00.000 E002.43.00.000  
						N054.23.00.000 E002.43.00.000 N053.00.00.000 E001.00.00.000  
						N053.00.00.000 E001.00.00.000 N052.06.00.000 W001.28.00.000  
						N052.06.00.000 W001.28.00.000 N052.12.00.000 W003.22.00.000  
						N052.12.00.000 W003.22.00.000 N052.20.00.000 W005.30.00.000  
						;Puffin
						N061.30.00.000 W003.20.00.000 N061.30.00.000 E001.42.00.000  
						;Marlin
						N061.30.00.000 W000.58.00.000 N059.30.00.000 W000.58.00.000  
						N059.30.00.000 E001.50.00.000 N059.30.00.000 W002.05.00.000  
						;Shetland
						N059.30.00.000 W002.05.00.000 N060.00.00.000 W005.34.00.000  
						;Skerry
						N059.30.00.000 W002.05.00.000 N058.35.00.000 W004.05.00.000  
						N058.35.00.000 W004.05.00.000 N059.00.00.000 W007.58.00.000  
						;Portree
						N058.35.00.000 W004.05.00.000 N056.44.00.000 W003.15.00.000  
						N056.44.00.000 W003.15.00.000 N056.37.00.000 W002.58.00.000  
						N056.37.00.000 W002.58.00.000 N056.14.00.000 W003.32.59.000  
						N056.14.00.000 W003.32.59.000 N056.14.00.000 W004.09.26.000  
						N056.14.00.000 W004.09.26.000 N056.00.00.000 W004.44.00.000  
						N056.00.00.000 W004.44.00.000 N055.55.00.000 W004.52.00.000  
						N055.55.00.000 W004.52.00.000 N055.50.00.000 W005.00.00.000  
						N055.50.00.000 W005.00.00.000 N055.45.00.000 W005.00.00.000  
						N055.45.00.000 W005.00.00.000 N057.10.00.000 W010.00.00.000  
						;Belfast
						N056.14.00.000 W003.32.59.000 N056.07.00.000 W003.29.38.000  
						N056.07.00.000 W003.29.38.000 N056.07.00.000 W002.56.08.000  
						N056.07.00.000 W002.56.08.000 N056.00.08.000 W002.48.49.000  
						N056.00.08.000 W002.48.49.000 N055.31.00.000 W002.51.56.000  
						N055.31.00.000 W002.51.56.000 N055.27.00.000 W003.00.00.000  
						;N055.27.00.000 W003.00.00.000 N055.23.00.000 W003.12.00.000  
						N055.23.00.000 W003.12.00.000 N054.45.00.000 W003.12.00.000  
						N054.45.00.000 W003.12.00.000 N054.24.32.494 W004.21.10.051  
						N054.24.32.494 W004.21.10.051 N054.23.41.802 W004.27.11.232  
						N054.23.41.802 W004.27.11.232 N054.18.41.875 W004.34.12.605  
						N054.18.41.875 W004.34.12.605 N054.13.52.511 W004.39.52.661  
						N054.13.52.511 W004.39.52.661 N054.10.00.000 W004.56.00.000  
						N054.10.00.000 W004.56.00.000 N053.55.00.000 W005.30.00.000  
						;
						N055.12.14.000 W005.02.34.000 N055.15.11.000 W005.00.00.000  
						N055.15.11.000 W005.00.00.000 N055.50.00.000 W005.00.00.000  
						N055.50.00.000 W005.00.00.000 N055.55.00.000 W004.52.00.000  
						N055.55.00.000 W004.52.00.000 N056.00.00.000 W004.44.00.000  
						N056.00.00.000 W004.44.00.000 N056.14.00.000 W004.09.26.000  
						N056.14.00.000 W004.09.26.000 N056.14.00.000 W003.32.59.000  
						N056.14.00.000 W003.32.59.000 N056.07.00.000 W003.29.38.000  
						N056.07.00.000 W003.29.38.000 N056.07.00.000 W002.56.08.000   
						N056.07.00.000 W002.56.08.000 N056.00.08.000 W002.48.49.000  
						N056.00.08.000 W002.48.49.000 N055.31.00.000 W002.51.56.000  
						N055.31.00.000 W002.51.56.000 N055.27.00.000 W003.00.00.000  
						N055.27.00.000 W003.00.00.000 N055.06.03.000 W004.14.19.000  
						N055.06.03.000 W004.14.19.000 N055.12.14.000 W005.02.34.000  
						;
						;Orkney
						N059.30.00.000 W001.44.00.000 N058.26.24.049 W001.43.21.567              
						N058.26.24.049 W001.43.21.567 N058.25.10.437 W001.35.26.491              
						N058.25.10.437 W001.35.26.491 N058.23.41.061 W001.27.41.019              
						N058.23.41.061 W001.27.41.019 N058.21.56.274 W001.20.06.988              
						N058.21.56.274 W001.20.06.988 N058.19.56.488 W001.12.46.190              
						N058.19.56.488 W001.12.46.190 N058.17.42.177 W001.05.40.364              
						N058.17.42.177 W001.05.40.364 N058.15.13.871 W000.58.51.191              
						N058.15.13.871 W000.58.51.191 N058.12.32.156 W000.52.20.286              
						N058.12.32.156 W000.52.20.286 N058.09.37.668 W000.46.09.192              
						N058.09.37.668 W000.46.09.192 N058.06.31.098 W000.40.19.372              
						N058.06.31.098 W000.40.19.372 N058.03.13.181 W000.34.52.208              
						N058.03.13.181 W000.34.52.208 N057.59.44.698 W000.29.48.991              
						N057.59.44.698 W000.29.48.991 N057.56.06.473 W000.25.10.918              
						N057.56.06.473 W000.25.10.918 N057.52.19.365 W000.20.59.085              
						N057.52.19.365 W000.20.59.085 N057.48.24.273 W000.17.14.487              
						N057.48.24.273 W000.17.14.487 N057.44.22.123 W000.13.58.010              
						N057.44.22.123 W000.13.58.010 N057.40.13.871 W000.11.10.430              
						N057.40.13.871 W000.11.10.430 N057.36.00.498 W000.08.52.408              
						N057.36.00.498 W000.08.52.408 N057.31.43.002 W000.07.04.488              
						N057.31.43.002 W000.07.04.488 N057.27.22.400 W000.05.47.097              
						N057.27.22.400 W000.05.47.097 N057.22.59.720 W000.05.00.540              
						N057.22.59.720 W000.05.00.540 N057.18.36.000 W000.04.45.000              
						N057.18.36.000 W000.04.45.000 N057.14.12.280 W000.05.00.540              
						N057.14.12.280 W000.05.00.540 N057.09.49.600 W000.05.47.097              
						N057.09.49.600 W000.05.47.097 N057.05.28.998 W000.07.04.488              
						N057.05.28.998 W000.07.04.488 N057.01.11.502 W000.08.52.408              
						N057.01.11.502 W000.08.52.408 N056.56.58.129 W000.11.10.430              
						N056.56.58.129 W000.11.10.430 N056.52.49.877 W000.13.58.010              
						N056.52.49.877 W000.13.58.010 N056.48.47.727 W000.17.14.487              
						N056.48.47.727 W000.17.14.487 N056.44.52.635 W000.20.59.085              
						N056.44.52.635 W000.20.59.085 N056.41.05.527 W000.25.10.918              
						N056.41.05.527 W000.25.10.918 N056.37.00.000 W002.58.00.000  
						;Petrel
						N057.52.19.365 W000.20.59.085 N058.25.00.000 E001.30.00.000  
						;Rattray
						N056.41.05.527 W000.25.10.918 N055.50.00.000 E003.22.00.000  
						;Skua
						N056.41.05.527 W000.25.10.918 N055.00.00.000 E001.00.00.000  
						N055.00.00.000 E001.00.00.000 N054.23.00.000 E002.43.00.000  
						;Tyne
						N055.00.00.000 E001.00.00.000 N054.25.00.000 W000.35.00.000  
						N054.25.00.000 W000.35.00.000 N054.45.00.000 W003.12.00.000  
						;Barnsley
						N054.25.00.000 W000.35.00.000 OTR            OTR             
						OTR            OTR            N053.20.00.000 W000.00.00.000  
						N053.20.00.000 W000.00.00.000 N053.00.00.000 E001.00.00.000  
						;Holyhead
						N054.41.00.000 W003.28.00.000 N053.58.00.000 W002.33.00.000  
						N053.58.00.000 W002.33.00.000 N053.41.00.000 W002.33.00.000  
						N053.41.00.000 W002.33.00.000 N053.39.00.000 W002.40.00.000  
						N053.39.00.000 W002.40.00.000 N053.36.00.000 W003.02.00.000  
						N053.36.00.000 W003.02.00.000 N053.33.00.000 W003.02.00.000  
						N053.33.00.000 W003.02.00.000 N053.32.00.000 W003.13.00.000  
						N053.32.00.000 W003.13.00.000 N053.27.00.000 W003.22.00.000  
						N053.27.00.000 W003.22.00.000 N052.12.00.000 W003.22.00.000  
						;Yarmouth
						N054.23.00.000 E002.43.00.000 N052.57.00.000 E003.08.00.000  
						N052.57.00.000 E003.08.00.000 N052.13.00.000 E002.33.00.000  
						N052.13.00.000 E002.33.00.000 N051.56.00.000 E001.00.00.000  
						N051.56.00.000 E001.00.00.000 N053.00.00.000 E001.00.00.000  