;EGQL RADAR CORRIDORS
EGQL_N_RC                 N000.00.00.000 W000.00.00.000 N000.00.00.000 W000.00.00.000 yellow
                          N056.42.00.000 W003.14.00.000 N056.36.00.000 W003.00.00.000 yellow
                          N056.36.00.000 W003.00.00.000 N056.28.00.000 W003.10.00.000 yellow
                          N056.28.00.000 W003.10.00.000 N056.33.30.000 W003.24.00.000 yellow
                          N056.33.30.000 W003.24.00.000 N056.42.00.000 W003.14.00.000 yellow
                          N056.33.30.000 W003.24.00.000 N056.26.00.000 W003.36.00.000 yellow
                          N056.26.00.000 W003.36.00.000 N056.20.20.000 W003.21.00.000 yellow
                          N056.20.20.000 W003.21.00.000 N056.28.00.000 W003.10.00.000 yellow
;
;DCS RADAR CORRIDOR
DCS_RC                    N054.49.07.260 W003.51.46.025 N054.46.55.040 W002.36.54.050 yellow
                          N054.46.55.040 W002.36.54.050 N054.37.16.000 W002.31.26.510 yellow
                          N054.37.16.000 W002.31.26.510 N054.38.52.120 W003.38.14.190 yellow
                          N054.38.52.120 W003.38.14.190 N054.49.07.260 W003.51.46.025 Yellow
;
;Spadeadam RADAR CORRIDOR
SPDA_RC                   N055.25.35.685 W002.35.27.716 N055.21.05.036 W002.21.40.851 yellow
                          N055.21.05.036 W002.21.40.851 N055.12.22.469 W002.30.21.707 yellow
                          N055.12.22.469 W002.30.21.707 N055.16.51.824 W002.44.09.505 yellow
                          N055.16.51.824 W002.44.09.505 N055.25.35.685 W002.35.27.716 Yellow
;
;TILNI RADAR CORRIDOR
TILNI_RC                  N054.43.51.760 W001.59.54.260 N054.41.19.400 W001.36.02.530 yellow
                          N054.41.19.400 W001.36.02.530 N054.31.28.920 W001.39.06.670 yellow
                          N054.31.28.920 W001.39.06.670 N054.34.02.845 W002.02.58.486 yellow
                          N054.34.02.845 W002.02.58.486 N054.43.51.760 W001.59.54.260 yellow