ABIOM N54.12.11.99 W4.36.04.99
ABLIC N52.51.18.54 W1.51.30.30
ABLUS N56.38.30.00 E2.56.17.99
ABMAS N54.7.13.99 W4.23.44.99
ABWHI N53.7.24.57 W2.44.26.04
ADIKU N55.20.50.39 E4.17.59.12
ADOVA N51.41.39.04 W1.26.27.63
AGASO N54.56.40.47 E4.34.20.95
AMABO N57.43.12.78 W3.53.53.10
ANICK N55.40.45.57 W4.35.58.90
ASKEK N55.47.25.55 E3.59.33.79
AWKEN N55.30.36.15 W4.21.28.05
BAPAN N57.28.10.57 W4.25.39.25
BATEL N50.53.18.99 E0.33.20.99
BATIL N50.55.59.79 E0.0.36.39
BELUV N55.27.40.99 E4.32.58.99
BEMES N57.42.39.00 W3.40.43.11
BESOP N54.32.48.00 W5.26.45.99
BOLTA N54.49.27.00 E4.11.09.99
BORVE N57.48.00.00 W2.28.00.00
BUSBI N53.32.24.00 W2.6.47.99
CAMBL N55.53.30.00 W4.1.00.00
CAMBY N53.53.34.99 W3.29.39.00
CHEDH N51.46.59.99 W1.55.00.00
DAVWP N51.58.01.80 W1.43.05.40
DEXET N54.46.51.99 W11.4.24.99
DIXIS N45.0.00.00 W10.0.00.00
DOMIG N53.32.13.48 W1.52.59.63
DOPOL N57.21.04.60 W4.14.18.36
EAGLE N51.24.27.00 E0.5.09.99
EASTG N53.24.28.09 W1.51.11.79
ELPIN N56.0.00.00 W12.0.00.00
EMJEE N54.22.42.99 E1.52.42.99
EPEKO N56.32.48.00 E3.12.42.00
ETLEY N53.9.24.00 W2.27.42.00
GATSU N51.10.52.32 E0.3.05.46
GELKI N53.59.48.99 W5.54.15.00
GERGA N51.35.15.99 W0.30.48.99
GODAL N51.16.31.99 W0.44.33.99
GOMLA N55.34.46.99 E4.45.31.99
GOSFR N55.59.31.39 W3.1.01.87
INGEN N51.2.11.69 W0.13.14.40
INRUT N56.43.39.00 E2.55.19.99
KENUK N50.0.00.00 W12.0.00.00
KESON N52.32.25.99 E1.44.13.99
KILBA N51.32.39.99 W0.11.49.99
KIRKY N55.57.24.00 W4.5.17.99
LAPKU N51.59.42.10 W1.54.29.45
LETSI N50.51.38.61 W3.7.05.05
LICWP N52.34.01.20 W2.25.04.80
LUMEK N50.25.49.99 W3.13.33.99
LUTON N51.51.07.99 W0.20.30.00
MAKAM N54.50.17.99 W1.40.21.00
MARIL N51.35.37.99 W0.48.31.99
MARLI N55.18.06.00 E4.22.12.99
MCHNB N53.21.10.99 W2.16.13.99
MELOR N53.26.12.00 W1.56.48.00
MILDE N53.35.30.99 W0.15.15.99
MOSEN N55.49.02.70 W4.0.29.04
MULLA N54.11.12.99 W5.44.51.00
NAMON N56.18.06.99 E4.36.10.99
NEMAX N52.50.07.80 W1.4.57.49
NUBLU N55.1.01.99 W1.46.37.99
NUSVI N57.22.28.98 W4.24.34.33
ODLUM N55.0.00.00 W12.0.00.00
OKTIR N55.43.16.99 E4.48.06.99
OMIRI N56.28.57.99 E4.54.39.99
OSBAR N56.4.48.99 E4.13.48.99
OTRAL N56.20.39.00 E4.16.18.99
PEKOX N51.47.27.99 W1.12.15.99
PEMAD N55.58.59.99 E4.34.52.99
PENAV N51.27.55.71 W0.10.01.89
PITAX N45.0.00.00 W12.0.00.00
RINGU N57.35.37.92 W3.41.47.04
RODOG N51.4.46.99 E0.5.39.30
RUSEL N59.0.00.00 W2.34.00.00
SELSI N50.54.29.99 W0.48.42.00
SOPNO N51.5.30.09 E0.10.58.39
SOTED N51.55.04.99 W0.55.22.99
STOCK N53.32.04.99 W1.49.15.99
SUNEX N55.31.54.00 E4.54.24.00
SUSAX N50.57.53.82 W0.28.40.82
TARGT N55.44.35.88 W3.22.11.11
TBRAX N55.46.13.32 W3.36.50.10
TEMPL N55.52.43.07 W3.4.02.89
TEVMO N54.41.34.86 W1.4.58.05
TIBKO N55.59.42.99 E4.45.21.99
TILOK N55.56.36.71 W4.5.00.39
TINVA N53.33.00.06 W2.4.46.75
TOAKS N51.50.12.00 E0.35.55.99
TORAN N55.58.41.99 W4.15.00.00
TRAFA N53.21.36.00 W2.38.17.99
TUPLA N54.41.54.43 W1.17.08.61
TURSA N50.51.11.29 E0.26.54.19
TYRAA N55.42.59.49 E4.45.01.17
ULANU N56.49.07.99 E2.30.20.99
UVNOP N51.56.58.92 W2.30.05.91
VAGAX N55.59.22.99 E4.52.41.99
VALAL N56.16.40.99 E3.23.33.99
VALIX N56.27.33.99 E3.33.00.00
VESUV N55.43.00.00 E4.45.00.99
WINSR N51.27.49.99 W0.46.24.99
XETLA N59.59.30.99 E0.0.54.00
XXXXX N51.5.02.16 W0.38.54.27

;Unnamed ATS route fixes
AbmVANIN N053.58.42.000 W004.02.50.000
B24FIR N051.01.12.000 E001.33.18.000
L15FIR N050.55.16.000 E001.28.00.000
UN521UIR N049.14.02.000 W006.08.35.000
UT7UIR N049.10.14.000 W006.26.54.000

;Netherlands
SASKI N051.32.53.130 E002.30.00.000
REFSO N051.48.34.440 E002.40.00.870
GORLO N051.55.26.640 E003.10.18.610
PEVAD N051.54.55.430 E002.40.00.870
SUGOL N052.31.31.839 E003.58.02.460
MASOS N051.47.57.600 E003.35.47.290

;Belgium
DIBLI N051.24.43.000 E002.15.45.000
BULAM N051.21.09.000 E002.45.01.000
LUMEN N051.16.10.000 E003.24.24.000
DENUT N051.14.10.000 E003.39.27.000
HELEN N051.14.07.000 E003.52.11.000
GOLEX N050.56.43.000 E003.36.57.000
MADUX N051.13.36.000 E002.24.27.000
FERDI N050.54.45.000 E003.38.13.000
KEGIT N051.24.25.000 E003.06.24.000

;France
ABADO N045.39.21.000 E005.17.35.000
ABADU N046.54.10.800 W002.27.12.100
ABAMU N049.23.49.900 W000.15.29.300
ABARI N047.24.59.000 E006.56.33.000
ABDIL N044.09.09.000 E005.20.31.000
ABDOS N047.39.57.000 E002.31.47.000
ABEVA N046.24.23.000 E006.05.58.000
ABILI N043.34.04.000 E005.40.29.000
ABIXI N046.31.54.300 W002.19.55.200
ABLAK N043.30.05.000 E005.26.18.000
ABLAN N047.18.49.000 W001.25.25.000
ABNUR N050.10.17.000 E001.51.31.000
ABOBO N048.30.34.600 E002.11.29.500
ABORO N048.31.26.900 E002.24.54.300
ABRET N045.28.29.900 E005.30.03.100
ABRIX N043.38.47.000 W001.57.45.000
ABROM N050.29.30.900 E002.29.25.300
ABRON N042.36.51.000 E008.08.52.000
ABSIE N046.35.00.000 W000.27.30.000
ABUDA N050.06.59.000 E001.45.27.000
ABULO N045.34.27.000 E006.59.42.000
ABUSO N045.51.02.000 E001.44.55.000
ADABI N046.33.40.000 E000.31.51.000
ADADA N048.17.42.000 E002.00.13.000
ADATI N048.03.11.200 E002.28.27.700
ADATU N045.32.14.000 E002.49.32.000
ADEKA N045.56.30.000 E003.10.48.000
ADEVA N044.15.00.000 E003.15.42.000
ADIDI N048.43.17.100 W002.06.02.700
ADILU N046.07.27.000 W000.50.22.000
ADIMO N043.29.31.200 E001.54.31.500
ADITA N043.13.43.000 E005.49.44.000
ADNOR N050.01.02.100 E002.24.22.500
ADSUD N049.52.55.900 E002.27.35.000
ADUDU N043.20.41.000 E007.11.21.000
ADUTO N050.30.54.000 E003.21.42.000
AFRIC N043.46.27.000 E002.52.09.000
AGAKI N042.48.17.000 E005.01.25.000
AGENO N043.29.23.200 E001.16.28.100
AGEVU N043.52.04.000 E006.39.50.000
AGLAX N049.57.24.700 E002.26.59.200
AGOPA N048.05.00.000 E002.00.35.000
AGOTO N042.26.18.000 E005.42.35.000
AGREV N045.03.51.000 E004.19.03.000
AKELU N049.22.01.000 E006.27.50.000
AKEMO N047.08.21.000 W003.00.00.000
AKEPO N043.18.57.000 W000.08.18.000
AKETI N048.18.00.000 W002.02.41.000
AKIKI N049.35.29.000 W001.25.00.000
AKITO N047.12.48.000 E006.38.56.000
AKUTI N043.13.38.000 E008.56.25.000
ALABI N045.56.45.400 E004.51.02.600
ALARO N047.29.47.200 E004.44.56.500
ALBER N042.27.05.000 E002.49.56.000
ALIMO N048.42.57.000 E003.55.56.000
ALISO N042.55.40.000 E009.36.14.000
ALIVA N043.55.58.800 E001.08.49.300
ALTIK N047.38.58.700 E007.07.50.300
ALURA N046.30.00.000 E004.57.09.700
AMDAS N045.40.54.400 E003.44.34.700
AMFOU N043.35.45.000 E006.06.04.000
AMGEL N043.49.55.400 E007.22.28.700
AMIKO N045.07.41.000 E004.28.59.000
AMIRO N043.56.28.000 E006.44.53.000
AMLIR N044.26.35.000 E003.09.54.000
AMODO N048.25.10.000 E002.58.49.000
AMOLO N043.49.41.000 E002.34.44.000
AMONI N045.04.02.000 E004.49.57.000
AMORO N046.30.00.000 E004.32.17.000
AMPES N041.24.37.000 E008.07.15.000
AMVAR N045.19.50.000 E005.56.14.000
ANDLO N048.23.45.500 E007.22.59.600
ANETO N042.41.35.000 E000.33.30.000
ANIGU N047.32.11.000 W000.31.53.000
ANLEV N048.41.37.000 W003.03.00.000
ARBON N045.16.59.800 E004.53.24.600
ARBOS N046.59.03.000 E006.01.35.000
ARDEG N044.40.09.000 E004.32.15.000
ARDEN N049.51.43.000 E004.51.28.000
ARDOD N047.43.53.000 W000.54.21.000
ARDOL N046.45.05.000 E004.38.15.000
ARGED N048.55.47.000 W000.15.00.000
ARGIS N045.58.16.000 E005.35.57.000
ARKIP N047.38.00.000 E002.02.11.000
ARKOX N045.26.24.000 E005.18.27.000
ARLET N043.15.39.000 E005.19.45.000
ARMAL N047.20.27.000 E002.03.11.000
ARNEV N047.56.57.100 W000.29.31.400
ARNOT N047.24.08.000 E006.55.12.000
ARPIL N045.41.09.700 E000.41.52.300
ARPUS N047.40.21.000 E006.39.57.000
ARSIL N048.33.36.000 E004.03.42.000
ARSOM N046.08.14.000 E003.25.11.000
ARTAX N046.15.27.000 E001.47.00.000
ARVEL N043.27.08.000 E002.02.30.000
ARVOL N050.32.45.000 E003.29.49.000
ASKAN N045.02.40.000 W001.02.23.000
ASLEG N045.45.09.000 E006.09.15.000
ASMAT N043.21.40.400 E001.14.56.300
ASPET N043.00.00.000 E000.58.47.000
ASTEG N043.24.51.800 E004.07.55.600
ASTOT N046.01.31.000 E006.58.21.000
ATGUS N040.55.02.000 E006.38.58.000
ATLEN N044.30.19.000 W004.56.51.000
ATMAD N045.13.09.000 E007.00.09.000
ATMOS N049.26.20.300 W000.03.31.700
ATREX N049.47.07.000 E002.22.07.000
ATRID N046.50.55.000 E003.24.31.000
AUCHE N043.39.05.000 E000.33.30.000
AULON N044.22.43.000 E001.38.51.000
AVLON N047.33.36.000 E003.48.48.000
BABAT N046.54.57.700 W002.37.27.000
BADAM N044.05.11.000 E003.10.14.000
BADET N043.27.51.000 E004.29.45.000
BADUR N048.42.39.000 W002.57.04.000
BAGAD N047.35.00.000 W002.52.52.000
BAGBI N046.48.52.000 E004.35.48.000
BAGEK N049.30.11.300 W000.15.37.000
BAGIB N046.31.07.000 W002.09.45.400
BAGRO N043.12.35.400 W000.05.50.200
BAKIX N048.20.13.200 E007.03.10.400
BAKNO N046.30.00.000 E003.31.53.000
BAKTA N043.50.12.000 W001.06.10.000
BAKUL N047.20.49.000 W001.38.17.000
BAKUP N044.24.45.000 W004.26.10.000
BALAG N046.11.35.000 E005.34.30.000
BALAN N046.30.58.000 E001.02.00.000
BALEN N040.56.48.000 E005.41.24.000
BALMO N042.25.00.000 E004.35.07.000
BALMU N047.50.48.000 E004.38.23.000
BALNI N047.37.05.000 W001.40.26.000
BALSI N045.28.39.000 E005.57.39.000
BAMDI N042.46.35.000 E008.47.30.000
BAMES N048.58.31.000 E001.29.10.000
BANEK N045.46.37.000 E005.52.10.000
BANKO N045.49.12.000 E007.03.18.000
BANOX N048.34.27.100 E001.30.19.800
BANTI N049.55.27.000 E001.37.34.000
BANUS N045.19.46.600 E004.28.38.100
BARAN N045.45.19.000 E005.12.21.000
BARAT N043.00.15.600 E005.02.28.700
BARLI N050.25.35.000 E002.46.15.000
BARSO N044.08.37.000 E006.53.25.000
BASIK N048.57.13.000 W002.57.04.000
BASIP N043.53.32.000 E007.57.42.000
BASLI N044.06.53.000 E002.59.15.000
BASUD N047.22.18.300 E007.37.28.500
BATAG N048.49.22.100 E003.22.20.200
BATEX N043.40.11.000 E005.43.11.000
BATIV N042.07.26.000 E006.24.37.000
BAVOL N049.06.20.000 E003.39.42.000
BAVON N040.15.58.000 E006.03.22.000
BAXIR N048.47.26.000 E003.52.12.000
BEBEV N042.13.01.000 E008.26.44.000
BEBIX N045.56.57.000 E001.23.59.000
BEGAR N047.54.30.000 E007.35.00.000
BEGUY N043.03.30.000 W001.27.03.000
BEKOS N048.48.42.000 E003.32.53.000
BELDI N049.57.20.000 E002.35.04.000
BELEN N043.54.51.000 W002.44.19.000
BELEP N045.47.30.000 E004.07.54.000
BELIG N043.16.02.000 E000.00.50.000
BELOB N050.42.34.000 E003.12.52.000
BELPA N044.59.32.000 E001.56.43.000
BELUS N045.40.31.000 E005.35.38.000
BELVU N045.57.09.000 E004.02.42.000
BEMAX N046.09.56.000 W000.45.35.000
BENAR N048.15.11.000 E000.44.40.000
BENDY N050.17.07.000 W001.48.38.000
BEPER N044.38.17.000 E005.12.54.000
BERAD N048.18.07.000 W004.03.42.000
BERNO N049.05.00.000 E000.38.00.000
BERUG N048.37.17.000 E006.55.54.800
BETOG N048.20.11.000 W001.43.03.000
BETUV N048.57.16.000 W003.07.20.000
BEVEN N045.41.19.000 E005.58.22.000
BEVOL N047.00.43.000 E000.55.51.000
BEVTO N044.28.54.300 E002.20.15.800
BIBOT N046.45.05.000 E006.24.37.000
BIDAC N043.25.02.400 W001.08.08.400
BILGO N049.54.07.000 E003.26.50.000
BINTO N043.06.12.900 E005.19.39.800
BIRGO N043.23.30.000 E006.07.11.000
BIRSO N047.49.56.800 W000.30.53.500
BISBI N044.03.55.000 E002.27.22.000
BISKI N049.06.00.000 W008.00.00.000
BIVSO N045.09.58.000 E001.18.35.000
BLONA N045.00.31.000 E006.46.38.000
BOBRI N046.50.18.000 W001.11.25.000
BOBSA N048.29.45.000 E000.38.54.000
BOBSI N046.19.27.000 E004.59.07.000
BODIL N048.31.23.400 W004.05.09.300
BODRU N044.12.31.000 E006.22.40.000
BOGRO N043.18.41.000 E000.45.00.000
BOGVA N049.28.26.900 E001.28.01.400
BOKNO N047.02.49.000 E000.41.30.000
BOLGI N046.40.04.000 E005.56.18.000
BOLGU N045.55.56.000 W000.03.38.000
BOLLY N048.05.31.000 E004.09.04.000
BOLSA N043.20.02.700 E003.18.54.300
BORDI N044.01.23.000 E007.45.07.000
BORGO N043.08.46.300 E004.46.14.700
BREMO N042.20.00.000 E009.34.37.000
BRUSC N043.44.51.000 E003.01.24.000
BUBLI N048.46.18.000 E004.09.00.000
BUGUS N045.00.00.000 E000.57.38.000
BUKID N040.53.48.000 E007.11.56.000
BULOL N046.02.45.000 E005.05.31.000
BULOX N048.33.00.000 W000.46.00.000
BUNAX N042.39.16.000 E008.39.11.000
BUNOR N049.10.52.000 E002.34.25.000
BUNOT N048.03.09.000 W001.29.40.000
BUROD N043.25.12.000 E006.23.18.000
BUROX N043.37.50.000 E001.15.18.000
BUSIL N046.17.37.000 E004.43.19.000
BUSUK N048.51.19.000 E000.42.48.000
CACHI N047.04.00.000 E004.06.24.000
CALAN N043.05.39.500 E005.19.59.400
CALNO N042.47.58.000 E008.21.52.000
CANSU N049.00.00.000 E000.00.00.000
CAPCO N042.50.50.300 E009.34.28.200
CHABY N047.47.48.000 E003.56.55.000
CHALA N045.21.19.000 E000.07.51.000
CIRTA N039.00.00.000 E007.02.00.000
COLLO N045.56.35.000 E005.51.18.000
COMPO N042.28.52.000 E009.20.00.000
COQUE N047.04.45.000 W004.59.26.000
CORSI N041.20.00.000 E008.48.42.000
CUERS N043.13.34.000 E006.08.04.000
DAMLO N047.23.45.000 W001.41.13.000
DANAR N048.04.04.000 E006.03.13.000
DANBO N045.55.18.000 E005.03.31.000
DEGEX N047.44.38.000 W003.09.24.000
DEGIS N046.15.36.000 W003.21.16.000
DEGOL N043.46.50.000 E002.51.08.000
DEKOD N048.17.00.000 E002.06.00.000
DEKOR N049.00.26.000 W005.55.59.000
DELOG N044.19.44.000 W003.59.15.000
DELOM N050.18.53.000 E004.05.23.000
DEMOM N049.32.53.200 W000.07.51.000
DENEL N048.21.55.000 E007.53.03.000
DENIN N050.22.12.000 E003.25.48.000
DENTA N041.40.31.000 E008.20.52.000
DEPES N044.07.24.000 E002.09.52.000
DEPOM N047.19.04.000 E002.10.45.000
DEPUL N045.55.30.000 E005.29.40.000
DERAK N047.17.47.000 E005.27.55.000
DEROL N048.40.39.400 E002.06.56.100
DESAB N045.49.49.000 W002.57.33.000
DETUN N047.04.17.000 E004.38.52.000
DETUR N048.56.21.000 E000.57.11.000
DEVIM N049.27.00.600 E003.37.56.000
DEVRO N047.29.44.000 E000.44.19.000
DIBAG N045.47.22.000 E000.47.15.000
DIBER N042.04.47.000 E004.24.54.000
DIBES N047.30.27.000 E001.06.17.000
DIBEX N047.53.25.000 E006.02.46.000
DIBOT N048.36.39.800 E007.11.44.800
DIDAK N048.15.35.000 W000.15.00.000
DIDOR N049.18.49.000 E003.16.55.000
DIDOS N048.39.12.000 E002.26.44.700
DIDRU N046.10.54.000 E000.01.52.000
DIKEL N041.32.53.000 E009.06.49.000
DIKOL N049.08.15.000 E004.02.57.000
DILAB N048.02.42.000 E005.48.15.000
DILOM N047.00.40.000 W001.43.11.000
DILRA N045.51.00.000 W001.13.32.000
DIMAD N043.18.04.300 E007.16.40.830
DIMAL N050.29.33.000 E001.21.59.000
DINAN N049.49.55.000 E005.19.53.000
DINOX N046.40.00.000 E006.07.11.000
DIPER N050.20.45.000 E002.03.41.000
DIPIR N046.40.09.000 E005.35.35.000
DIPKA N051.02.30.200 E002.11.00.900
DIRAX N044.33.07.700 W000.27.15.800
DIRBA N046.00.00.000 E004.30.09.000
DIRGO N048.50.05.000 W002.07.03.000
DIRMO N047.05.21.000 E002.11.32.000
DISAK N048.08.00.000 E002.07.54.000
DITAL N048.44.41.000 E000.53.21.000
DIVDA N047.57.33.000 E003.48.31.000
DIVED N049.13.08.000 E006.42.48.000
DIVKO N043.03.22.000 E004.46.37.000
DIVON N049.34.01.600 E001.51.07.000
DIVUL N043.18.07.000 E007.37.17.000
DOBEG N048.36.09.200 E007.24.04.800
DOBIM N042.57.14.000 E009.45.00.000
DODIM N049.15.45.620 E000.27.17.110
DOKAR N042.30.03.000 E009.45.00.000
DOLDE N048.34.32.000 W001.42.10.000
DOLIS N039.00.00.000 E005.22.29.000
DOLIV N043.42.36.900 E005.10.38.200
DOMIL N046.57.31.000 E006.18.53.000
DOMOD N047.51.46.000 E001.17.09.000
DOMOK N049.43.28.000 W002.06.18.000
DOMUS N048.53.17.000 E001.57.50.000
DONOS N043.17.02.000 W001.29.29.000
DOPAP N048.42.07.800 E002.14.34.700
DOPIM N045.15.40.100 E005.20.54.100
DOPIN N048.13.09.000 E002.45.17.000
DORDI N048.13.12.000 E002.47.31.000
DOSSE N048.38.40.000 E007.29.04.000
DOTIG N044.09.23.000 E005.30.04.000
EBOMA N048.12.07.700 E003.12.22.000
EBORA N043.19.40.000 E007.21.45.000
EDINO N039.40.02.000 E005.57.16.000
EDOPI N047.55.30.000 E006.34.08.000
EDOXA N048.17.27.000 E002.12.34.000
ELBEG N047.41.49.000 E007.44.58.000
ELBOX N049.17.11.000 E000.48.28.000
ELNUX N050.26.28.900 E002.35.38.300
ELSAG N040.36.29.000 E008.00.00.000
ELVES N049.47.47.000 E003.57.54.000
EMBUR N045.22.50.000 E003.31.27.000
ENESO N046.12.02.000 E002.55.51.000
ENOBU N047.11.07.000 W000.40.18.000
ENORI N049.28.28.900 E003.46.40.600
ENSAC N044.12.00.000 W000.41.25.000
EPATI N049.47.37.000 W001.04.56.000
EPIKO N048.13.53.200 E006.41.12.900
EPOLO N042.52.58.000 E006.32.05.000
ERADI N049.10.04.000 E006.46.35.000
ERBIN N047.24.03.000 W002.19.33.000
ERETI N040.11.01.000 E007.10.37.000
ERGUL N044.14.59.000 E003.26.56.000
ERIGA N046.51.36.000 W002.21.47.000
ERIXU N048.05.00.000 E002.15.35.000
ERKIS N048.37.52.000 W002.28.10.000
ERPIN N041.34.21.000 E007.34.36.000
ERTIP N048.08.04.000 E004.24.24.000
ERTOK N047.35.06.000 E002.17.28.000
ERWAN N045.56.13.000 W005.13.17.000
ESAPI N045.53.24.000 E006.17.25.000
ESERA N044.08.52.000 E003.31.47.000
ESISI N044.53.34.000 E001.25.42.000
ESPAL N044.26.56.000 E002.50.00.000
ESPIG N043.30.38.600 E004.06.18.700
ETAGI N041.58.54.000 E008.47.53.000
ETAKI N044.30.24.000 E004.35.18.000
ETAMO N046.50.25.000 E002.20.15.000
ETEKO N039.42.50.000 E006.48.16.000
ETIDO N045.05.30.000 E005.24.41.000
ETOIL N039.43.54.000 E007.09.48.000
ETOMA N043.40.42.000 E004.52.16.000
ETPAR N045.11.45.300 W000.51.42.400
ETRAT N049.41.00.000 E000.09.48.000
ETREK N045.11.16.000 E004.38.19.000
EVALA N044.27.42.000 E005.14.04.000
EVETO N043.56.45.000 E004.31.22.000
EVIRI N043.03.14.000 E009.05.00.000
EVREN N048.20.25.000 W002.00.54.000
EVRUK N049.04.43.000 E000.41.30.000
FAMEN N049.58.30.000 E004.34.00.000
FECHO N047.54.43.000 W001.28.16.000
FERTE N048.32.00.000 W000.15.00.000
FINOT N043.42.54.300 E002.01.47.600
FISTO N044.27.41.000 E001.13.38.000
FOUCO N045.45.17.000 E000.28.50.000
GAGSO N046.47.54.900 W002.38.33.200
GALBI N046.43.44.000 E006.08.37.000
GALBO N048.50.17.000 W000.15.00.000
GALDA N041.25.44.300 E008.52.45.900
GALDO N043.15.34.000 E001.44.45.000
GANGU N043.27.47.000 E006.05.05.000
GANPU N049.19.04.800 W000.13.14.800
GANTO N049.23.50.000 W004.58.52.000
GAPDO N044.12.52.000 E007.09.04.100
GARPU N041.36.50.000 E007.14.12.000
GASNO N046.02.15.000 W003.42.48.000
GAUDE N043.00.00.000 E000.38.12.000
GEANT N042.26.00.000 E002.12.59.000
GELTA N048.30.17.000 E004.01.20.000
GEMLA N045.34.20.000 E006.20.23.000
GERVA N046.03.27.500 E002.52.27.500
GIGEX N046.38.07.500 W002.08.34.200
GIGNA N043.39.29.100 E003.31.46.400
GIGUS N045.23.23.000 E006.26.30.000
GILIR N047.03.48.000 E006.14.21.000
GILON N043.26.39.000 E006.06.54.000
GILRA N048.51.48.000 W000.43.53.000
GILUR N044.38.05.000 E002.19.14.000
GILUX N047.43.27.000 E001.44.35.000
GIMAT N045.29.07.700 E003.35.03.600
GIMER N049.21.56.000 E003.58.26.000
GINON N047.10.00.000 E000.10.48.000
GINOX N040.51.44.000 E008.00.00.000
GIPEX N047.45.27.000 E002.37.24.000
GIPNO N045.33.36.000 E005.31.45.000
GIRAG N042.59.42.000 E009.37.48.000
GIRAK N044.38.52.000 E001.48.38.000
GIRED N045.43.34.000 E005.13.54.000
GIRKU N046.03.05.000 E005.54.17.000
GIROL N044.04.17.000 E005.27.17.000
GIROM N042.46.30.000 E000.59.50.000
GISOR N049.15.48.000 E001.48.06.000
GITAN N049.22.37.000 E004.02.05.000
GIVOR N048.39.31.000 E006.23.29.000
GOBUR N049.17.30.000 W003.04.31.000
GODAN N047.38.31.000 W001.57.36.000
GODEM N046.03.07.000 W002.15.00.000
GODIX N048.21.45.000 W000.02.33.000
GOGUX N048.14.30.800 E002.44.14.300
GOMDA N048.02.31.000 W001.29.48.000
GOMET N045.21.37.000 E005.29.17.000
GONEK N048.07.12.000 E000.36.12.000
GONIM N044.27.16.000 E002.50.32.000
GONIV N043.12.37.700 E006.40.45.100
GONIX N045.50.15.000 E005.33.08.000
GONOX N049.38.11.600 E001.55.21.500
GONTO N043.27.21.000 E007.35.29.500
GONUP N043.27.39.000 E000.45.32.000
GOPAT N041.20.00.000 E008.26.38.000
GORET N047.57.08.000 E004.01.53.000
GORIT N042.43.01.000 E008.31.41.000
GUERE N046.11.24.000 E002.05.22.000
GUNPI N043.08.36.000 E009.11.30.000
GURGO N046.20.56.000 E003.49.46.000
GURPA N043.01.07.000 E008.17.11.000
GUSON N046.28.27.000 E001.28.40.000
HOMBO N047.44.16.300 E007.31.34.600
HORRO N041.39.54.500 E008.34.27.500
IBABA N046.52.38.000 E005.25.15.000
IBERA N049.30.30.000 E006.16.30.000
IBERU N050.35.48.000 E002.27.24.000
IDLAB N049.31.45.700 E001.22.16.900
IDOKO N050.20.26.000 E003.52.23.000
IDORI N041.47.26.000 E009.45.00.000
IFFEN N048.07.19.000 W002.05.10.000
ILROU N042.42.19.200 E008.47.31.700
INGOR N049.21.52.000 W000.15.00.000
INKIR N040.42.39.000 E006.09.26.000
INLOV N043.18.54.000 E007.52.14.600
INPAX N049.24.29.000 E001.10.47.000
INPEK N040.09.29.000 E005.33.36.000
INTEM N047.56.47.000 E007.16.52.000
INTIP N046.17.12.000 E006.51.38.000
IRBAL N049.41.42.000 E002.37.37.000
IRMAR N044.48.00.000 E006.47.26.000
ISTER N040.03.53.000 E004.40.00.000
IXILU N047.44.25.000 E006.02.29.000
JARNY N049.11.36.000 E006.06.00.000
JULEE N043.00.46.000 E005.38.00.000
KABOB N043.43.01.700 E001.03.24.500
KABUR N049.36.00.000 W000.08.00.000
KAMER N039.00.00.000 E006.05.18.000
KANIG N042.28.49.000 E002.58.59.000
KARPU N047.16.32.200 W001.28.16.900
KASON N047.33.30.000 E004.46.12.000
KELAM N043.10.19.000 E002.52.07.000
KELON N048.48.57.000 E003.52.25.000
KELUD N048.48.03.800 E002.23.40.100
KELUK N046.33.20.000 E005.41.08.000
KENAP N049.57.31.000 E004.05.38.000
KENIM N043.46.17.000 E006.48.11.000
KENOP N049.15.00.000 E000.42.45.000
KEPER N047.48.22.000 E000.16.26.000
KERAK N047.49.26.100 W003.09.10.800
KEREB N047.35.29.000 W004.31.29.000
KEREX N049.19.35.800 E000.54.47.300
KERIT N043.20.32.000 E008.35.34.000
KEROZ N048.36.39.000 W003.44.39.000
KESAK N043.18.02.800 E008.06.09.600
KESAX N050.04.15.000 E001.40.27.000
KETEX N048.08.00.000 E002.21.35.000
KINES N045.19.53.000 E006.45.19.000
KOGAS N045.48.30.000 E006.23.27.000
KOKIN N043.13.32.700 E008.02.08.900
KOLEK N046.36.46.000 W005.24.29.000
KOLIS N044.20.57.000 E000.45.41.000
KOLIV N049.17.59.900 E001.34.14.000
KOLON N043.43.19.000 E006.57.12.000
KONON N043.16.05.000 E002.25.33.000
KOPOR N049.30.51.000 E002.25.17.000
KORAB N043.48.24.000 E002.42.06.000
KORER N047.41.06.000 W002.30.03.000
KORUL N044.50.07.000 W006.55.11.000
KOTAP N048.17.00.000 E002.18.00.000
KOTIS N047.13.48.000 E002.48.09.000
KOTIT N044.36.09.000 E005.41.27.000
KOTIX N041.48.14.000 E008.41.50.000
KOTOP N042.30.16.000 E004.16.05.000
KOTUN N048.43.28.000 E003.52.16.000
KOVAK N047.59.35.000 E000.50.48.000
KOVAR N046.23.31.000 E005.49.01.000
KOVIN N049.29.09.000 E003.06.23.000
KUBOL N043.06.16.600 E005.13.11.000
KUBOM N047.26.10.000 E006.56.45.000
KUDIN N049.41.35.000 E005.15.46.000
KUKOR N046.32.31.000 E003.07.45.000
KUPIM N040.20.04.000 E007.17.52.000
KUPOL N047.37.14.000 E004.33.22.000
KURIR N044.43.32.000 E004.54.01.000
KURIS N047.35.59.000 W001.31.03.000
KUSEK N047.42.22.000 E002.34.16.000
KUTAN N047.48.27.000 E004.15.23.000
KUTEX N050.35.52.000 E003.07.11.000
LABAL N046.01.39.000 E003.21.18.000
LABAP N044.36.54.000 W000.50.00.000
LABOG N043.04.37.000 W000.00.53.000
LABUL N048.17.57.000 W001.53.22.000
LACOU N044.17.48.400 E000.54.15.800
LAGAB N047.53.22.000 W001.59.30.000
LAGOR N046.30.00.000 W001.50.39.000
LAKOB N046.53.00.000 E003.05.46.000
LALTA N043.11.01.000 E000.10.43.000
LALUX N048.17.11.000 E002.24.32.000
LAMBA N048.31.38.000 W002.26.23.000
LAMDO N045.33.20.000 E006.09.09.000
LAMIB N048.56.17.000 E003.32.56.000
LAMUR N046.34.47.000 E007.13.53.000
LAMUT N047.07.06.000 E002.59.05.000
LANET N042.42.10.000 E003.06.25.600
LANKO N043.13.38.000 E006.00.52.000
LANVI N048.18.42.000 E005.47.50.000
LAPAT N045.30.01.000 E005.33.29.000
LAPAX N048.29.54.700 E002.23.32.700
LAPOS N044.20.24.000 W000.51.36.000
LAPOX N048.06.52.000 W001.57.18.000
LAPRO N043.25.00.000 E002.51.27.000
LAROK N046.42.39.000 W001.26.01.000
LARON N046.13.39.000 E002.11.54.000
LARPO N049.06.30.000 E002.35.23.000
LASAT N048.09.32.000 E006.41.03.000
LASBO N043.36.19.100 E001.33.03.700
LASEV N045.58.52.000 E002.15.41.000
LASIV N048.54.03.000 E004.13.37.000
LASUN N047.24.51.000 E007.32.15.000
LASUR N044.40.02.000 E005.34.35.000
LATAM N045.02.02.000 E004.14.21.000
LATEK N042.52.30.000 W000.39.25.000
LATGO N048.28.49.000 W000.15.00.000
LATRA N048.05.00.000 E002.31.00.000
LAULY N048.09.26.000 E003.42.08.000
LAVRA N044.39.15.000 E001.31.49.000
LEBRI N045.48.40.000 W002.32.01.000
LECAR N045.41.58.100 E001.00.57.800
LEGRI N046.06.57.000 E004.19.06.000
LEKLA N043.50.58.600 E003.22.16.800
LEMAR N049.03.47.000 W000.37.22.000
LEMIN N046.31.00.000 E003.03.13.000
LEMKA N046.37.44.000 W000.15.00.000
LENSU N047.57.54.000 W002.57.44.000
LERDU N046.50.26.900 E005.49.41.700
LERGA N045.15.26.000 E003.45.01.000
LERGI N045.00.00.000 E000.30.00.000
LERMA N043.09.57.000 E007.04.23.000
LESDO N049.48.30.000 E003.19.05.000
LESPI N046.06.49.000 E003.57.28.000
LIBLO N042.15.04.000 E008.49.42.000
LIBRU N044.53.22.800 W000.11.23.700
LIGUR N043.32.36.000 E008.58.36.000
LIMGO N049.38.14.000 E006.16.54.000
LINAK N045.31.46.000 E001.09.11.000
LIPNI N049.31.48.000 E005.50.45.000
LIRKO N046.34.15.000 E005.48.51.000
LIRMA N047.41.56.100 W003.42.55.900
LISEU N049.06.12.000 E000.24.07.000
LISMO N046.52.14.000 E005.46.41.000
LOGIS N043.42.11.000 E005.10.41.000
LOGNI N046.14.35.000 E005.05.34.000
LOMRA N043.20.39.000 E001.52.59.000
LONSU N042.46.37.000 E008.01.26.000
LOPSU N048.20.25.000 E007.17.28.000
LOPTO N045.44.34.000 E005.50.15.000
LORNI N049.25.09.900 E003.27.05.000
LORTO N043.37.55.100 E000.59.45.800
LOTEE N044.39.32.000 W005.50.12.000
LUGEN N046.35.00.000 W000.51.40.000
LUKUM N044.55.44.000 E005.10.58.000
LULIP N049.18.17.100 W000.04.33.900
LULUT N044.23.55.000 W000.50.23.000
LUMAN N047.56.22.000 E000.24.48.000
LUMAS N041.44.00.000 E004.40.00.000
LUMEL N047.24.26.000 E007.09.14.000
LUMID N044.14.00.000 E003.47.21.000
LUMIL N050.25.11.000 E002.58.10.000
LUMIX N043.00.39.000 E005.20.06.000
LUNEL N043.41.21.900 E004.08.45.000
LUNOR N040.23.06.000 E005.23.48.000
LUPEN N048.26.06.000 E007.44.01.000
LUPER N043.42.09.000 E006.49.31.000
LURAG N045.31.40.000 E007.05.20.000
LURAN N042.58.22.000 W000.58.45.000
LUREN N048.01.33.000 E003.54.50.000
LUSAR N046.40.08.000 E005.10.46.000
LUSEM N043.22.29.000 W001.46.50.000
LUSOL N043.46.17.000 E006.04.43.000
LUSON N046.30.00.000 W001.21.03.000
LUTAX N049.32.58.000 E005.48.58.000
LUTIL N047.35.47.000 E000.05.10.000
LUVAL N048.17.38.000 E005.09.13.000
LUXAN N045.22.29.000 E005.07.58.000
LUXUS N043.32.56.000 E006.59.31.000
MABES N046.20.25.000 E005.15.54.000
MABOL N043.27.29.000 E000.33.30.000
MADEK N048.30.09.000 W006.59.20.000
MADIV N046.39.26.000 E003.55.25.000
MADKA N041.20.00.000 E009.16.06.000
MADOT N045.43.48.000 E004.30.50.000
MADRA N043.13.45.600 E005.19.47.900
MAGEC N043.44.54.000 W001.11.45.000
MAGOP N041.18.41.000 E007.53.45.000
MAKIL N044.12.35.000 E002.20.23.000
MAKOT N049.10.20.000 E007.02.22.000
MAKOX N045.19.58.000 E001.14.17.000
MALAT N045.14.13.800 E004.20.05.000
MALEB N045.25.51.000 E003.10.53.000
MALOU N043.37.44.000 E003.00.17.000
MAMES N042.12.33.000 E004.00.01.000
MANAG N048.06.11.000 E005.09.57.000
MANAK N046.12.48.000 W000.56.31.000
MAPEB N047.49.41.400 E000.00.13.100
MAPRI N044.42.36.000 W000.51.47.000
MAREN N045.44.00.000 W001.03.42.000
MARKU N049.32.06.000 W001.19.24.000
MARRE N045.26.06.000 E000.17.01.000
MARRI N043.23.05.000 E004.28.27.000
MASAL N041.28.04.800 E009.22.03.100
MASAM N043.28.04.000 E002.15.07.000
MATER N048.26.54.000 W004.47.00.000
MATID N049.36.19.000 E001.46.00.000
MATIX N050.05.54.000 E003.54.51.000
MATOT N047.46.13.700 E000.14.08.000
MAVAC N045.30.59.000 E001.00.07.000
MAVUK N047.47.57.800 E000.07.10.800
MAXIR N043.23.44.000 E006.02.26.000
MAXOS N040.26.24.000 E004.45.19.000
MAXUS N045.46.25.000 E005.22.53.000
MAZET N043.43.34.000 E004.53.51.000
MEBAK N045.42.29.000 E004.38.56.000
MEBEL N042.29.31.000 E005.20.46.000
MEDAM N045.15.52.000 E006.56.24.000
MEDAP N043.55.18.000 E002.01.18.000
MEDIL N050.20.32.000 E003.40.30.000
MEDIM N047.23.15.000 E006.31.54.000
MEDOK N043.45.04.000 E005.53.31.000
MEDOX N049.20.01.000 E005.05.49.000
MEDUS N043.10.30.000 E006.08.22.000
MEGER N043.19.54.000 E009.10.33.000
MEIZE N043.26.57.200 E003.37.41.800
MELKO N048.16.41.000 E004.40.25.000
MENOX N046.34.19.000 E003.13.12.000
MERLU N043.04.48.000 E007.47.36.000
MEZIN N045.01.02.000 E004.11.45.000
MIGRA N045.41.02.800 E001.00.54.500
MIKRU N043.40.46.000 E007.32.43.000
MILNO N042.53.49.000 E009.12.43.000
MILPA N046.18.09.000 E005.52.47.000
MINDI N045.08.13.000 E004.02.32.000
MIRBA N044.43.26.000 E000.19.37.000
MIRGU N048.01.09.000 E006.40.44.000
MIRSA N042.49.22.000 E009.45.00.000
MOBLO N045.48.35.000 E006.43.22.000
MOBRO N049.27.19.600 E001.36.23.200
MOKDI N044.57.25.000 E003.10.01.000
MOKEB N048.43.09.400 W003.18.27.970
MOKIP N046.26.56.000 E005.05.37.000
MOKOR N047.00.25.000 W002.00.50.000
MOKUP N047.05.47.000 W001.26.37.000
MOLBA N048.17.42.100 E003.03.46.600
MOLEN N044.03.19.000 E004.30.46.000
MOLOV N048.46.04.430 W003.36.21.580
MOLUS N046.26.38.000 E006.40.46.000
MOMIL N046.32.46.000 E004.32.48.000
MONCE N048.42.00.000 E006.26.06.000
MONIX N043.20.11.000 E001.53.49.000
MONOT N048.05.00.000 E002.27.26.000
MONOX N043.37.19.500 W001.20.14.000
MONTU N046.55.48.000 W001.08.48.000
MOPAR N049.17.30.200 E001.45.26.200
MOPIL N050.08.52.000 E004.06.28.000
MOPUK N048.42.51.590 W003.30.34.560
MOREG N046.23.35.000 E006.00.26.000
MORIL N043.03.57.000 E002.21.01.000
MOROK N047.23.48.000 E006.39.20.000
MORSS N039.57.24.000 E004.40.00.000
MOSUD N048.56.15.800 E002.51.33.500
MOTAG N048.49.16.970 W003.42.09.330
MOTAL N047.34.36.000 E002.13.12.000
MOTIK N044.28.42.000 W000.50.00.000
MOTIM N043.29.19.000 E005.35.38.000
MOTUK N047.51.54.000 E005.49.13.000
MOTUR N044.01.02.000 E007.11.50.000
MOUET N039.00.00.000 E007.19.52.000
MOULE N042.37.17.000 E009.45.00.000
MUREL N049.19.17.000 W003.33.02.000
MUREN N041.03.27.000 E004.40.00.000
MURRO N045.19.58.000 E004.22.32.000
NAKET N045.18.45.900 E004.12.24.000
NAKIB N049.36.23.500 E001.14.13.400
NAKIS N044.19.21.300 E004.05.53.100
NANCY N048.49.03.000 E006.05.02.000
NANOP N048.15.43.000 E004.14.22.000
NARAK N044.17.43.000 E001.44.56.000
NARTI N043.32.57.000 E007.13.48.000
NASEP N044.30.54.000 E002.13.56.000
NASIK N043.25.51.000 E006.16.03.000
NATLI N047.29.31.000 E007.30.26.000
NAVLA N045.40.02.000 E005.40.01.000
NEBRU N049.59.24.000 E002.15.24.000
NEDAN N047.26.26.000 W001.15.53.000
NEDRU N045.04.33.000 E005.49.09.000
NEGAT N041.24.42.000 E007.51.46.000
NEKEM N046.30.00.000 E003.24.51.000
NEKIP N043.19.40.200 E006.22.22.000
NEKTA N043.45.03.000 E003.01.30.000
NELEN N045.07.07.000 E004.36.42.000
NEMED N049.37.03.000 E001.35.18.000
NEMOT N047.12.50.300 W001.32.51.000
NENAK N041.40.29.000 E007.14.26.000
NENEM N044.03.05.000 W003.09.01.000
NEPAP N046.56.02.000 E003.40.46.000
NEPAR N049.05.10.000 E003.33.03.000
NERAS N043.24.56.700 E007.49.27.400
NERIN N048.38.23.400 E002.57.27.600
NERKI N048.30.47.000 E001.19.37.700
NERLA N048.59.35.000 W004.37.55.000
NERTI N045.42.07.600 E000.54.20.000
NESUL N041.04.31.000 E007.01.55.000
NETRO N044.03.03.300 E001.34.22.900
NIDIL N043.12.09.000 E007.52.56.000
NIGLO N045.50.56.700 E003.49.23.600
NILDU N042.15.37.000 E003.49.43.000
NILEM N050.17.48.000 E004.07.08.000
NIMER N047.28.21.000 E000.21.25.000
NIMEX N045.41.47.200 E005.51.51.100
NIMLA N048.28.16.000 E002.35.42.000
NINIS N046.17.01.000 E004.24.00.000
NINTU N046.08.50.000 E005.33.11.000
NIPOR N049.06.58.000 E004.00.34.000
NIRDO N043.08.44.000 E008.26.05.000
NISAR N044.29.43.000 E005.04.17.000
NISEK N041.02.01.000 E007.45.34.000
NITAR N049.55.12.000 E002.14.11.000
NITEM N047.25.49.000 W001.48.23.000
NITEP N049.24.42.000 E004.13.12.000
NIVDA N041.14.36.000 E006.34.07.000
NIVET N043.11.54.000 E004.02.34.000
NOGAT N044.39.52.300 E004.50.11.000
NOLVI N040.43.54.000 E005.57.23.000
NORBU N048.44.30.000 W004.25.23.000
NORKA N042.57.11.000 E008.47.29.000
NORMI N046.53.46.000 W002.05.31.000
NORON N045.29.05.000 E000.40.39.000
NOSTA N043.49.10.000 E007.45.19.000
NOVAN N046.19.20.000 W003.41.57.000
NURMO N049.49.34.000 E002.45.19.000
NUSBA N046.06.24.000 E005.42.48.000
NUVNU N047.17.46.000 W000.43.49.000
OBAKI N048.21.57.000 E006.25.50.000
OBAMO N048.27.37.700 E002.29.16.600
OBATO N048.04.01.000 W000.15.00.000
OBEPA N045.32.07.000 E003.37.06.000
OBIGO N045.13.13.000 E006.24.41.000
OBLAD N041.48.36.000 E005.00.48.000
OBOBI N049.21.20.000 E003.04.50.000
OBOBO N041.51.53.000 E008.26.42.000
OBORN N048.27.43.000 E007.12.06.000
OBOTA N043.22.36.000 E006.59.55.000
OBURO N047.39.06.000 E004.15.53.000
OBUTO N043.09.33.000 E000.01.15.000
ODAKA N040.14.07.000 E006.33.43.000
ODEBU N048.16.52.000 E002.37.34.000
ODEGA N043.23.55.000 E005.59.33.000
ODENI N050.32.32.600 E002.23.11.500
ODIKI N045.56.32.000 E006.20.36.000
ODILO N048.14.30.300 E001.34.17.900
OGREN N043.24.15.000 E005.53.28.000
OGRIL N043.17.32.400 E001.14.06.200
OGULO N048.13.06.000 E002.40.09.000
OKABI N042.36.58.000 E001.29.01.000
OKASI N048.05.00.000 E002.46.40.000
OKBON N042.28.02.000 E008.26.19.000
OKEKO N047.32.25.000 E003.07.14.000
OKEPI N047.08.43.000 E003.21.54.000
OKIPA N048.36.40.700 E003.33.48.600
OKIPO N047.54.38.000 E005.52.08.000
OKIRA N047.01.19.000 E003.26.26.000
OKIVA N041.20.00.000 E009.06.23.000
OKRIX N047.57.58.000 E003.34.03.000
OKROK N042.48.29.000 E008.53.29.000
OKSER N042.00.55.000 E006.20.33.000
OKTET N044.29.06.000 E006.34.10.000
OLALU N047.15.21.000 W000.53.35.000
OLEBA N047.09.25.000 W001.50.53.000
OLERO N045.58.11.000 W001.09.01.000
OLINO N046.52.57.000 E001.02.56.000
OLIRI N046.38.06.000 E003.24.43.000
OLMES N049.37.53.000 E001.00.10.000
OLNUL N041.40.04.000 E005.23.06.000
OLOLO N047.03.06.600 W001.40.36.600
OLRAK N044.47.04.000 E002.50.14.000
OMANI N046.27.26.000 E003.46.05.000
OMARI N047.10.00.000 E000.49.29.000
OMASI N045.54.22.000 E005.58.27.000
OMEDA N042.19.44.000 E008.21.43.000
ONZON N045.50.06.000 E004.06.30.000
OPALE N049.53.59.100 E001.53.06.300
ORBIL N043.11.24.000 E002.29.36.000
ORKUM N040.33.50.000 E007.28.58.000
ORTEZ N043.21.56.000 W000.43.00.000
OSBEN N047.05.06.000 W001.39.47.000
OSGOT N043.37.30.000 W001.34.56.900
OSKAM N043.49.54.000 E001.12.48.000
OSKIL N043.00.51.200 E005.12.47.700
OSKIN N047.43.08.000 E003.26.05.000
OSMAS N045.16.46.900 E005.31.06.500
OSMOD N050.30.22.200 E002.41.21.600
OSPOK N040.51.25.000 E004.40.00.000
OSTAD N043.31.14.000 E002.22.14.000
OSTIP N048.29.22.200 E002.36.39.500
OTARO N039.00.00.000 E004.41.06.000
OTKOL N046.08.05.000 E005.24.51.000
OTLOV N047.50.51.500 W000.41.18.000
OTREV N043.21.38.400 E001.30.14.100
OTROT N045.06.49.000 E004.26.44.000
OVDIL N044.05.17.500 E000.53.17.000
OXIDO N043.27.56.000 E005.17.10.000
PABLA N048.47.19.000 E008.21.07.000
PADKO N043.13.54.000 E005.19.59.000
PALME N042.58.28.200 E005.56.08.600
PARLO N044.15.55.700 E002.43.16.100
PEKIM N048.16.33.000 E002.49.32.000
PELIK N048.42.20.000 W004.19.49.000
PELOK N047.20.40.000 E006.35.24.000
PELOS N041.09.43.000 E008.09.41.000
PENAR N045.30.25.000 E005.37.37.000
PENDU N047.20.56.000 E006.01.58.000
PEPAL N048.33.02.000 W000.15.00.000
PEPAX N047.04.53.000 E000.27.09.000
PEPET N045.05.03.000 W003.52.02.000
PEPON N048.21.00.000 W000.15.00.000
PERAK N046.02.47.000 E006.24.35.000
PERDU N042.43.55.000 E000.09.04.000
PERIG N045.07.02.000 E000.58.10.000
PERON N049.54.45.000 E002.50.24.000
PERUS N044.09.12.000 E006.06.12.000
PESAN N046.11.57.000 E003.23.14.000
PETAX N050.11.12.000 E000.50.53.000
PETUR N043.42.31.000 E007.27.09.000
PHALO N048.46.40.000 E007.05.43.000
PIBAL N046.40.55.000 E000.42.50.000
PIBAT N046.48.21.000 E004.15.33.000
PIBON N043.35.55.000 E006.58.59.000
PIGOP N048.41.09.000 E001.20.20.000
PIGOS N043.37.20.000 E007.22.16.000
PIGUL N045.34.28.000 E000.46.18.000
PIKUP N049.03.35.000 W000.12.22.000
PILON N048.00.07.000 E005.41.31.000
PILUL N048.05.00.000 E003.02.53.000
PIMAK N045.23.30.000 E004.00.53.000
PIMIX N050.42.16.900 E002.44.47.400
PIMUP N047.32.25.000 E003.23.15.000
PINAL N041.42.57.000 E009.25.28.600
PINAN N043.34.17.000 E003.44.44.000
PINED N045.00.00.000 E005.31.16.000
PIPOR N043.00.33.000 W001.06.29.000
PIRAM N043.32.16.000 E007.59.28.000
PIREG N049.52.52.000 E001.54.40.000
PIVER N048.47.45.400 E002.16.03.100
PIXIS N046.56.25.000 E003.45.14.000
PODEM N049.15.41.000 E001.33.11.000
PODUK N049.14.46.000 E003.21.02.000
POGOL N048.23.57.000 E006.41.36.000
POKET N045.06.51.000 E000.37.05.000
POLLY N047.53.37.000 E002.45.44.000
POMEG N043.17.39.100 E005.19.42.300
POMTA N047.47.11.000 W003.37.40.000
POPUL N043.56.55.000 W002.50.25.000
PORBU N042.25.52.000 E003.12.03.000
POULP N041.20.00.000 E008.34.12.000
PUMAL N042.22.01.000 E002.00.30.000
RALIX N046.56.25.000 W001.02.20.000
RANES N048.44.15.000 W000.15.00.000
RANUX N049.08.20.000 E004.21.42.000
RAPED N043.22.24.000 E006.53.36.000
RAPES N043.14.48.000 E001.54.47.800
RAPOR N049.35.29.000 E005.12.47.000
RAPUR N042.53.36.000 E008.40.37.000
RARUS N044.07.13.000 E004.45.14.000
RASPA N042.09.28.000 E005.23.47.000
RATAP N042.43.23.000 E009.06.16.000
RATRA N044.46.49.000 E001.28.39.000
RATUK N050.39.25.000 E001.38.11.000
RECIF N042.45.19.000 E008.53.09.000
REFEL N047.34.48.000 E007.00.41.000
REKLA N047.32.08.000 E005.51.03.000
REMGO N049.46.33.000 E005.01.16.000
RENKO N041.08.21.000 E007.49.55.000
RENSA N049.31.59.000 E004.53.08.000
REPSI N045.31.21.000 E004.16.31.000
REQIN N039.00.00.000 E006.15.00.000
RESBO N043.10.38.000 E006.57.34.000
RESMI N048.34.07.000 E002.11.31.000
RESPO N047.49.58.100 E005.36.28.800
RETKO N047.12.30.000 W001.42.00.000
RETNO N044.22.48.000 E005.37.25.000
REVDO N041.20.00.000 E008.41.27.000
REVGO N050.44.42.900 E002.39.47.900
REVLI N046.35.11.000 E006.44.36.000
REVPA N045.48.06.000 E005.36.18.000
REVTU N049.35.50.000 W001.43.32.000
RHONE N043.23.09.700 E004.50.40.400
RIBOU N043.04.47.000 E001.55.44.000
RIGVI N048.07.57.000 E007.30.13.000
RIKLO N046.48.13.100 W001.35.58.800
RIKPO N043.13.41.000 E005.53.28.000
RILAV N046.45.04.000 W001.44.18.100
RILIP N045.02.33.000 E006.18.35.000
RILON N043.55.30.000 W001.00.36.000
RIMON N047.30.26.000 W002.11.09.000
RIMOR N046.01.22.000 E003.28.48.000
RINED N046.38.29.500 W001.42.59.000
RIPAL N039.58.41.000 E004.46.17.000
RISEP N039.36.24.000 E004.59.35.000
RISNO N047.56.11.700 E002.26.55.900
RISOR N045.32.18.000 E005.57.51.000
RISUD N047.46.15.000 W001.41.48.000
RISUN N046.21.56.000 E002.36.12.000
RIVEK N046.20.12.000 E003.04.48.000
RIVRU N043.28.44.200 E007.09.42.700
RIXEL N044.00.14.000 E003.19.45.000
RIXOT N040.23.28.000 E004.40.00.000
ROBAL N050.28.24.000 E003.38.00.000
ROBEX N045.06.54.000 E006.35.38.000
ROBIR N047.31.23.000 E006.02.15.000
ROCAN N042.40.24.000 E001.56.48.000
ROGEK N046.39.15.800 W001.02.20.100
ROKAL N047.57.19.200 W003.21.21.500
ROKIX N046.44.31.500 W001.05.38.600
ROKNO N043.26.14.000 E007.14.59.000
ROKRO N049.52.54.000 E004.17.28.000
ROLEN N048.34.48.000 E000.09.24.000
ROLIR N045.10.28.000 E004.50.37.000
ROLNU N046.35.19.300 W001.08.22.800
ROMAK N044.37.48.000 E002.29.20.000
ROMAM N045.06.10.000 E005.09.48.000
ROMGI N046.10.38.000 E003.06.46.000
ROMGO N048.20.47.700 E000.50.38.800
ROMTA N046.58.13.000 E005.51.26.000
RONAX N048.23.32.000 E000.22.55.000
RONIS N045.46.52.000 E004.42.47.000
RONLA N046.21.09.000 E005.25.19.000
RONOR N050.36.20.800 E002.47.15.700
ROSEX N048.28.15.800 E002.35.39.500
ROSPO N047.57.41.500 W003.45.02.900
ROUBO N049.29.18.600 E001.18.57.200
ROUSY N049.28.35.000 E006.06.54.000
ROVOT N043.20.13.000 E004.55.44.000
ROXIL N047.06.28.000 E001.58.11.100
ROYAN N045.40.00.000 W001.02.12.000
RUBAS N042.22.37.000 E006.34.08.000
RUBEB N043.45.15.000 E005.34.12.000
RUBIT N043.13.20.000 E006.24.44.000
RUBIX N049.04.09.000 W000.15.00.000
RUBLO N045.35.26.000 E005.21.01.000
RUEXX N048.37.10.000 W001.43.26.000
RUMEL N044.30.00.000 E000.55.13.800
RUMIL N045.51.43.000 E005.58.53.000
RUNOM N046.03.45.600 E005.21.13.900
RUSIB N048.58.37.000 W003.48.31.000
RUSIT N045.40.05.000 E004.53.26.000
SABLE N047.51.11.000 W000.15.00.000
SALEV N046.04.26.000 E006.03.57.000
SALIN N043.16.58.000 E004.43.49.000
SALMA N039.00.00.000 E006.43.00.000
SALSI N043.20.52.000 E002.21.26.000
SAMPO N048.13.12.000 W001.16.56.000
SANCE N047.16.00.000 E002.44.30.000
SAUNI N046.37.25.000 E005.28.40.000
SAURG N043.53.00.000 E005.05.43.000
SAUVA N048.58.24.000 W002.22.21.000
SECHE N044.26.19.000 E000.30.55.000
SIGOS N043.41.25.000 W001.25.03.000
SIJAN N043.11.51.000 E002.56.13.000
SIMAR N043.48.38.600 E003.47.39.500
SIROD N046.43.37.000 E006.01.10.000
SIRSA N041.37.02.000 E008.28.58.000
SOBLI N047.29.58.000 E006.22.46.000
SODRI N043.00.47.000 E008.22.19.000
SOFFY N043.01.14.000 E005.10.50.000
SOKDI N043.32.36.000 E006.40.30.000
SOKVI N049.18.38.400 E001.19.02.100
SOLNO N045.37.09.600 E001.06.47.500
SOLSO N044.23.05.900 W000.28.39.200
SOMDA N048.20.16.000 E004.14.40.000
SOMED N047.26.09.000 E000.56.31.000
SOMEN N048.51.00.000 W003.33.00.000
SOMEX N048.12.47.300 E003.20.03.600
SOMIL N049.46.13.000 E002.18.18.000
SOMOS N044.32.55.000 W001.14.21.000
SOMTI N045.27.00.600 E002.55.58.500
SOMTU N049.35.47.000 E004.21.27.000
SONGA N044.11.56.000 E001.00.47.000
SONOD N046.19.54.000 E006.47.49.000
SONUR N049.26.14.000 E004.21.27.000
SOPAD N045.39.12.000 E004.12.20.000
SOPEX N048.36.48.000 W003.33.00.000
SOPIL N047.01.33.000 E001.03.18.000
SOPLO N045.43.44.000 E005.44.45.000
SOPOL N049.51.47.000 E001.41.07.000
SORAL N049.06.50.000 E006.26.16.000
SORAP N048.31.20.000 E000.38.07.000
SORAS N040.33.08.000 E004.40.00.000
SOREM N048.28.16.000 E007.01.08.000
SOSAL N046.33.29.000 E006.53.05.000
SOSTO N043.47.51.000 W001.16.33.000
SOSUN N049.59.06.000 E001.31.04.000
SOSUR N042.33.37.000 E004.59.51.000
SOTAK N043.49.17.300 E000.56.31.700
SOTAX N039.35.04.000 E004.40.00.000
SOTIP N048.07.52.900 E001.27.35.600
SOTUS N049.22.48.000 E004.03.01.000
SOUKA N042.53.23.000 E008.47.31.000
SOVAG N041.08.49.000 E007.12.24.000
SOVAR N042.47.17.000 W000.14.40.000
SOVET N044.08.20.100 E001.46.51.100
SOVOS N043.23.13.000 W000.54.00.000
SUBAK N047.04.09.300 W001.29.27.200
SUBIL N043.01.43.000 E004.36.30.000
SUBOX N048.46.02.100 E001.41.50.100
SUDAD N043.09.50.000 W000.00.40.000
SUDAP N050.26.36.400 E002.50.44.000
SUDAS N042.56.17.000 E008.54.23.000
SUDAV N048.29.15.600 E002.54.08.800
SUDIL N047.08.03.100 W001.37.31.100
SUGET N047.06.09.400 W001.29.45.300
SUIPE N049.15.12.000 E004.15.54.000
SULEX N050.00.00.000 E002.55.32.000
SULIT N043.23.01.300 E001.15.09.200
SULOT N045.36.14.000 E003.48.59.000
SUPUX N040.25.29.000 E008.00.00.000
SURAS N043.38.32.800 E001.03.46.200
SURUD N043.27.15.500 E000.58.45.200
SUSON N050.25.32.600 E002.24.40.600
SUTAL N049.28.00.000 E006.23.30.000
SUXER N040.08.09.000 E005.51.32.000
TABIL N047.57.23.000 W000.56.24.000
TABOT N039.09.00.000 E008.00.00.000
TABOV N048.38.39.000 E001.38.56.000
TADAN N043.34.37.000 E000.33.30.000
TAKAT N044.37.36.200 E002.36.02.100
TALAR N045.57.23.000 E004.36.15.700
TALEP N043.27.44.000 E008.42.44.000
TALOL N043.19.16.000 E000.33.30.000
TALUD N049.36.04.000 E005.25.14.000
TANCA N049.31.17.000 E000.29.05.000
TELIN N048.14.41.000 W004.11.59.000
TEMPU N044.50.49.000 W000.59.44.000
TEPRA N046.29.45.000 W002.25.28.000
TEPRI N048.33.08.000 E002.45.00.000
TEPTI N043.24.34.000 E000.23.56.000
TEREZ N041.20.00.000 E009.02.13.000
TERKU N048.01.48.000 W003.37.00.000
TERPO N047.20.56.000 W001.55.44.000
THUNE N043.15.14.000 W001.33.59.000
TILVI N049.36.30.000 E005.35.03.000
TINIL N047.35.20.000 E005.05.55.000
TINOT N042.41.52.000 E005.18.54.000
TIRAV N046.35.56.000 W001.23.27.000
TIRGI N048.47.31.000 W003.13.50.000
TIRSO N047.48.22.000 E006.40.15.000
TIRUM N047.50.13.000 W004.39.46.000
TITUB N048.47.33.000 W003.34.43.000
TIXIT N043.20.46.000 E006.50.30.000
TOKDO N046.01.30.000 E005.42.40.000
TOLNA N045.40.42.700 E005.48.49.300
TOLVU N049.37.31.000 E005.22.18.000
TOPDA N041.29.12.500 E008.51.42.000
TORPA N047.28.46.000 E006.39.31.000
TORTU N043.23.18.000 E008.57.30.000
TOSMI N044.59.38.000 E006.58.56.000
TRACA N050.51.06.000 E001.58.06.000
TRETS N043.24.47.000 E005.43.51.000
TUDRA N046.32.20.000 E000.46.51.000
TUGLI N045.22.38.000 E001.31.28.000
TUKVI N050.38.58.700 E001.24.13.000
TULNI N050.33.27.000 E003.16.56.000
TUNAX N047.54.45.000 E000.12.06.000
TUNEG N042.56.47.000 E005.45.46.000
TUNOR N047.53.00.000 E004.08.28.000
TUNUR N044.38.25.000 E004.50.24.000
TUPAR N046.25.45.000 W000.39.46.000
TUPOX N043.58.33.000 E005.24.11.000
TURDO N047.26.52.000 W006.58.05.000
TURIL N043.13.36.000 E006.01.26.000
TUROM N046.50.31.000 E005.57.59.000
TUSAK N044.39.03.000 E001.40.34.000
TUTAX N046.55.17.000 E005.14.49.000
UBIMA N046.07.35.000 E006.42.04.000
UGLET N043.34.52.000 E005.52.31.000
UMOGI N048.04.12.500 E002.18.01.900
UNANA N042.51.13.000 E006.10.49.000
URATO N041.56.44.000 E008.09.29.000
UREKU N043.28.37.200 W001.22.25.300
URELO N048.32.19.800 E003.43.55.300
URUNA N043.21.18.000 W001.44.25.000
USANO N043.44.03.000 E007.42.50.000
UTELA N048.54.21.000 E002.57.38.000
UTORU N041.10.50.000 E007.49.53.000
UVRIL N049.43.49.700 E000.34.39.600
UXANA N045.16.35.000 E003.10.45.000
VADEM N046.43.18.000 E006.29.00.000
VADOM N048.33.02.000 E001.16.15.000
VAGNA N045.05.43.300 W000.20.14.200
VAKOS N049.34.10.700 E004.00.10.300
VAKPI N043.22.30.300 E000.05.36.600
VAKSI N047.59.57.000 W001.14.05.000
VALAG N043.40.39.900 E003.25.04.500
VALAX N047.33.46.000 W001.06.38.000
VALEK N049.30.52.000 E005.46.52.000
VALKU N045.59.53.000 E002.49.05.000
VALNU N048.04.54.000 E003.16.00.000
VAMTU N044.08.44.000 E007.37.31.000
VANAD N047.50.14.000 E000.54.26.000
VANAS N045.27.26.000 E006.44.49.000
VANEX N048.33.14.100 E002.58.40.800
VARES N043.30.11.000 E004.19.23.000
VASOL N048.32.43.000 E001.52.55.000
VATIR N042.10.20.000 E004.06.56.000
VATRI N048.47.36.000 E004.03.30.000
VAVIT N042.48.39.000 E008.55.09.000
VAXEL N041.52.41.500 E008.22.34.800
VEBEK N049.16.07.000 E003.40.59.000
VEDIK N043.51.26.000 E005.49.24.000
VEDIL N046.25.45.000 E006.48.42.000
VEDUS N049.35.41.000 E004.46.53.000
VEGOB N045.34.46.000 E001.28.47.000
VEKIN N050.24.15.000 E003.16.30.000
VELET N047.07.05.000 W001.25.45.000
VELIN N044.58.48.000 E000.09.20.000
VELIR N045.24.15.400 E003.10.56.600
VELLO N043.31.09.000 E005.15.43.000
VENAR N046.08.37.000 W000.43.14.000
VENAT N046.14.39.000 E006.35.48.000
VENOR N049.43.00.000 E002.38.54.000
VENTA N043.34.59.000 E005.14.04.100
VERAC N046.17.25.000 E000.06.17.000
VERMA N050.00.00.000 E003.14.36.000
VEROB N045.17.44.000 E007.23.22.000
VEROS N047.20.24.000 E002.12.06.000
VEROT N045.12.59.000 E004.10.38.000
VESAN N050.22.19.000 E002.01.35.000
VEULE N049.51.24.000 E000.37.12.000
VEVAR N044.48.00.000 E007.00.45.000
VEXIP N049.02.31.100 E001.57.31.000
VICCO N042.08.22.000 E008.48.57.000
VIREX N048.52.20.000 W000.54.53.000
VIRIE N045.51.20.000 E005.38.38.900
XAMAL N043.28.43.000 E007.05.40.000
XAPEL N046.38.24.000 E003.58.00.000
XATEL N044.16.13.000 E005.10.43.000
XATOS N039.41.55.000 E008.00.00.000
XERAK N044.57.55.000 E002.00.00.000
XERAM N049.35.48.000 E004.04.02.000
XIDAN N047.02.43.000 W006.13.06.000
XIRBI N044.22.22.000 E005.15.56.000
XORBI N049.55.04.000 E002.27.04.000
XUPAL N045.02.26.000 E002.37.22.000
XURET N043.31.50.200 E001.01.31.000
ZEBRA N043.36.57.200 E004.57.36.300