;STAR/SID fixes
ADN26 N056.57.40.000 W002.43.43.000
D218Y N056.58.12.000 W002.42.23.929
D203T N056.59.51.799 W002.28.32.350
D187T N056.58.43.111 W002.18.34.920
D172T N056.59.02.022 W002.09.03.459
D150S N057.03.03.949 W001.57.15.872
D031E N057.23.18.841 W002.11.27.589
FI34  N057.07.56.899 W002.08.47.850
RW34  N057.11.39.429 W002.11.31.740
D220L N055.43.22.580 W004.37.20.830
CI16  N057.19.12.259 W002.17.06.972
FI16  N057.16.20.049 W002.14.59.190
RW16  N057.12.38.048 W002.12.15.000
FD34  N057.05.07.159 W002.07.00.379
MD34  N057.10.44.929 W002.10.45.231
RW34  N057.11.39.429 W002.11.31.740
CI23  N055.58.43.089 W004.13.41.811
FI23  N055.55.23.102 W004.20.05.938
RW23  N055.52.41.070 W004.25.18.418
CI05  N055.44.47.709 W004.40.16.888
FI05  N055.46.50.660 W004.36.24.552
RW05  N055.51.48.531 W004.26.56.590
D299J N055.56.25.800 W004.43.51.600
D342H N055.60.37.900 W004.32.04.800
D050I N055.58.27.600 W004.15.13.200
D050O N056.03.36.300 W004.08.30.300
D050Y N056.09.23.600 W003.54.25.400
D359J N056.02.11.200 W004.28.18.000
GO010 N055.57.31.800 W004.43.14.800
TRN34 N055.53.49.100 W004.39.23.300
D154S N055.36.39.700 W004.10.23.700
TLA29 N055.49.10.800 W003.59.25.900
D286J N055.54.12.600 W004.44.09.000
D299E N055.54.24.700 W004.35.05.400
D342G N055.59.42.400 W004.31.24.700
D009K N056.03.25.800 W004.25.59.500
D037T N056.09.00.700 W004.07.28.300
D262J N055.50.11.800 W004.44.07.400
D227N N055.42.59.500 W004.44.37.100
D227L N055.43.27.400 W004.41.13.000
D159J N055.43.26.800 W004.19.29.400
D154N N055.40.01.500 W004.15.40.500
D160L N055.19.55.100 W003.13.57.800
D160J N055.21.45.500 W003.14.19.600
D068A N055.57.34.812 W003.20.37.060
D053C N055.59.34.209 W003.17.43.699
GOW35 N056.01.36.951 W003.26.46.780
GOW30 N056.00.18.291 W003.35.22.520
TRN30 N055.43.16.190 W004.16.36.238
SAB46 N056.05.07.749 W003.32.03.181
D049G N056.02.40.851 W003.13.12.291
TL32A N056.00.06.181 W003.00.35.978
TLA30 N055.57.30.171 W003.00.23.889
D027M N055.41.53.818 W003.12.13.611
D263E N055.53.25.782 W003.39.05.490
D263J N055.52.38.031 W003.47.04.920
TLA32 N056.01.23.678 W003.31.04.339
TLA33 N056.02.22.621 W003.31.23.160
TLA38 N056.06.32.720 W003.38.50.791
D122I N055.52.45.782 W003.07.10.498
D027M N055.41.53.818 W003.12.13.611
D242H N055.53.06.399 W003.33.50.709
D346T N055.48.36.162 W003.31.59.829
D346M N055.42.16.768 W003.28.18.321
D151J N055.21.19.700 W003.12.43.300
D160X N055.08.09.000 W003.05.03.800
D251J N055.26.09.100 W003.37.24.800
D254J N055.27.41.000 W003.38.46.200
TLA50 N055.11.35.900 W004.42.52.600
CI24  N056.01.55.621 W003.07.44.241
FI24  N055.58.46.149 W003.17.07.040
RW24  N055.57.17.661 W003.21.28.659
CI06  N055.50.28.960 W003.41.27.042
RW06  N055.56.41.989 W003.23.13.902
D212J N055.09.52.819 W004.54.52.419
D113J N055.15.42.778 W004.30.24.058
D354O N055.33.26.938 W004.51.35.251
D083O N055.21.31.150 W004.22.05.671
CI13  N055.34.32.271 W004.47.13.138
FI13  N055.34.01.250 W004.45.42.732
RW13  N055.30.54.820 W004.36.41.310
CI31  N055.24.56.170 W004.19.29.139
FI31  N055.25.24.380 W004.20.49.880
RW31  N055.30.08.679 W004.34.27.829
D308B N055.31.24.448 W004.38.08.271
D020J N055.28.23.570 W004.42.11.390
D020I N055.27.26.020 W004.42.40.561
D080H N055.20.41.791 W004.33.35.938
D124E N055.28.06.391 W004.28.30.000
D095P N055.18.27.489 W004.18.20.779
D063L N055.24.56.800 W004.28.59.109
D063I N055.23.24.849 W004.33.30.358
D020H N055.26.28.471 W004.43.09.699
CI25  N054.44.42.400 W005.57.03.000
FI25  N054.43.37.200 W006.01.07.400
RW25  N054.39.45.990 W006.11.46.240
FD07  N054.35.51.000 W006.24.40.100
RW07  N054.39.08.121 W006.14.06.871