;Withdrawn 05/2014 Stansted SID Fix
GAMDO N051.34.29.000 E000.23.30.000
;Withdrawn 12/2010
OGDIN N053.50.49.000 E000.34.51.000
;Withdrawn AIRAC 10/2011
ODIMI N051.13.58.000 W000.56.55.000
;Withdrawn AIRAC 12/2011
GURLU N050.28.40.000 E000.58.07.000
;(France 12/2011 - double AIRAC 11/2011)
ANARU N049.31.49.000 E003.45.21.000
BALOD N048.34.15.400 E001.29.51.500
BANGI N049.55.28.000 E001.40.23.000
DIVEM N049.28.51.000 E003.31.38.000
ERALA N048.33.42.000 E003.45.49.000
ETNOS N048.42.28.000 E003.31.48.000
GAKLO N048.27.26.000 E003.38.15.000
INKAK N048.23.59.000 E003.43.43.000
IPLAN N048.23.46.000 E004.01.33.000
KOROM N049.19.01.000 E001.43.49.000
LAURA N048.56.52.100 E003.21.44.300
LORTA N049.24.57.000 E003.13.49.600
MERUE N049.18.25.700 E001.51.30.400
MOKNO N049.26.28.000 E001.37.08.000
MOLEK N048.17.37.500 E003.03.53.600
NAPIX N049.04.33.500 E003.24.15.300
ODRAN N048.16.56.900 E001.36.47.400
OLBAR N048.16.48.000 E003.55.05.000
OMAKO N048.35.40.000 E003.25.06.200
ORTOT N048.00.29.000 E003.30.12.000
OSLEP N048.09.19.000 E003.16.41.000
ROMLO N048.20.40.000 E000.50.30.000
SOKMU N049.20.16.000 E001.25.50.000
SOLBA N049.17.18.000 E003.34.10.400
SONOS N049.37.37.000 E001.26.53.000
VAKER N049.34.57.000 E004.00.02.000
VELER N049.14.58.600 E003.22.07.200
;(France 12/2011 - single AIRAC)
ABSUD N049.56.21.000 E001.47.28.000
GUBAR N050.21.37.000 E001.09.02.000
KOMEL N049.40.57.000 E002.10.25.000