Edinburgh N00.00.00.000 W000.00.00.000 N00.00.00.000 W000.00.00.000
;Holding Points
N55.57.18.346 W03.21.17.463 N55.57.19.460 W03.21.14.232 Yellow; D1
N55.57.16.042 W03.21.15.778 N55.57.14.967 W03.21.14.864 Yellow; D3
N55.57.14.615 W03.21.18.575 N55.57.13.926 W03.21.18.021 Yellow; A20
N55.57.13.507 W03.21.16.452 N55.57.12.850 W03.21.15.905 Yellow; W2
N55.57.14.335 W03.21.14.166 N55.57.13.591 W03.21.13.566 Yellow; W3
N55.57.13.386 W03.21.22.384 N55.57.12.582 W03.21.21.670 Yellow; A19
N55.57.11.621 W03.21.27.782 N55.57.10.777 W03.21.27.112 Yellow; A18
N55.57.09.964 W03.21.32.900 N55.57.08.906 W03.21.32.039 Yellow; A17
N55.57.08.454 W03.21.29.782 N55.57.08.868 W03.21.28.625 Yellow; P1
N55.57.06.677 W03.21.36.247 N55.57.07.395 W03.21.34.102 Yellow; M1
N55.57.07.854 W03.21.39.438 N55.57.06.697 W03.21.38.449 Yellow; A16
N55.57.06.602 W03.21.48.893 N55.57.07.086 W03.21.47.475 Yellow; C1
N55.57.05.711 W03.21.48.319 N55.57.06.336 W03.21.46.541 Yellow; C3
N55.57.04.306 W03.21.49.186 N55.57.03.358 W03.21.48.290 Yellow; A15
N55.57.02.417 W03.21.54.112 N55.57.01.620 W03.21.53.434 Yellow; A14
N55.56.58.984 W03.22.04.289 N55.56.58.045 W03.22.03.482 yellow; A13
N55.56.56.896 W03.22.10.445 N55.56.56.242 W03.22.09.886 Yellow;A12
N55.56.50.613 W03.22.28.992 N55.56.49.968 W03.22.28.460 Yellow; A11
N55.56.49.605 W03.22.32.041 N55.56.48.902 W03.22.31.443 Yellow; A10 
N55.56.45.348 W03.22.42.175 N55.56.46.202 W03.22.42.901 Yellow; A9
N55.56.43.570 W03.22.50.434 N55.56.42.769 W03.22.49.827 Yellow; A8
N55.56.34.250 W03.23.13.029 N55.56.33.608 W03.23.12.493 Yellow; V2 
N55.56.33.509 W03.23.15.562 N55.56.32.840 W03.23.14.988 Yellow; V3
N55.56.35.662 W03.23.14.039 N55.56.34.791 W03.23.13.299 Yellow; A4
N55.56.37.280 W03.23.09.170 N55.56.36.545 W03.23.08.545 Yellow; A5
N55.56.39.438 W03.23.02.687 N55.56.38.729 W03.23.02.084 yellow; A6
N55.56.34.862 W03.23.17.261 N55.56.33.721 W03.23.16.322 Yellow; A3
N55.56.36.164 W03.23.21.728 N55.56.36.658 W03.23.20.268 Yellow; A1
N55.56.46.313 W03.22.47.865 N55.56.46.795 W03.22.46.450 Yellow; B3
N55.56.47.017 W03.22.48.649 N55.56.47.488 W03.22.47.268 Yellow; b1
N55.56.57.557 W03.22.04.193 N55.56.56.612 W03.22.06.941 Yellow; E1
N55.56.54.019 W03.22.03.093 N55.56.54.317 W03.22.01.069 Yellow; E2
N55.56.57.058 W03.22.01.399 N55.56.56.362 W03.22.00.798 yellow; F2
N55.57.01.175 W03.21.50.710 N55.57.01.755 W03.21.48.913 Yellow; F1
N55.57.03.883 W03.21.40.653 N55.57.04.652 W03.21.39.996 Yellow; L1
N55.57.01.784 W03.21.13.300 N55.57.01.434 W03.21.12.385 Yellow; Q1
N55.56.55.838 W03.20.55.781 N55.56.55.343 W03.20.54.159 Yellow; S1
N55.56.46.962 W03.20.44.197 N55.56.46.451 W03.20.43.943 Yellow; U1
N55.56.59.887 W03.21.21.352 N55.57.01.507 W03.21.20.048 Yellow; M3
N55.57.03.599 W03.21.34.657 N55.57.02.899 W03.21.35.268 Yellow; L2
N55.57.03.820 W03.21.30.190 N55.57.04.476 W03.21.29.664 Yellow; M2
N55.56.59.615 W03.21.29.906 N55.56.59.276 W03.21.28.837 Yellow; G1
N55.56.51.691 W03.20.59.749 N55.56.51.309 W03.20.58.540 Yellow; H1
N55.56.47.864 W03.21.05.111 N55.56.47.481 W03.21.03.834 Yellow; H2
N55.56.49.791 W03.21.04.678 N55.56.49.421 W03.21.05.043 Yellow; G2
;Business Aviation Apron
N055.56.39.980 W003.21.03.434 N055.56.41.290 W003.20.59.630 Olive
N055.56.41.290 W003.20.59.630 N055.56.39.940 W003.20.58.100 Olive
N055.56.39.940 W003.20.58.100 N055.56.38.544 W003.21.01.800 Olive
N055.56.38.544 W003.21.01.800 N055.56.39.980 W003.21.03.434 Olive
N055.56.43.096 W003.20.54.584 N055.56.43.351 W003.20.53.118 Olive
N055.56.43.351 W003.20.53.118 N055.56.42.871 W003.20.52.826 Olive
N055.56.42.871 W003.20.52.826 N055.56.42.620 W003.20.54.314 Olive
N055.56.42.620 W003.20.54.314 N055.56.43.096 W003.20.54.576 Olive
N055.56.41.003 W003.21.09.396 N055.56.39.921 W003.21.08.418 Olive
N055.56.39.921 W003.21.08.418 N055.56.40.225 W003.21.07.454 Olive
N055.56.40.225 W003.21.07.454 N055.56.41.332 W003.21.08.462 Olive
N055.56.41.332 W003.21.08.462 N055.56.41.003 W003.21.09.382 Olive

N055.56.47.130 W003.20.39.977 N055.56.44.992 W003.20.53.806 Teal
N055.56.44.992 W003.20.53.806 N055.56.44.305 W003.20.55.586 Teal
N055.56.44.305 W003.20.55.586 N055.56.44.094 W003.20.55.312 Teal
N055.56.44.094 W003.20.55.312 N055.56.44.279 W003.20.53.988 Teal
N055.56.44.279 W003.20.53.988 N055.56.44.279 W003.20.53.874 Teal
N055.56.44.279 W003.20.53.874 N055.56.43.329 W003.20.53.349 Teal

N055.56.43.067 W003.20.54.601 N055.56.42.843 W003.20.55.720 Teal
N055.56.42.843 W003.20.55.720 N055.56.42.882 W003.20.56.130 Teal
N055.56.42.882 W003.20.56.130 N055.56.43.872 W003.20.56.769 Teal
N055.56.43.872 W003.20.56.769 N055.56.43.292 W003.20.58.253 Teal
N055.56.43.292 W003.20.58.253 N055.56.42.553 W003.20.57.499 Teal
N055.56.42.553 W003.20.57.499 N055.56.41.945 W003.20.57.020 Teal
N055.56.41.945 W003.20.57.020 N055.56.41.602 W003.20.56.769 Teal
N055.56.41.602 W003.20.56.769 N055.56.41.219 W003.20.56.746 Teal
N055.56.41.219 W003.20.56.746 N055.56.40.837 W003.20.56.929 Teal
N055.56.40.837 W003.20.56.929 N055.56.40.216 W003.20.58.344 Teal

N055.56.47.514 W003.20.41.131 N055.56.45.117 W003.20.56.507 Teal
N055.56.45.117 W003.20.56.507 N055.56.45.117 W003.20.56.953 Teal
N055.56.45.117 W003.20.56.953 N055.56.45.168 W003.20.57.265 Teal
N055.56.45.168 W003.20.57.265 N055.56.45.245 W003.20.57.933 Teal
N055.56.45.245 W003.20.57.933 N055.56.45.529 W003.20.58.602 Teal
N055.56.45.529 W003.20.58.602 N055.56.45.658 W003.20.58.825 Teal
N055.56.45.658 W003.20.58.825 N055.56.45.684 W003.20.59.360 Teal
N055.56.45.684 W003.20.59.360 N055.56.45.606 W003.20.59.805 Teal
N055.56.45.606 W003.20.59.805 N055.56.42.178 W003.21.09.343 Teal
N055.56.42.178 W003.21.09.343 N055.56.41.920 W003.21.09.521 Teal
N055.56.41.920 W003.21.09.521 N055.56.41.611 W003.21.09.566 Teal
N055.56.41.611 W003.21.09.566 N055.56.41.121 W003.21.09.388 Teal
N055.56.41.121 W003.21.09.388 N055.56.41.069 W003.21.09.388 Teal
N055.56.41.069 W003.21.09.388 N055.56.41.018 W003.21.09.388 Teal

N055.56.39.938 W003.21.08.403 N055.56.40.023 W003.21.06.811 Teal
N055.56.40.023 W003.21.06.811 N055.56.39.828 W003.21.06.315 Teal
N055.56.39.828 W003.21.06.315 N055.56.38.612 W003.21.04.635 Teal
N055.56.38.612 W003.21.04.635 N055.56.38.477 W003.21.04.007 Teal
N055.56.38.477 W003.21.04.007 N055.56.38.443 W003.21.03.423 Teal
N055.56.38.443 W003.21.03.423 N055.56.38.528 W003.21.02.897 Teal
N055.56.38.528 W003.21.02.897 N055.56.38.772 W003.21.02.050 Teal

N055.56.39.999 W003.21.03.419 N055.56.40.060 W003.21.03.571 Teal
N055.56.40.060 W003.21.03.571 N055.56.39.668 W003.21.04.681 Teal
N055.56.39.668 W003.21.04.681 N055.56.40.114 W003.21.05.277 Teal
N055.56.40.114 W003.21.05.277 N055.56.40.621 W003.21.05.125 Teal
N055.56.40.621 W003.21.05.125 N055.56.40.999 W003.21.04.693 Teal
N055.56.40.999 W003.21.04.693 N055.56.42.445 W003.21.00.662 Teal
N055.56.42.445 W003.21.00.662 N055.56.42.486 W003.20.59.891 Teal
N055.56.42.486 W003.20.59.891 N055.56.42.364 W003.20.59.178 Teal
N055.56.42.364 W003.20.59.178 N055.56.42.067 W003.20.58.664 Teal
N055.56.42.067 W003.20.58.664 N055.56.41.587 W003.20.58.535 Teal
N055.56.41.587 W003.20.58.535 N055.56.41.236 W003.20.58.816 Teal
N055.56.41.236 W003.20.58.816 N055.56.40.965 W003.20.59.260 Teal
;Main Rwy 30
N055.56.47.130 W003.20.39.966 N055.56.35.890 W003.20.03.224 Olive
N055.56.35.890 W003.20.03.224 N055.56.37.381 W003.20.01.774 Olive
N055.56.37.381 W003.20.01.774 N055.56.38.490 W003.20.00.946 Teal
N055.56.38.490 W003.20.00.946 N055.56.41.932 W003.20.11.746 Teal
N055.56.41.932 W003.20.11.746 N055.56.41.438 W003.20.14.982 Teal
N055.56.41.438 W003.20.14.982 N055.56.48.659 W003.20.38.465 Olive
;taxiway running old tango to heli apron
N055.56.48.659 W003.20.38.465 N55.56.53.448 W03.20.54.140 Olive
;South Cargo Apron -done
N55.56.53.661 W03.20.54.699 N55.56.54.094 W03.20.54.877 Teal
N55.56.54.094 W03.20.54.877 N55.56.54.657 W03.20.54.952 Teal
N55.56.54.657 W03.20.54.952 N55.56.56.022 W03.20.53.487 Teal
N55.56.56.022 W03.20.53.487 N55.56.56.243 W03.20.53.040 Teal
N55.56.56.243 W03.20.53.040 N55.56.56.453 W03.20.52.595 Teal
N55.56.56.453 W03.20.52.595 N55.56.56.505 W03.20.52.012 Teal
N55.56.56.505 W03.20.52.012 N055.56.55.363 W003.20.48.347 Teal
N055.56.55.363 W003.20.48.347 N055.56.57.203 W003.20.46.532 Teal
N055.56.57.203 W003.20.46.532 N055.56.57.761 W003.20.48.314 Teal
N055.56.57.761 W003.20.48.314 N055.57.00.061 W003.20.46.435 Teal
N055.57.00.061 W003.20.46.435 N055.57.03.276 W003.20.57.250 Teal
N055.57.03.276 W003.20.57.250 N055.57.00.820 W003.20.59.528 Teal
N055.57.00.820 W003.20.59.528 N055.57.00.533 W003.21.00.886 Teal
N055.57.00.533 W003.21.00.886 N055.56.59.510 W003.21.01.768 Teal
N055.56.59.510 W003.21.01.768 N55.56.57.664 W03.20.55.802 Teal
N55.56.57.367 W03.20.55.545 N55.56.57.664 W03.20.55.802 Teal
N55.56.57.061 W03.20.55.402 N55.56.57.367 W03.20.55.545 Teal
N55.56.56.471 W03.20.55.306 N55.56.57.061 W03.20.55.402 Teal
N55.56.55.001 W03.20.56.532 N55.56.56.471 W03.20.55.306 Teal
N55.56.54.865 W03.20.56.945 N55.56.55.001 W03.20.56.532 Teal
N55.56.54.719 W03.20.57.568 N55.56.54.865 W03.20.56.945 Teal
N55.56.54.652 W03.20.57.915 N55.56.54.719 W03.20.57.568 Teal
;North Cargo Apron -done
N055.56.59.417 W003.21.13.424 N055.56.59.942 W003.21.13.637 Teal
N055.56.59.942 W003.21.13.637 N055.57.00.320 W003.21.13.536 Teal
N055.57.00.320 W003.21.13.536 N055.57.02.160 W003.21.11.722 Teal
N055.57.02.160 W003.21.11.722 N055.57.02.336 W003.21.11.304 Teal
N055.57.02.336 W003.21.11.304 N055.57.02.304 W003.21.10.728 Teal
N055.57.02.304 W003.21.10.728 N055.57.02.218 W003.21.10.519 Teal
N055.57.02.218 W003.21.10.519 N055.57.04.846 W003.21.08.345 Teal
N055.57.04.846 W003.21.08.345 N055.57.04.846 W003.21.08.345 Teal
;
N055.57.04.846 W003.21.08.345 N055.57.06.242 W003.21.08.132 Olive
N055.57.06.242 W003.21.08.132 N055.57.07.715 W003.21.12.744 Olive
N055.57.07.715 W003.21.12.744 N055.57.07.279 W003.21.13.054 Olive
N055.57.07.279 W003.21.13.054 N055.57.07.664 W003.21.14.173 Olive
N055.57.07.664 W003.21.14.173 N055.57.07.283 W003.21.14.641 Olive
N055.57.07.283 W003.21.14.641 N055.57.06.930 W003.21.13.540 Olive
N055.57.06.930 W003.21.13.540 N055.57.06.580 W003.21.13.850 Olive
N055.57.06.580 W003.21.13.850 N055.57.04.846 W003.21.08.345 Olive
;
N055.57.08.518 W003.21.16.844 N055.57.07.751 W003.21.14.645 Olive
N055.57.07.751 W003.21.14.645 N055.57.07.315 W003.21.15.005 Olive
N055.57.07.315 W003.21.15.005 N055.57.08.078 W003.21.17.366 Olive
N055.57.08.078 W003.21.17.366 N055.57.08.518 W003.21.16.844 Olive
;
N055.57.06.580 W003.21.13.850 N055.57.10.080 W003.21.24.804 Teal
N055.57.10.080 W003.21.24.804 N055.57.09.936 W003.21.25.798 Teal
;
N055.57.05.994 W003.21.45.230 N055.57.06.023 W003.21.45.976 Teal
N055.57.06.023 W003.21.45.976 N055.57.06.232 W003.21.46.440 Teal
N055.57.06.232 W003.21.46.440 N055.57.08.028 W003.21.48.686 Teal
N055.57.08.028 W003.21.48.686 N055.57.08.809 W003.21.49.298 Teal
N055.57.08.809 W003.21.49.298 N055.57.09.173 W003.21.49.298 Teal
N055.57.09.173 W003.21.49.298 N055.57.09.407 W003.21.49.162 Teal
N055.57.09.407 W003.21.49.162 N055.57.09.640 W003.21.48.748 Teal
;New Island Adj hold A16-M1
N055.57.05.314 W003.21.40.560 N055.57.05.695 W003.21.40.490 Teal
N055.57.05.695 W003.21.40.490 N055.57.06.016 W003.21.40.055 Teal
N055.57.06.016 W003.21.40.055 N055.57.06.358 W003.21.39.510 Teal
N055.57.06.358 W003.21.39.510 N055.57.06.602 W003.21.38.858 Teal
N055.57.06.602 W003.21.38.858 N055.57.06.860 W003.21.37.882 Teal
N055.57.06.860 W003.21.37.882 N055.57.06.844 W003.21.36.660 Teal
N055.57.06.844 W003.21.36.660 N055.57.06.358 W003.21.35.465 Teal
N055.57.06.358 W003.21.35.465 N055.57.05.550 W003.21.34.347 Teal
N055.57.05.550 W003.21.34.347 N055.57.04.385 W003.21.37.782 Teal
N055.57.04.385 W003.21.37.782 N055.57.04.324 W003.21.38.432 Teal
N055.57.04.324 W003.21.38.432 N055.57.04.486 W003.21.39.877 Teal
N055.57.04.486 W003.21.39.877 N055.57.05.314 W003.21.40.560 Teal
;South rwy 24
N55.57.15.251 W03.21.12.262 N55.57.16.151 W03.21.12.381 Teal
N55.57.16.842 W03.21.12.583 N55.57.16.151 W03.21.12.381 Teal
N55.57.18.299 W03.21.13.324 N55.57.16.842 W03.21.12.583 Teal
N55.57.19.531 W03.21.14.330 N55.57.18.299 W03.21.13.324 Teal
N55.57.20.922 W03.21.15.493 N55.57.19.531 W03.21.14.330 Teal; this first one
N055.57.09.640 W003.21.48.748 N055.57.18.403 W003.21.22.889 Olive
N055.57.18.403 W003.21.22.889 N055.57.18.083 W003.21.19.584 Teal
N055.57.18.083 W003.21.19.584 N055.57.18.700 W003.21.18.080 Teal
N055.57.18.700 W003.21.18.080 N055.57.18.060 W003.21.16.990 Teal
N055.57.18.060 W003.21.16.990 N055.57.17.312 W003.21.16.090 Teal
N055.57.17.312 W003.21.16.090 N055.57.16.730 W003.21.15.700 Teal
N055.57.16.730 W003.21.15.700 N055.57.16.207 W003.21.15.670 Teal
N055.57.16.207 W003.21.15.670 N055.57.15.620 W003.21.16.170 Teal
N055.57.15.620 W003.21.16.170 N055.57.15.278 W003.21.16.790 Teal
N055.57.15.278 W003.21.16.790 N055.57.14.976 W003.21.17.480 Teal
N055.57.14.976 W003.21.17.480 N055.57.05.994 W003.21.45.230 Teal
;
N055.57.15.257 W003.21.12.270 N055.57.14.510 W003.21.12.280 Teal
N055.57.14.510 W003.21.12.280 N055.57.14.070 W003.21.12.570 Teal
N055.57.14.070 W003.21.12.570 N055.57.13.766 W003.21.13.110 Teal
N055.57.13.766 W003.21.13.110 N055.57.12.924 W003.21.15.650 Teal
N055.57.12.924 W003.21.15.650 N055.57.12.740 W003.21.16.370 Teal
N055.57.12.740 W003.21.16.370 N055.57.12.722 W003.21.17.120 Teal
N055.57.12.722 W003.21.17.120 N055.57.12.660 W003.21.21.460 Teal
N055.57.12.660 W003.21.21.460 N055.57.10.408 W003.21.28.290 Teal
N055.57.10.408 W003.21.28.290 N055.57.10.020 W003.21.28.800 Teal
N055.57.10.020 W003.21.28.800 N055.57.09.580 W003.21.29.100 Teal
N055.57.09.580 W003.21.29.100 N055.57.09.220 W003.21.29.060 Teal
N055.57.09.220 W003.21.29.060 N055.57.08.975 W003.21.28.880 Teal
N055.57.08.975 W003.21.28.880 N055.57.08.413 W003.21.27.580 Teal
N055.57.08.413 W003.21.27.580 N055.57.09.936 W003.21.25.798 Teal
N55.57.20.922 W03.21.15.493 N055.57.21.298 W003.21.14.548
N055.57.21.298 W003.21.14.548 N055.57.23.018 W003.21.16.373 Teal
N055.57.23.018 W003.21.16.373 N055.57.22.111 W003.21.19.109 Teal
N055.57.22.111 W003.21.19.109 N055.56.39.304 W003.23.25.480 Olive
;09 End
N055.56.39.304 W003.23.25.480 N055.56.38.350 W003.23.28.216 Teal
N055.56.38.350 W003.23.28.216 N055.56.36.578 W003.23.26.246 Teal
N055.56.36.578 W003.23.26.246 N055.56.37.432 W003.23.23.698 Teal
N055.56.37.432 W003.23.23.698 N055.56.36.442 W003.23.22.528 Teal
N055.56.36.442 W003.23.22.528 N055.56.36.640 W003.23.22.290 Teal
N055.56.36.640 W003.23.22.290 N055.56.32.930 W003.23.18.190 Teal
N055.56.32.930 W003.23.18.190 N055.56.32.690 W003.23.17.690 Teal
N055.56.32.690 W003.23.17.690 N055.56.32.590 W003.23.17.220 Teal
N055.56.32.590 W003.23.17.220 N055.56.32.610 W003.23.15.800 Teal
N055.56.32.610 W003.23.15.800 N055.56.33.716 W003.23.12.190 Teal
N055.56.33.716 W003.23.12.190 N055.56.33.960 W003.23.11.690 Teal
N055.56.33.960 W003.23.11.690 N055.56.35.974 W003.23.09.510 Teal
N055.56.35.974 W003.23.09.510 N055.56.36.377 W003.23.09.010 Teal
N055.56.36.377 W003.23.09.010 N055.56.36.720 W003.23.08.210 Teal
N055.56.36.720 W003.23.08.210 N055.56.49.096 W003.22.30.907 Teal
N055.56.49.096 W003.22.30.907 N055.56.47.756 W003.22.29.438 Teal
N055.56.47.756 W003.22.29.438 N055.56.47.425 W003.22.29.712 Teal
N055.56.47.425 W003.22.29.712 N055.56.46.921 W003.22.31.008 Teal
N055.56.46.921 W003.22.31.008 N055.56.46.612 W003.22.30.641 Teal
N055.56.46.612 W003.22.30.641 N055.56.48.631 W003.22.24.866 Teal
;V&A ireland 09 end
N55.56.35.255 W03.23.12.025 N55.56.33.742 W03.23.16.323 Teal
N55.56.35.255 W03.23.12.025 N55.56.34.345 W03.23.12.754 Teal
N55.56.34.345 W03.23.12.754 N55.56.33.523 W03.23.15.327 Teal
N55.56.33.742 W03.23.16.323 N55.56.33.523 W03.23.15.327 Teal
;Islands in front of Fire Station - done
N055.56.48.422 W003.22.26.756 N055.56.47.915 W003.22.28.164 Teal
N055.56.47.915 W003.22.28.164 N055.56.48.070 W003.22.28.668 Teal
N055.56.48.070 W003.22.28.668 N055.56.48.376 W003.22.28.783 Teal
N055.56.48.376 W003.22.28.783 N055.56.48.854 W003.22.27.260 Teal
N055.56.48.854 W003.22.27.260 N055.56.48.700 W003.22.26.893 Teal
N055.56.48.700 W003.22.26.893 N055.56.48.422 W003.22.26.756 Teal
;
N055.56.50.006 W003.22.25.648 N055.56.48.822 W003.22.29.266 Teal
N055.56.48.822 W003.22.29.266 N055.56.48.887 W003.22.29.698 Teal
N055.56.48.887 W003.22.29.698 N055.56.49.042 W003.22.30.040 Teal
N055.56.49.042 W003.22.30.040 N055.56.49.247 W003.22.30.202 Teal
N055.56.49.247 W003.22.30.202 N055.56.49.463 W003.22.30.155 Teal
N055.56.49.463 W003.22.30.155 N055.56.50.269 W003.22.27.563 Teal
N055.56.50.269 W003.22.27.563 N055.56.50.280 W003.22.26.789 Teal
N055.56.50.280 W003.22.26.789 N055.56.50.201 W003.22.26.173 Teal
N055.56.50.201 W003.22.26.173 N055.56.50.006 W003.22.25.648 Teal
;
N055.56.37.630 W003.23.18.866 N055.56.39.523 W003.23.17.581 Teal
N055.56.39.523 W003.23.17.581 N055.56.48.494 W003.22.51.121 Olive
;South side taxiway B & A -done
N055.56.48.494 W003.22.51.121 N055.56.47.814 W003.22.49.534 Teal
N055.56.47.814 W003.22.49.534 N055.56.45.967 W003.22.47.521 Teal
N055.56.45.967 W003.22.47.521 N055.56.45.500 W003.22.47.284 Teal
N055.56.45.500 W003.22.47.284 N055.56.45.031 W003.22.47.280 Teal
N055.56.45.031 W003.22.47.280 N055.56.43.516 W003.22.50.620 Teal 
N055.56.43.516 W003.22.50.620 N055.56.35.490 W003.23.14.600 Teal
N055.56.35.490 W003.23.14.600 N055.56.35.066 W003.23.16.100 Teal
N055.56.35.066 W003.23.16.100 N055.56.34.847 W003.23.17.280 Teal
N055.56.34.847 W003.23.17.280 N055.56.34.825 W003.23.17.680 Teal
N055.56.34.825 W003.23.17.680 N055.56.34.987 W003.23.18.110 Teal
N055.56.34.987 W003.23.18.110 N055.56.35.833 W003.23.19.480 Teal
N055.56.35.833 W003.23.19.480 N055.56.36.740 W003.23.20.410 Teal
N055.56.36.740 W003.23.20.410 N055.56.37.630 W003.23.18.866 Teal
;Fire Station;done
N055.56.48.782 W003.22.25.007 N055.56.48.210 W003.22.24.445 Olive
N055.56.48.210 W003.22.24.445 N055.56.48.934 W003.22.22.220 Olive
N055.56.48.934 W003.22.22.220 N055.56.49.535 W003.22.22.969 Olive
N055.56.49.535 W003.22.22.969 N055.56.48.782 W003.22.25.007 Olive
;West side main apron - done 
;N055.56.56.260 W003.22.05.876 N055.56.55.165 W003.22.04.332 Teal
;N055.56.55.165 W003.22.04.332 N055.56.53.732 W003.22.03.252 Teal
N055.56.53.732 W003.22.03.252 N55.56.52.772 W03.22.03.236 Teal;
N55.56.52.772 W03.22.03.236 N55.56.52.601 W03.22.07.639 Teal
N55.56.52.601 W03.22.07.639 N55.56.45.630 W03.22.07.904 Teal
N55.56.45.630 W03.22.07.904 N55.56.45.683 W03.22.02.326 Teal
N55.56.45.683 W03.22.02.326 N055.56.45.348 W003.22.02.363 Teal;
N055.56.45.348 W003.22.02.363 N055.56.45.316 W003.22.00.268 Teal
N055.56.45.316 W003.22.00.268 N055.56.45.326 W003.21.59.531 Teal
;
N055.56.54.539 W003.22.03.878 N055.56.54.882 W003.22.04.238 Teal;new link to ireland
N055.56.54.539 W003.22.03.878 N055.56.53.732 W003.22.03.252 Teal
;
N55.56.48.934 W03.22.22.217 N55.56.50.093 W03.22.18.427 Teal; new link firestation to grass right 
;
N055.56.45.326 W003.21.59.540 N055.56.45.366 W003.21.56.124 Teal
N055.56.45.366 W003.21.56.124 N055.56.47.249 W003.21.56.088 Teal
N055.56.47.249 W003.21.56.088 N055.56.47.592 W003.21.55.850 Teal
;
N055.56.54.884 W003.22.04.246 N055.56.50.093 W003.22.18.430 Teal
N055.56.50.093 W003.22.18.430 N055.56.50.122 W003.22.19.020 Teal
N055.56.50.122 W003.22.19.020 N055.56.50.248 W003.22.19.434 Teal
N055.56.50.248 W003.22.19.434 N055.56.50.507 W003.22.20.071 Teal
N055.56.50.507 W003.22.20.071 N055.56.50.608 W003.22.20.572 Teal
N055.56.50.608 W003.22.20.572 N055.56.50.586 W003.22.21.076 Teal
N055.56.50.586 W003.22.21.076 N055.56.50.107 W003.22.22.667 Teal
N055.56.50.107 W003.22.22.667 N055.56.50.111 W003.22.23.894 Teal
N055.56.50.111 W003.22.23.894 N055.56.51.158 W003.22.25.043 Teal
N055.56.51.158 W003.22.25.043 N055.56.56.152 W003.22.10.358 Teal
N055.56.56.152 W003.22.10.358 N055.56.56.702 W003.22.08.036 Teal
N055.56.56.702 W003.22.08.036 N055.56.56.702 W003.22.07.262 Teal
N055.56.56.702 W003.22.07.262 N055.56.56.494 W003.22.06.485 Teal
N055.56.56.494 W003.22.06.485 N055.56.55.651 W003.22.05.160 Teal
N055.56.55.651 W003.22.05.160 N055.56.54.884 W003.22.04.246 Teal
;Terminal Building;done
N055.56.47.591 W003.21.55.861 N055.56.53.218 W003.21.56.034 Olive 
N055.56.53.218 W003.21.56.034 N055.56.54.251 W003.21.53.125 Olive 
N055.56.54.251 W003.21.53.125 N055.56.54.787 W003.21.53.629 Olive 
N055.56.54.787 W003.21.53.629 N055.56.57.257 W003.21.46.264 Olive 
N055.56.57.257 W003.21.46.264 N055.56.57.055 W003.21.46.033 Olive 
N055.56.57.055 W003.21.46.033 N055.56.57.181 W003.21.45.490 Olive 
N055.56.57.181 W003.21.45.490 N055.56.56.872 W003.21.45.212 Olive 
N055.56.56.872 W003.21.45.212 N055.56.56.947 W003.21.44.942 Olive 
N055.56.56.947 W003.21.44.942 N055.56.56.540 W003.21.44.618 Olive 
N055.56.56.540 W003.21.44.618 N055.56.53.300 W003.21.33.894 Olive 
N055.56.53.300 W003.21.33.894 N055.56.53.477 W003.21.33.757 Olive 
N055.56.53.477 W003.21.33.757 N055.56.51.652 W003.21.27.734 Olive 
N055.56.51.652 W003.21.27.734 N055.56.51.094 W003.21.28.321 Olive 
N055.56.51.094 W003.21.28.321 N055.56.52.944 W003.21.34.211 Olive 
N055.56.52.944 W003.21.34.211 N055.56.53.095 W003.21.34.074 Olive 
N055.56.53.095 W003.21.34.074 N055.56.56.184 W003.21.44.208 Olive 
N055.56.56.184 W003.21.44.208 N055.56.56.184 W003.21.44.388 Olive 
N055.56.56.184 W003.21.44.388 N055.56.55.878 W003.21.44.114 Olive 
N055.56.55.878 W003.21.44.114 N055.56.55.777 W003.21.44.525 Olive 
N055.56.55.777 W003.21.44.525 N055.56.55.547 W003.21.44.341 Olive 
N055.56.55.547 W003.21.44.341 N055.56.51.965 W003.21.54.659 Olive 
N055.56.51.965 W003.21.54.659 N055.56.47.843 W003.21.54.634 Olive 
N055.56.47.843 W003.21.54.634 N055.56.47.818 W003.21.55.044 Olive 
N055.56.47.818 W003.21.55.044 N055.56.47.591 W003.21.55.087 Olive 
N055.56.47.591 W003.21.55.087 N055.56.47.591 W003.21.55.861 Olive
;South side main apron -doing
N055.57.00.216 W003.21.46.350 N055.57.00.572 W003.21.47.502 Teal
N055.57.00.572 W003.21.47.502 N055.57.01.012 W003.21.48.395 Teal
N055.57.01.012 W003.21.48.395 N055.57.02.095 W003.21.49.190 Teal
N055.57.02.095 W003.21.49.190 N055.57.02.563 W003.21.49.194 Teal
N055.57.02.563 W003.21.49.194 N055.57.03.060 W003.21.48.830 Teal
N055.57.03.060 W003.21.48.830 N055.57.03.496 W003.21.48.103 Teal
N055.57.03.496 W003.21.48.103 N055.57.04.370 W003.21.46.070 Teal
N055.57.04.370 W003.21.46.070 N055.57.04.514 W003.21.45.392 Teal
N055.57.04.514 W003.21.45.392 N055.57.04.453 W003.21.44.032 Teal
N055.57.04.453 W003.21.44.032 N055.57.04.068 W003.21.41.936 Teal
N055.57.04.068 W003.21.41.936 N055.57.03.478 W003.21.37.804 Teal
N055.57.03.478 W003.21.37.804 N055.57.00.713 W003.21.28.998 Teal
;
N055.56.59.408 W003.21.13.412 N055.56.54.628 W003.20.57.790 Teal
;Island South-East apron + G
N055.57.00.879 W003.21.24.375 N055.57.00.240 W003.21.27.299 Teal
N055.57.00.240 W003.21.27.299 N055.57.00.425 W003.21.27.940 Teal
N055.57.00.425 W003.21.27.940 N055.56.58.322 W003.21.29.866 Teal
N055.56.58.322 W003.21.29.866 N055.56.57.992 W003.21.29.901 Teal
N055.56.57.992 W003.21.29.901 N055.56.57.786 W003.21.29.901 Teal
N055.56.57.786 W003.21.29.901 N055.56.57.579 W003.21.29.759 Teal
N055.56.57.579 W003.21.29.759 N055.56.49.186 W003.21.02.697 Teal
N055.56.49.186 W003.21.02.697 N055.56.49.206 W003.21.02.412 Teal
N055.56.49.206 W003.21.02.412 N055.56.49.371 W003.21.02.162 Teal
N055.56.49.371 W003.21.02.162 N055.56.49.578 W003.21.01.912 Teal
N055.56.49.578 W003.21.01.912 N055.56.52.918 W003.20.58.561 Teal
N055.56.52.539 W003.20.57.158 N055.56.48.576 W003.21.01.280 Teal
N055.56.48.576 W003.21.01.280 N055.56.48.447 W003.21.02.785 Teal
N055.56.48.447 W003.21.02.785 N055.56.44.302 W003.21.06.826 Teal
N055.56.44.302 W003.21.06.826 N055.56.45.766 W003.21.11.818 Teal
N055.56.45.766 W003.21.11.818 N055.56.46.880 W003.21.11.711 Teal
N055.56.46.880 W003.21.11.711 N055.56.47.581 W003.21.10.998 Teal
N055.56.47.581 W003.21.10.998 N055.56.51.025 W003.21.21.979 Teal
N055.56.51.025 W003.21.21.979 N055.56.50.942 W003.21.23.905 Teal
N055.56.50.942 W003.21.23.905 N055.56.54.789 W003.21.36.406 Teal
N055.56.54.789 W003.21.36.406 N055.56.56.155 W003.21.36.451 Teal
N055.56.56.155 W003.21.36.451 N055.56.58.759 W003.21.33.866 Teal
N055.56.58.759 W003.21.33.866 N055.56.58.398 W003.21.32.529 Teal
N055.56.58.398 W003.21.32.529 N055.56.58.320 W003.21.31.637 Teal
N055.56.58.320 W003.21.31.637 N055.56.58.449 W003.21.30.969 Teal
N055.56.58.449 W003.21.30.969 N055.57.00.744 W003.21.28.919 Teal
N055.56.54.811 W003.21.36.426 N055.56.57.583 W003.21.45.325 Teal
N055.56.57.583 W003.21.45.325 N055.56.57.253 W003.21.46.266 Teal
N055.56.57.253 W003.21.46.266 N055.56.58.771 W003.21.41.817 Teal
N055.56.58.771 W003.21.41.817 N055.56.58.985 W003.21.41.645 Teal
N055.56.58.985 W003.21.41.645 N055.57.00.751 W003.21.43.186 Teal
N055.57.00.751 W003.21.43.186 N055.57.00.965 W003.21.43.671 Teal
N055.57.00.965 W003.21.43.671 N055.57.00.899 W003.21.44.213 Teal
N055.57.00.899 W003.21.44.213 N055.57.00.206 W003.21.46.352 Teal
;New Olive runway border sout east from runway 31
N055.57.00.935 W003.21.24.390 N055.56.52.960 W003.20.58.694 Olive
N055.56.52.547 W003.20.57.135 N055.56.47.512 W003.20.41.119 Olive
;Island adjacent to 21 and north cargo (new version) - done 
N055.57.06.080 W003.21.22.870 N055.57.03.082 W003.21.13.435 Teal
N055.57.03.082 W003.21.13.435 N055.57.02.729 W003.21.13.014 Teal
N055.57.02.729 W003.21.13.014 N055.57.02.408 W003.21.12.910 Teal
N055.57.02.408 W003.21.12.910 N055.57.02.113 W003.21.13.010 Teal
N055.57.02.113 W003.21.13.010 N055.57.00.364 W003.21.14.774 Teal
N055.57.00.364 W003.21.14.774 N055.57.00.158 W003.21.15.188 Teal
N055.57.00.158 W003.21.15.188 N055.57.00.130 W003.21.15.556 Teal
N055.57.00.130 W003.21.15.556 N055.57.04.428 W003.21.29.603 Olive
N055.57.04.428 W003.21.29.603 N055.57.06.358 W003.21.33.400 Teal
N055.57.06.358 W003.21.33.400 N055.57.07.344 W003.21.34.160 Teal;;^^
N055.57.07.344 W003.21.34.160 N055.57.07.888 W003.21.34.012 Teal
N055.57.07.888 W003.21.34.012 N055.57.08.290 W003.21.33.500 Teal
N055.57.08.290 W003.21.33.500 N055.57.08.816 W003.21.32.565 Teal
N055.57.08.816 W003.21.32.565 N055.57.08.996 W003.21.31.550 Teal
N055.57.08.996 W003.21.31.550 N055.57.08.975 W003.21.31.010 Teal
N055.57.08.975 W003.21.31.010 N055.57.08.834 W003.21.30.430 Teal
N055.57.08.834 W003.21.30.430 N055.57.08.453 W003.21.29.780 Teal
N055.57.08.453 W003.21.29.780 N055.57.08.050 W003.21.28.850 Teal
N055.57.08.050 W003.21.28.850 N055.57.07.024 W003.21.25.600 Teal
N055.57.07.024 W003.21.25.600 N055.57.06.080 W003.21.22.870
;Island between holds e1 & F1 done
N055.56.56.652 W003.22.02.683 N055.56.56.594 W003.22.03.310 Teal
N055.56.56.594 W003.22.03.310 N055.56.56.742 W003.22.03.940 Teal
N055.56.56.742 W003.22.03.940 N055.56.57.152 W003.22.04.256 Teal
N055.56.57.152 W003.22.04.256 N055.56.57.620 W003.22.04.210 Teal
N055.56.57.620 W003.22.04.210 N055.56.58.553 W003.22.02.701 Teal
N055.56.58.553 W003.22.02.701 N055.57.01.663 W003.21.53.366 Teal
N055.57.01.663 W003.21.53.366 N055.57.01.778 W003.21.52.531 Teal
N055.57.01.778 W003.21.52.531 N055.57.01.602 W003.21.51.224 Teal
N055.57.01.602 W003.21.51.224 N055.57.01.368 W003.21.50.753 Teal
N055.57.01.368 W003.21.50.753 N055.57.00.958 W003.21.50.695 Teal
N055.57.00.958 W003.21.50.695 N055.57.00.518 W003.21.51.109 Teal
N055.57.00.518 W003.21.51.109 N055.57.00.256 W003.21.51.682 Teal
N055.57.00.256 W003.21.51.682 N055.56.56.652 W003.22.02.683 Teal
;Island between taxiway A & main rwy done
N055.56.49.265 W003.22.48.630 N055.56.48.152 W003.22.47.993 Teal
N055.56.48.152 W003.22.47.993 N055.56.47.216 W003.22.47.042 Teal
N055.56.47.216 W003.22.47.042 N055.56.46.453 W003.22.46.045 Teal
N055.56.46.453 W003.22.46.045 N055.56.46.190 W003.22.45.570 Teal
N055.56.46.190 W003.22.45.570 N055.56.45.953 W003.22.44.890 Teal
N055.56.45.953 W003.22.44.890 N055.56.45.953 W003.22.44.105 Teal
N055.56.45.953 W003.22.44.105 N055.56.46.561 W003.22.41.236 Teal
N055.56.46.561 W003.22.41.236 N055.56.51.562 W003.22.26.170 Teal
N055.56.51.562 W003.22.26.170 N055.56.58.193 W003.22.06.668 Teal
N055.56.58.193 W003.22.06.668 N055.57.03.254 W003.21.51.656 Teal
N055.57.03.254 W003.21.51.656 N055.57.04.244 W003.21.49.313 Teal
N055.57.04.244 W003.21.49.313 N055.57.04.709 W003.21.48.427 Teal
N055.57.04.709 W003.21.48.427 N055.57.05.000 W003.21.48.218 Teal
N055.57.05.000 W003.21.48.218 N055.57.05.616 W003.21.48.276 Teal
N055.57.05.616 W003.21.48.276 N055.57.06.670 W003.21.48.964 Teal
N055.57.06.670 W003.21.48.964 N055.57.07.607 W003.21.50.018 Teal
N055.57.07.607 W003.21.50.018 N055.57.08.194 W003.21.50.911 Teal
N055.57.08.194 W003.21.50.911 N055.57.08.604 W003.21.51.804 Teal
N055.57.08.604 W003.21.51.804 N055.56.49.265 W003.22.48.630 Olive
;island between w and d done
N055.57.15.253 W003.21.14.029 N055.57.14.386 W003.21.14.067 Teal
N055.57.14.386 W003.21.14.067 N055.57.13.453 W003.21.16.614 Teal
N055.57.13.453 W003.21.16.614 N055.57.13.388 W003.21.19.667 Teal
N055.57.13.388 W003.21.19.667 N055.57.15.253 W003.21.14.029 Teal