N057.39.33.350 W003.32.06.410 N055.25.59.999 W005.43.00.001
N055.25.59.999 W005.43.00.001 N053.15.26.719 W004.32.38.900
N053.15.26.719 W004.32.38.900 N052.00.00.000 W003.55.00.001
N052.00.00.000 W003.55.00.001 N051.00.18.050 W002.38.19.511
