SECTORLINE:Antrim
DISPLAY:PXW:PXW:AAR
DISPLAY:AAR:PXW:AAR
DISPLAY:PXW:PXW:Antrim
DISPLAY:Antrim:PXW:Antrim
COORD:N054.55.19.336:W005.17.09.687
COORD:N054.57.14.057:W005.15.38.920;NORTH P600
COORD:N054.54.17.255:W005.30.0.967
COORD:N054.50.31.076:W006.24.55.612
COORD:N054.49.19.029:W006.27.31.566
COORD:N054.47.37.716:W006.30.19.854
COORD:N054.45.56.402:W006.32.23.495
COORD:N054.43.51.251:W006.34.6.528
COORD:N054.41.28.221:W006.35.11.783
COORD:N054.39.11.150:W006.35.22.086
COORD:N054.37.10.139:W006.35.3.609
COORD:N054.34.49.162:W006.34.3.430
COORD:N054.32.55.930:W006.32.27.265
COORD:N054.30.50.778:W006.29.49.280
COORD:N054.29.27.344:W006.27.18.164
COORD:N054.28.19.802:W006.24.36.745
COORD:N054.27.53.977:W006.23.10.884
COORD:N054.05.18.332:W006.24.45.961

SECTORLINE:Antrim (165-255)
COORD:N053.55.38.851:W004.54.12.934
COORD:N054.02.13.555:W004.37.55.875
COORD:N054.10.54.512:W004.17.42.306
COORD:N054.02.52.345:W003.58.4.601
COORD:N053.54.19.343:W004.07.41.337
COORD:N053.54.22.146:W004.21.59.172
COORD:N053.46.11.570:W004.30.57.136
COORD:N053.53.31.687:W004.45.44.049
COORD:N053.55.37.145:W004.54.9.756
COORD:N053.55.38.851:W004.54.12.934

SECTORLINE:Antrim|PC West (165-255)
DISPLAY:Antrim:Antrim:PC West
COORD:N054.10.54.477:W004.17.47.704
COORD:N054.02.52.120:W003.58.7.216
COORD:N053.54.20.438:W004.07.38.771
COORD:N053.54.18.968:W004.21.51.268
COORD:N053.46.11.400:W004.31.4.368
COORD:N053.53.25.258:W004.45.26.431
COORD:N053.55.36.947:W004.54.10.825

SECTORLINE:Antrim|PC West
DISPLAY:Antrim:Antrim:PC West
COORD:N054.30.33.845:W003.35.40.910;east
COORD:N054.10.57.603:W004.17.43.559
COORD:N053.45.27.437:W005.18.25.441
COORD:N053.45.20.360:W005.30.1.985

SECTORLINE:Antrim|ScTC W
DISPLAY:Antrim:Antrim:SCW
COORD:N054.50.47.969:W005.01.36.467;p600
COORD:N054.50.54.316:W005.01.33.059
COORD:N055.02.51.740:W004.51.5.623
COORD:N055.08.6.075:W004.29.48.739
COORD:N055.06.1.960:W004.14.13.022
COORD:N054.32.41.259:W003.30.4.203
COORD:N054.30.33.845:W003.35.40.910;south

SECTORLINE:Antrim - PC West (245-285)
DISPLAY:Antrim:Antrim:DWN
COORD:N053.45.23.993:W005.18.44.706
COORD:N053.45.46.283:W005.30.8.722

SECTORLINE:Antrim - Shannon (BOYN
DISPLAY:PXW:PXW:EISN
DISPLAY:PXW:PXW:EIDW_N
DISPLAY:Antrim:Antrim:EISN
DISPLAY:Antrim:Antrim:EIDW_N
DISPLAY:PXW:PXW:EUW
COORD:N053.45.20.360:W005.30.1.985
COORD:N053.54.54.664:W005.30.00.243
COORD:N053.56.17.285:W005.36.19.941

SECTORLINE:PC West (DB-255)
COORD:N054.30.33.864:W003.35.41.032;clockwise from NE corner
COORD:N053.41.29.720:W003.27.29.038
COORD:N053.41.53.840:W003.37.34.367
COORD:N053.54.21.017:W004.07.37.799
COORD:N054.02.52.131:W003.58.7.361
COORD:N054.10.54.116:W004.17.48.578
COORD:N054.30.33.864:W003.35.41.032

SECTORLINE:PC West (DB-255) 2 
COORD:N053.55.37.011:W004.54.10.025
COORD:N053.53.25.007:W004.45.26.032
COORD:N053.46.11.037:W004.31.4.574
COORD:N053.47.54.024:W005.12.39.026
COORD:N053.55.36.873:W004.54.10.689
COORD:N053.55.37.011:W004.54.10.025

SECTORLINE:PC West (255-285)
COORD:N053.48.16.710:W005.29.59.917
COORD:N053.47.53.909:W005.12.38.204
COORD:N053.45.23.098:W005.18.37.603
COORD:N053.45.45.169:W005.30.0.425
COORD:N053.48.15.361:W005.30.0.945

SECTORLINE:PC West (Dublin) (245-285)
COORD:N053.45.44.978:W005.29.59.862
COORD:N053.44.30.537:W004.49.55.616
COORD:N053.22.30.745:W004.51.28.965
COORD:N053.23.1.405:W005.10.9.667
COORD:N053.14.55.234:W005.29.58.520
COORD:N053.45.43.835:W005.29.59.900
COORD:N053.45.44.978:W005.29.59.862

SECTORLINE:PC West (DB-285)
COORD:N054.14.29.249:W003.04.47.146
COORD:N054.14.29.249:W003.33.2.736
COORD:N053.41.33.770:W003.27.30.565
COORD:N053.41.54.233:W003.37.32.828
COORD:N053.54.21.291:W004.07.39.356
COORD:N053.54.17.625:W004.21.50.500
COORD:N053.46.12.089:W004.31.2.219
COORD:N053.47.54.119:W005.12.37.510
COORD:N053.45.24.807:W005.18.32.659
COORD:N053.44.29.647:W004.49.52.817
COORD:N053.22.24.370:W004.51.31.210
COORD:N053.19.45.663:W003.39.32.729
COORD:N053.08.16.269:W003.17.43.836
COORD:N052.54.23.335:W003.18.37.798
COORD:N052.53.33.504:W002.50.14.987
COORD:N052.50.57.475:W002.45.29.178
COORD:N053.00.0.630:W002.45.0.180
COORD:N053.21.27.540:W002.15.40.413
COORD:N053.39.23.851:W002.41.24.573
COORD:N053.39.20.136:W002.39.0.063
COORD:N054.14.29.024:W003.04.46.010
COORD:N054.14.29.249:W003.04.47.146

SECTORLINE:PC West (195-285)
COORD:N054.14.29.000:W003.04.45.986
COORD:N054.15.28.628:W002.08.50.828
COORD:N053.48.58.343:W001.52.53.850
COORD:N053.36.0.385:W001.38.3.032
COORD:N053.28.4.364:W001.38.58.468
COORD:N053.10.17.128:W001.20.43.413
COORD:N052.41.49.212:W002.37.51.074
COORD:N052.51.2.415:W002.45.31.555
COORD:N052.59.59.297:W002.45.3.959
COORD:N053.21.25.064:W002.15.43.549
COORD:N053.39.24.330:W002.41.25.629
COORD:N053.39.17.785:W002.38.59.621
COORD:N054.14.28.998:W003.04.46.004
COORD:N054.14.29.000:W003.04.45.986

SECTORLINE:PC West (GASKO) (255-285) 
COORD:N054.15.28.992:W002.08.50.030
COORD:N054.34.4.535:W002.03.2.003
COORD:N054.31.33.003:W001.39.12.421
COORD:N054.11.43.544:W001.45.29.911
COORD:N054.01.46.989:W001.35.14.984
COORD:N053.36.0.674:W001.38.2.965
COORD:N053.48.59.678:W001.52.53.209
COORD:N054.15.28.906:W002.08.49.940
COORD:N054.15.28.992:W002.08.50.030

SECTORLINE:ScACC West - PC West
DISPLAY:PXW:PXW:PC West
DISPLAY:PXW:PXW:TTN
COORD:N054.14.30.440:W003.33.0.029
COORD:N053.41.30.964:W003.27.30.380
COORD:N053.41.53.789:W003.37.38.738
COORD:N053.54.21.102:W004.07.37.429
COORD:N053.54.18.859:W004.21.50.001
COORD:N053.46.10.355:W004.31.6.086
COORD:N053.48.19.653:W005.30.11.229

SECTORLINE:ScTC West - PC West
DISPLAY:SCW:SCW:PC West
COORD:N054.14.29.791:W003.33.0.917
COORD:N054.14.29.025:W003.04.46.117

SECTORLINE:PC East (DB-195)
COORD:N054.14.29.000:W003.04.45.986
COORD:N054.15.28.628:W002.08.50.828
COORD:N053.48.58.343:W001.52.53.850
COORD:N053.36.0.385:W001.38.3.032
COORD:N053.28.4.364:W001.38.58.468
COORD:N053.10.17.128:W001.20.43.413
COORD:N052.41.49.212:W002.37.51.074
COORD:N052.51.2.415:W002.45.31.555
COORD:N052.59.59.297:W002.45.3.959
COORD:N053.21.25.064:W002.15.43.549
COORD:N053.39.24.330:W002.41.25.629
COORD:N053.39.17.785:W002.38.59.621
COORD:N054.14.28.998:W003.04.46.004

SECTORLINE:PC East (GASKO) (DB-255) 
COORD:N054.15.28.992:W002.08.50.030
COORD:N054.34.4.535:W002.03.2.003
COORD:N054.31.33.003:W001.39.12.421
COORD:N054.11.43.544:W001.45.29.911
COORD:N054.01.46.989:W001.35.14.984
COORD:N053.36.0.674:W001.38.2.965
COORD:N053.48.59.678:W001.52.53.209
COORD:N054.15.28.906:W002.08.49.940
COORD:N054.15.28.992:W002.08.50.030

SECTORLINE:PC East (GIRLI) (165-225)
COORD:N054.34.4.756:W002.03.1.434
COORD:N054.56.40.540:W001.55.51.069
COORD:N054.47.3.143:W001.34.15.197
COORD:N054.31.33.231:W001.39.11.836
COORD:N054.34.4.756:W002.03.1.434

SECTORLINE:PC East (UMBEL) (245-275)
COORD:N054.01.47.382:W000.39.30.305
COORD:N054.26.15.051:W001.08.33.996
COORD:N054.33.2.152:W000.55.46.429
COORD:N054.01.45.532:W000.18.52.612
COORD:N054.01.47.382:W000.39.30.305

SECTORLINE:PC East (DB-285)
COORD:N054.01.46.999:W001.35.15.033
COORD:N053.28.5.650:W001.38.55.290
COORD:N053.10.17.010:W001.20.43.012
COORD:N053.06.25.310:W000.46.11.249
COORD:N053.04.26.213:W000.44.22.002
COORD:N052.53.25.198:E000.46.16.337
COORD:N053.28.57.073:E000.57.7.541
COORD:N053.32.32.539:E000.50.41.349
COORD:N053.35.37.390:E000.27.51.665
COORD:N054.01.48.521:E000.05.52.703
COORD:N054.01.46.999:W001.35.15.033

SECTORLINE:ScTC West - PC East
DISPLAY:SCW:SCW:PC East
COORD:N054.14.29.025:W003.04.46.117
COORD:N054.15.2.695:W002.33.30.362

SECTORLINE:ScTC East - PC East
DISPLAY:SCE:SCE:PC East
COORD:N054.15.2.695:W002.33.30.362
COORD:N054.15.28.222:W002.09.56.146

SECTORLINE:ScAC East - PC East (P18)
DISPLAY:PXE:PXE:PC East
COORD:N054.15.28.222:W002.09.56.146
COORD:N054.15.29.932:W002.08.50.021
COORD:N054.56.40.907:W001.55.49.819
COORD:N054.47.5.086:W001.34.18.857
COORD:N054.11.44.384:W001.45.29.284
COORD:N054.01.48.074:W001.35.16.213
COORD:N054.01.45.289:E000.06.0.963

SECTORLINE:ScAC East - PC East (UMBEL)
DISPLAY:PXE:PXE:PC East
COORD:N054.01.46.247:W000.39.26.825
COORD:N054.26.15.295:W001.08.34.211
COORD:N054.33.1.809:W000.55.46.092
COORD:N054.01.45.148:W000.18.52.136

SECTORLINE:PC East - PC West (TILNI)
DISPLAY:PXE:PXE:PC East
DISPLAY:PXE:PXE:PC West
COORD:N054.34.4.037:W002.03.2.148
COORD:N054.31.32.935:W001.39.12.683

SECTORLINE:SCO_SPLIT
DISPLAY:SCW:SCW:SCE
DISPLAY:SCE:SCE:SCW
COORD:N055.53.35.000:W002.49.31.000
COORD:N055.48.48.625:W004.01.29.813
COORD:N055.42.32.742:W004.09.19.312
COORD:N054.51.11.205:W003.20.05.011
COORD:N054.14.47.989:W002.33.12.243

SECTORLINE:SCW_PXE
DISPLAY:SCW:PXE:SCW
DISPLAY:PXE:SCW:PXE
COORD:N056.00.08.000:W002.48.49.000
COORD:N055.53.35.000:W002.49.31.000;east

SECTORLINE:SCW_PXW_CON
DISPLAY:SCW:SCW:PXW
DISPLAY:PXW:SCW:PXW
COORD:N054.55.19.336:W005.17.09.687
COORD:N055.12.24.892:W005.02.17.775
COORD:N055.15.12.990:W004.59.52.021
COORD:N055.49.54.895:W005.00.00.609
COORD:N055.43.34.113:W004.59.58.684

SECTORLINE:SCW_P600
DISPLAY:SCW:SCW:AAR
DISPLAY:AAR:SCW:AAR
DISPLAY:Antrim:Antrim:SCW
DISPLAY:SCW:Antrim:SCW
COORD:N054.50.47.969:W005.01.36.467
COORD:N054.55.19.336:W005.17.09.687

SECTORLINE:SCW_PXW
DISPLAY:SCW:SCW:Antrim
DISPLAY:Antrim:SCW:Antrim
COORD:N054.32.42.000:W003.30.01.000;south
COORD:N055.06.04.495:W004.14.20.650
COORD:N055.08.04.215:W004.30.14.365
COORD:N055.02.51.398:W004.51.15.326
COORD:N054.50.47.969:W005.01.36.467

SECTORLINE:SCW_MW1
COORD:N054.32.42.000:W003.30.01.000;north
COORD:N054.30.11.000:W003.35.35.000
COORD:N054.15.00.000:W003.33.05.000

SECTORLINE:SCW_MW2
COORD:N054.15.00.000:W003.33.05.000
COORD:N054.14.27.602:W003.04.15.647;west of lakey

;Galloway/MAN_E
SECTORLINE:SCW_ME
DISPLAY:SCW:SCW:ME
COORD:N054.14.27.602:W003.04.15.647;west of lakey
COORD:N054.14.47.989:W002.33.12.243; tma boundary

;Talla/PXE
SECTORLINE:SCE_PXE
DISPLAY:SCE:SCE:PXE
DISPLAY:PXE:SCE:PXE
COORD:N055.53.35.000:W002.49.31.000
COORD:N055.38.05.000:W002.51.11.000
COORD:N055.26.06.000:W002.36.55.000
COORD:N055.21.09.000:W002.21.39.000
COORD:N055.12.28.000:W002.30.22.000
COORD:N054.15.33.975:W002.09.57.495;south

;Tall/MAN_E
SECTORLINE:SCE_ME
DISPLAY:SCE:SCE:ME
DISPLAY:PXW:PXW:ME
COORD:N054.14.47.989:W002.33.12.243; tma boundary
COORD:N054.15.33.975:W002.09.57.495; west of gasko

SECTORLINE:TC West - ScACC West
DISPLAY:SCW:SCW:PXW
DISPLAY:PXW:PXW:SCW
DISPLAY:PXW:PXW:LN
DISPLAY:PXW:PXW:PC West
COORD:N054.30.33.845:W003.35.40.910
COORD:N054.14.29.791:W003.33.0.917

SECTORLINE:EGGX_PXW
DISPLAY:PXW:PXW:GXO
COORD:N060.30.01.943:W010.00.03.814
COORD:N056.59.59.685:W010.00.04.151

SECTORLINE:BIRD_PXW
DISPLAY:PXW:PXW:BIRD
DISPLAY:PXW:PXW:EUN
COORD:N061.00.00.000:W005.30.00.000;east
COORD:N061.00.11.598:W007.01.21.812
COORD:N060.30.01.943:W010.00.03.814


SECTORLINE:BIRD_PXE
DISPLAY:PXE:PXE:BIRD
DISPLAY:PXE:PXE:EUN
COORD:N061.00.23.343:W000.00.34.948
COORD:N061.00.00.000:W005.30.00.000;west

SECTORLINE:EISN_PXW_N34
DISPLAY:PXW:PXW:EISN
DISPLAY:PXW:PXW:EUW
COORD:N056.59.59.685:W010.00.04.151
COORD:N054.34.08.405:W009.59.48.426
COORD:N054.38.54.511:W009.33.05.977
COORD:N054.05.18.332:W006.24.45.961

SECTORLINE:EISN_PXW_BOYNE
DISPLAY:PXW:PXW:EISN
DISPLAY:PXW:PXW:EIDW_N
DISPLAY:Antrim:Antrim:EISN
DISPLAY:Antrim:Antrim:EIDW_N
DISPLAY:PXW:PXW:EUW
COORD:N053.45.20.360:W005.30.1.985
COORD:N053.54.54.664:W005.30.00.243
COORD:N053.56.17.285:W005.36.19.941

SECTORLINE:EIDW_N_PXW
DISPLAY:PXW:PXW:EIDW_N
DISPLAY:PXW:PXW:EISN
DISPLAY:PXW:PXW:EUW
DISPLAY:Antrim:Antrim:EIDW_N
DISPLAY:Antrim:Antrim:EISN
DISPLAY:AAR:AAR:EIDW_N
COORD:N054.05.18.332:W006.24.45.961
COORD:N053.56.17.285:W005.36.19.941

SECTORLINE:TTN_PXW
DISPLAY:PXW:PXW:LN660
DISPLAY:PXW:PXW:LN285
COORD:N054.01.47.000:W001.35.15.000;east
COORD:N054.00.46.736:W002.27.46.125
COORD:N054.30.5.597:W002.52.38.170
COORD:N054.30.2.315:W003.35.36.064
COORD:N053.41.29.898:W003.27.29.065
COORD:N053.41.53.721:W003.37.34.830
COORD:N053.54.22.266:W004.07.38.511
COORD:N053.54.19.077:W004.21.51.017
COORD:N053.44.2.974:W004.33.30.878
COORD:N053.45.20.360:W005.30.1.985

SECTORLINE:TTN_PXE
DISPLAY:PXE:PXE:LN660
COORD:N054.01.47.000:W001.35.15.000;west
COORD:N054.01.36.058:E000.27.17.748
COORD:N053.29.38.135:E001.25.19.323
COORD:N053.22.57.072:E002.40.2.584
COORD:N053.18.22.757:E002.43.52.240
COORD:N053.14.40.140:E003.11.6.319
COORD:N053.10.28.794:E003.22.1.002;east

SECTORLINE:TTN_PXE_ScTC
DISPLAY:PXW:PXW:LN660
COORD:N054.15.29.932:W002.08.50.086
COORD:N054.14.30.531:W003.04.46.407
COORD:N054.14.29.982:W003.33.0.763

SECTORLINE:LN (DB-660)
COORD:N053.45.46.883:W005.30.2.412;west, clockwise
COORD:N053.44.5.230:W004.33.37.204
COORD:N053.54.16.820:W004.21.52.298
COORD:N053.54.21.561:W004.07.35.755
COORD:N053.41.59.445:W003.37.53.766
COORD:N053.41.29.814:W003.27.39.022
COORD:N054.14.36.807:W003.32.54.958
COORD:N054.14.29.389:W003.04.9.525
COORD:N054.14.54.877:W002.39.44.414
COORD:N054.00.51.742:W002.27.53.771
COORD:N054.01.56.101:W000.56.15.554
COORD:N054.01.56.101:E000.27.26.787
COORD:N053.29.36.767:E001.25.37.532
COORD:N053.22.52.337:E002.40.1.425
COORD:N053.18.52.379:E002.42.44.000
COORD:N053.18.24.989:E002.43.55.815
COORD:N053.14.46.902:E003.11.11.034
COORD:N053.10.35.629:E003.21.42.171
COORD:N052.28.11.191:E002.48.12.890
COORD:N052.28.11.191:E002.39.3.266
COORD:N052.34.22.086:E001.55.47.820
COORD:N052.24.39.251:E001.28.49.483
COORD:N052.26.7.559:W000.09.54.241
COORD:N053.04.23.573:W000.46.32.737
COORD:N053.10.34.468:W001.20.8.024
COORD:N052.41.43.627:W002.37.59.827
COORD:N052.54.5.416:W002.51.13.728
COORD:N052.55.16.062:W004.15.11.947
COORD:N053.17.20.686:W005.30.31.076
COORD:N053.45.46.883:W005.30.2.412

SECTORLINE:LN(285-660)
COORD:N054.30.3.674:W003.35.29.209
COORD:N054.30.6.637:W002.52.58.022
COORD:N054.14.59.918:W002.39.43.978
COORD:N054.14.27.324:W003.04.19.363
COORD:N054.14.27.324:W003.33.5.769
COORD:N054.30.3.674:W003.35.29.209

SECTORLINE:EHAA_PXE
DISPLAY:PXE:PXE:EHAA
DISPLAY:PXE:PXE:EUM
COORD:N053.10.28.794:E003.22.1.002;BOTTOM
COORD:N053.34.09.515:E003.42.30.156
COORD:N054.30.14.066:E004.32.02.487;TOP

SECTORLINE:EKDK_PXE
DISPLAY:PXE:PXE:EKDK
DISPLAY:PXE:PXE:EUN
COORD:N054.30.14.066:E004.32.2.487
COORD:N054.38.28.635:E004.20.11.804
COORD:N055.01.47.270:E004.00.41.112
COORD:N055.51.15.069:E003.29.20.002
COORD:N056.30.50.837:E003.28.52.291
COORD:N057.20.24.322:E004.30.30.326

SECTORLINE:ENSV_PXE
DISPLAY:PXE:PXE:ENSV
DISPLAY:PXE:PXE:EUN
COORD:N057.20.24.322:E004.30.30.326
COORD:N058.47.01.099:E002.08.41.559
COORD:N059.59.24.893:E000.00.46.600
COORD:N061.00.23.343:W000.00.34.948

SECTORLINE:PX_SPLIT   
DISPLAY:PXE:PXE:PXW
DISPLAY:PXW:PXW:PXE
COORD:N061.00.00.000:W005.30.00.000;top
COORD:N059.16.38.000:W004.30.00.000
COORD:N058.01.33.836:W004.17.9.710
COORD:N057.54.39.391:W004.32.4.940
COORD:N057.29.15.993:W004.11.54.063
COORD:N057.23.44.850:W004.13.10.826
COORD:N057.14.38.665:W004.28.11.929
COORD:N057.14.57.421:W005.17.38.252
COORD:N057.10.32.182:W005.34.44.632
COORD:N056.00.47.332:W004.42.5.673;PFA PXE/W split

SECTORLINE:PX_SPLIT_1
DISPLAY:PXE:PXE:PXW
DISPLAY:PXW:PXW:PXE
COORD:N054.15.33.975:W002.09.57.495;SCE_PXE southern point
COORD:N054.11.44.729:W001.45.32.239
COORD:N054.01.47.000:W001.35.15.000;bottom

SECTORLINE:PXW_EISN_SHELF
DISPLAY:PXW:PXW:EISN
COORD:N054.38.58.000:W009.33.20.000
COORD:N054.34.00.000:W010.00.00.000
COORD:N054.45.00.000:W009.00.00.000
COORD:N055.19.60.000:W008.15.00.000
COORD:N055.25.00.000:W007.20.00.000
COORD:N055.20.00.000:W006.55.00.000
COORD:N054.25.00.000:W008.10.00.000
COORD:N054.38.58.000:W009.33.20.000

SECTORLINE:PXE_EHAA_GODOS    
DISPLAY:PXW:PXW:EHAA
COORD:N053.34.9.538:E003.42.30.154
COORD:N053.10.28.794:E003.22.1.002;BOTTOM
COORD:N052.37.3.165:E002.54.0.464
COORD:N052.40.10.271:E002.29.52.634
COORD:N053.20.3.392:E002.30.2.515
COORD:N053.18.22.787:E002.43.52.077
COORD:N053.16.11.790:E002.59.53.699
COORD:N053.41.48.009:E002.59.59.927
COORD:N053.34.9.538:E003.42.30.154

SECTORLINE:PXW (255-285)
COORD:N054.30.3.674:W003.35.29.209
COORD:N054.30.6.637:W002.52.58.022
COORD:N054.14.59.918:W002.39.43.978
COORD:N054.14.27.324:W003.04.19.363
COORD:N054.14.27.324:W003.33.5.769
COORD:N054.30.3.674:W003.35.29.209

;FIR BORDER CLOSERS
SECTORLINE:EISN
COORD:N056.59.59.685:W010.00.04.151
COORD:N053.42.21.318:W012.35.32.079
COORD:N053.45.20.360:W005.30.1.985

SECTORLINE:EIDW
COORD:N054.05.18.332:W006.24.45.961
COORD:N053.41.14.448:W006.12.45.820
COORD:N053.56.17.285:W005.36.19.941

SECTORLINE:EGGX
COORD:N060.30.01.943:W010.00.03.814
COORD:N059.11.14.570:W016.14.33.442

COORD:N056.59.59.685:W010.00.04.151
SECTORLINE:BIRD
COORD:N061.00.23.343:W000.00.34.948
COORD:N062.39.50.829:W007.25.59.470
COORD:N060.30.01.943:W010.00.03.814

SECTORLINE:EHAA
COORD:N053.10.28.794:E003.22.1.002;BOTTOM
COORD:N053.38.32.339:E004.47.33.378
COORD:N054.30.14.066:E004.32.02.487

SECTORLINE:EKDK
COORD:N054.30.14.066:E004.32.02.487
COORD:N056.26.37.911:E005.54.32.969
COORD:N057.20.24.322:E004.30.30.326

SECTORLINE:ENSV
COORD:N057.20.24.322:E004.30.30.326
COORD:N060.05.15.596:E003.06.38.546
COORD:N061.00.23.343:W000.00.34.948

SECTORLINE:EGTTN
COORD:N053.45.20.360:W005.30.1.985
COORD:N053.15.23.197:W002.03.04.208
COORD:N053.10.28.794:E003.22.1.002;east