London AC North            S999.00.00.000 E999.00.00.000 S999.00.00.000 E999.00.00.000
                           N053.48.17.000 W005.30.00.000 N053.46.17.000 W004.31.12.000
                           N053.46.17.000 W004.31.12.000 N053.54.19.000 W004.21.51.000
                           N053.54.19.000 W004.21.51.000 N053.53.58.000 W004.06.08.000
                           N053.53.58.000 W004.06.08.000 N053.41.49.000 W003.36.49.000
                           N053.41.49.000 W003.36.49.000 N053.41.25.000 W003.27.34.000
                           N053.41.25.000 W003.27.34.000 N054.30.00.000 W003.35.33.000
                           N054.30.00.000 W003.35.33.000 N054.30.07.000 W002.52.45.000
                           N054.30.07.000 W002.52.45.000 N054.00.43.000 W002.27.43.000
                           N054.00.43.000 W002.27.43.000 N054.01.47.000 W001.35.15.000
                           N054.01.47.000 W001.35.15.000 N054.01.41.000 E000.27.19.000
                           N054.01.41.000 E000.27.19.000 N053.29.30.000 E001.25.25.000
                           N053.29.30.000 E001.25.25.000 N053.23.02.000 E002.40.06.000
                           N053.23.02.000 E002.40.06.000 N053.18.13.000 E002.44.00.000
                           N053.18.13.000 E002.44.00.000 N053.14.41.000 E003.11.02.000
                           N053.14.41.000 E003.11.02.000 N053.10.29.000 E003.21.58.000
                           N053.10.29.000 E003.21.58.000 N052.28.19.000 E002.46.44.000
                           N052.28.19.000 E002.46.44.000 N052.28.42.000 E002.34.14.000
                           N052.28.42.000 E002.34.14.000 N052.34.12.000 E001.54.11.000
                           N052.34.12.000 E001.54.11.000 N052.25.10.000 E001.28.16.000
                           N052.25.10.000 E001.28.16.000 N052.26.15.000 E000.13.48.000
                           N052.26.15.000 E000.13.48.000 N052.26.26.000 W000.10.12.000
                           N052.26.26.000 W000.10.12.000 N053.04.26.000 W000.44.22.000
                           N053.04.26.000 W000.44.22.000 N053.06.25.000 W000.46.12.000
                           N053.06.25.000 W000.46.12.000 N053.10.17.000 W001.20.43.000
                           N053.10.17.000 W001.20.43.000 N053.00.31.000 W001.47.40.000
                           N053.00.31.000 W001.47.40.000 N053.12.25.000 W001.58.44.000
                           N053.12.25.000 W001.58.44.000 N053.10.29.000 W002.05.57.000
                           N053.10.29.000 W002.05.57.000 N052.51.00.000 W002.45.29.000
                           N052.51.00.000 W002.45.29.000 N052.53.33.000 W002.50.14.000
                           N052.53.33.000 W002.50.14.000 N052.54.23.000 W003.18.38.000
                           N052.54.23.000 W003.18.38.000 N052.55.42.000 W004.14.47.000
                           N052.55.42.000 W004.14.47.000 N053.17.03.000 W005.30.00.000
                           N053.17.03.000 W005.30.00.000 N053.48.17.000 W005.30.00.000

                           N052.51.00.000 W002.45.29.000 N053.10.29.000 W002.05.57.000
                           N053.10.29.000 W002.05.57.000 N053.12.25.000 W001.58.44.000
                           N053.12.25.000 W001.58.44.000 N053.00.31.000 W001.47.40.000
                           N053.00.31.000 W001.47.40.000 N052.41.49.000 W002.37.50.000
                           N052.41.49.000 W002.37.50.000 N052.51.00.000 W002.45.29.000

;add for alignment
                           N053.20.00.000 E002.30.00.000 N053.18.13.000 E002.44.00.000
                           N053.18.13.000 E002.44.00.000 N053.14.41.000 E003.11.02.000
                           N053.14.41.000 E003.11.02.000 N053.10.29.000 E003.21.58.000
                           N053.10.29.000 E003.21.58.000 N052.37.04.000 E002.53.56.000
                           N052.37.04.000 E002.53.56.000 N052.40.10.000 E002.30.00.000
                           N052.40.10.000 E002.30.00.000 N053.20.00.000 E002.30.00.000
                           N053.20.00.000 E002.30.00.000 N053.20.00.000 E002.30.00.000

MAN East                   S999.00.00.000 E999.00.00.000 S999.00.00.000 E999.00.00.000
                           N052.41.49.000 W002.37.50.000 N052.32.51.000 W002.30.14.000
                           N052.32.51.000 W002.30.14.000 N052.17.11.000 W002.13.07.000
                           N052.17.11.000 W002.13.07.000 N052.32.20.000 W001.29.41.000
                           N052.32.20.000 W001.29.41.000 N052.40.53.000 W001.31.38.000
                           N052.40.53.000 W001.31.38.000 N052.49.26.000 W001.30.40.000
                           N052.49.26.000 W001.30.40.000 N052.50.25.000 W001.00.54.000
                           N052.50.25.000 W001.00.54.000 N053.10.17.000 W001.20.43.000
                           N053.10.17.000 W001.20.43.000 N053.26.01.500 W001.36.52.000
                           N053.26.01.500 W001.36.52.000 N053.28.04.000 W001.38.59.000
                           N053.28.04.000 W001.38.59.000 N053.36.00.500 W001.38.03.000
                           N053.36.00.500 W001.38.03.000 N053.49.00.000 W001.52.53.000
                           N053.49.00.000 W001.52.53.000 N054.15.29.000 W002.08.50.000
                           N054.15.29.000 W002.08.50.000 N054.14.29.000 W003.04.46.000
                           N054.14.29.000 W003.04.46.000 N053.39.17.000 W002.38.58.500
                           N053.39.17.000 W002.38.58.500 N053.39.24.000 W002.41.25.000
                           N053.39.24.000 W002.41.25.000 N053.21.25.000 W002.15.43.500
                           N053.21.25.000 W002.15.43.500 N053.00.00.000 W002.45.00.000
                           N053.00.00.000 W002.45.00.000 N052.51.00.000 W002.45.29.000
                           N052.51.00.000 W002.45.29.000 N052.41.49.000 W002.37.50.000

                           N052.49.26.000 W001.30.40.000 N052.50.25.000 W001.00.54.000
                           N052.50.25.000 W001.00.54.000 N052.47.52.000 W000.58.23.000
                           N052.47.52.000 W000.58.23.000 N052.40.53.000 W001.31.38.000
                           N052.40.53.000 W001.31.38.000 N052.49.26.000 W001.30.40.000

                           N052.40.53.000 W001.31.38.000 N052.47.52.000 W000.58.23.000
                           N052.47.52.000 W000.58.23.000 N052.44.27.000 W000.55.00.000
                           N052.44.27.000 W000.55.00.000 N052.32.20.000 W001.29.41.000
                           N052.32.20.000 W001.29.41.000 N052.40.53.000 W001.31.38.000

                           N054.01.47.000 W001.35.15.000 N054.01.45.000 E000.06.02.000
                           N054.01.45.000 E000.06.02.000 N053.35.39.000 E000.27.56.000
                           N053.35.39.000 E000.27.56.000 N053.32.30.000 E000.50.45.000
                           N053.32.30.000 E000.50.45.000 N053.28.56.000 E000.57.08.000
                           N053.28.56.000 E000.57.08.000 N052.53.24.000 E000.46.19.000
                           N052.53.24.000 E000.46.19.000 N053.04.26.000 W000.44.22.000
                           N053.04.26.000 W000.44.22.000 N053.06.25.000 W000.46.12.000
                           N053.06.25.000 W000.46.12.000 N053.10.17.000 W001.20.43.000
                           N053.10.17.000 W001.20.43.000 N053.26.01.500 W001.36.52.000
                           N053.26.01.500 W001.36.52.000 N053.28.04.000 W001.38.59.000
                           N053.28.04.000 W001.38.59.000 N053.36.00.500 W001.38.03.000
                           N053.36.00.500 W001.38.03.000 N054.01.47.000 W001.35.15.000

                           N054.34.04.500 W002.03.02.000 N054.31.33.000 W001.39.12.000
                           N054.31.33.000 W001.39.12.000 N054.11.44.500 W001.45.29.000
                           N054.11.44.500 W001.45.29.000 N054.01.47.000 W001.35.15.000
                           N054.01.47.000 W001.35.15.000 N053.36.00.500 W001.38.03.000
                           N053.36.00.500 W001.38.03.000 N053.49.00.000 W001.52.53.000
                           N053.49.00.000 W001.52.53.000 N054.15.29.000 W002.08.50.000
                           N054.15.29.000 W002.08.50.000 N054.34.04.500 W002.03.02.000

                           N054.34.04.500 W002.03.02.000 N054.31.33.000 W001.39.12.000
                           N054.31.33.000 W001.39.12.000 N054.47.03.000 W001.34.14.000
                           N054.47.03.000 W001.34.14.000 N054.56.40.000 W001.55.51.000
                           N054.56.40.000 W001.55.51.000 N054.34.04.500 W002.03.02.000

                           N054.33.02.000 W000.55.46.000 N054.01.45.000 W000.18.52.000
                           N054.01.45.000 W000.18.52.000 N054.01.48.000 W000.39.28.000
                           N054.01.48.000 W000.39.28.000 N054.26.15.000 W001.08.34.000
                           N054.26.15.000 W001.08.34.000 N054.33.02.000 W000.55.46.000
                           N054.33.02.000 W000.55.46.000 N054.33.02.000 W000.55.46.000

MAN West                   S999.00.00.000 E999.00.00.000 S999.00.00.000 E999.00.00.000
                           N053.21.25.000 W002.15.43.500 N053.00.00.000 W002.45.00.000
                           N053.00.00.000 W002.45.00.000 N052.51.00.000 W002.45.29.000
                           N052.51.00.000 W002.45.29.000 N052.53.33.000 W002.50.14.000
                           N052.53.33.000 W002.50.14.000 N052.54.23.000 W003.18.38.000
                           N052.54.23.000 W003.18.38.000 N053.08.12.000 W003.17.36.500
                           N053.08.12.000 W003.17.36.500 N053.12.31.000 W003.25.49.000
                           N053.12.31.000 W003.25.49.000 N053.19.44.000 W003.39.32.000
                           N053.19.44.000 W003.39.32.000 N053.22.23.000 W004.51.32.000
                           N053.22.23.000 W004.51.32.000 N053.44.28.000 W004.49.54.000
                           N053.44.28.000 W004.49.54.000 N053.45.22.500 W005.18.38.500
                           N053.45.22.500 W005.18.38.500 N053.47.54.000 W005.12.39.000
                           N053.47.54.000 W005.12.39.000 N053.46.11.000 W004.31.04.500
                           N053.46.11.000 W004.31.04.500 N053.54.18.000 W004.21.50.000
                           N053.54.18.000 W004.21.50.000 N053.54.21.000 W004.07.38.000
                           N053.54.21.000 W004.07.38.000 N053.41.54.000 W003.37.34.500
                           N053.41.54.000 W003.37.34.500 N053.41.29.500 W003.27.29.000
                           N053.41.29.500 W003.27.29.000 N054.14.30.000 W003.33.00.000
                           N054.14.30.000 W003.33.00.000 N054.14.29.000 W003.04.46.000
                           N054.14.29.000 W003.04.46.000 N053.39.17.000 W002.38.58.500
                           N053.39.17.000 W002.38.58.500 N053.39.24.000 W002.41.25.000
                           N053.39.24.000 W002.41.25.000 N053.21.25.000 W002.15.43.500

                           N052.54.23.000 W003.18.38.000 N053.08.12.000 W003.17.36.500
                           N053.08.12.000 W003.17.36.500 N053.12.31.000 W003.25.49.000
                           N053.12.31.000 W003.25.49.000 N053.19.44.000 W003.39.32.000
                           N053.19.44.000 W003.39.32.000 N053.22.23.000 W004.51.32.000
                           N053.22.23.000 W004.51.32.000 N053.22.59.000 W005.10.13.000
                           N053.22.59.000 W005.10.13.000 N053.16.12.500 W005.27.04.000
                           N053.16.12.500 W005.27.04.000 N052.55.42.000 W004.14.47.000
                           N052.55.42.000 W004.14.47.000 N052.54.23.000 W003.18.38.000

                           N053.47.54.000 W005.12.39.000 N053.46.11.000 W004.31.04.500
                           N053.46.11.000 W004.31.04.500 N053.53.25.000 W004.45.26.000
                           N053.53.25.000 W004.45.26.000 N053.55.37.000 W004.54.10.000
                           N053.55.37.000 W004.54.10.000 N053.47.54.000 W005.12.39.000

                           N053.46.11.000 W004.31.04.500 N053.54.18.000 W004.21.50.000
                           N053.54.18.000 W004.21.50.000 N053.54.21.000 W004.07.38.000
                           N053.54.21.000 W004.07.38.000 N054.02.52.000 W003.58.07.000
                           N054.02.52.000 W003.58.07.000 N054.10.53.500 W004.17.47.000
                           N054.10.53.500 W004.17.47.000 N054.01.45.000 W004.39.09.500
                           N054.01.45.000 W004.39.09.500 N053.55.37.000 W004.54.10.000
                           N053.55.37.000 W004.54.10.000 N053.53.25.000 W004.45.26.000
                           N053.53.25.000 W004.45.26.000 N053.46.11.000 W004.31.04.500

                           N053.54.21.000 W004.07.38.000 N053.41.54.000 W003.37.34.500
                           N053.41.54.000 W003.37.34.500 N053.41.29.500 W003.27.29.000
                           N053.41.29.500 W003.27.29.000 N054.14.30.000 W003.33.00.000
                           N054.14.30.000 W003.33.00.000 N054.30.00.000 W003.35.33.000
                           N054.30.00.000 W003.35.33.000 N054.30.34.000 W003.35.40.500
                           N054.30.34.000 W003.35.40.500 N054.10.53.500 W004.17.47.000
                           N054.10.53.500 W004.17.47.000 N054.02.52.000 W003.58.07.000
                           N054.02.52.000 W003.58.07.000 N053.54.21.000 W004.07.38.000

                           N054.34.04.500 W002.03.02.000 N054.31.33.000 W001.39.12.000
                           N054.31.33.000 W001.39.12.000 N054.11.44.500 W001.45.29.000
                           N054.11.44.500 W001.45.29.000 N054.01.47.000 W001.35.15.000
                           N054.01.47.000 W001.35.15.000 N053.36.00.500 W001.38.03.000
                           N053.36.00.500 W001.38.03.000 N053.49.00.000 W001.52.53.000
                           N053.49.00.000 W001.52.53.000 N054.15.29.000 W002.08.50.000
                           N054.15.29.000 W002.08.50.000 N054.34.04.500 W002.03.02.000

                           N053.36.00.500 W001.38.03.000 N053.49.00.000 W001.52.53.000
                           N053.49.00.000 W001.52.53.000 N054.15.29.000 W002.08.50.000
                           N054.15.29.000 W002.08.50.000 N054.14.29.000 W003.04.46.000
                           N054.14.29.000 W003.04.46.000 N053.39.17.000 W002.38.58.500
                           N053.39.17.000 W002.38.58.500 N053.39.24.000 W002.41.25.000
                           N053.39.24.000 W002.41.25.000 N053.21.25.000 W002.15.43.500
                           N053.21.25.000 W002.15.43.500 N053.00.00.000 W002.45.00.000
                           N053.00.00.000 W002.45.00.000 N052.51.00.000 W002.45.29.000
                           N052.51.00.000 W002.45.29.000 N052.41.49.000 W002.37.50.000
                           N052.41.49.000 W002.37.50.000 N053.00.31.000 W001.47.40.000
                           N053.00.31.000 W001.47.40.000 N053.10.17.000 W001.20.43.000
                           N053.10.17.000 W001.20.43.000 N053.26.01.500 W001.36.52.000
                           N053.26.01.500 W001.36.52.000 N053.28.04.000 W001.38.59.000
                           N053.28.04.000 W001.38.59.000 N053.36.00.500 W001.38.03.000

                           N053.48.17.000 W005.30.00.000 N053.47.54.000 W005.12.39.000
                           N053.47.54.000 W005.12.39.000 N053.45.22.000 W005.18.38.000
                           N053.45.22.000 W005.18.38.000 N053.45.45.000 W005.30.00.000
                           N053.45.45.000 W005.30.00.000 N053.48.17.000 W005.30.00.000