EGNM_APP:Leeds Approach:133.120:NMA:M:EGNM:APP:-:-:2655:2676:N053.51.57.230:W001.39.38.050::
EGNM_TWR:Leeds Tower:120.300:NMT:M:EGNM:TWR:-:-:2655:2676:N053.51.57.230:W001.39.38.050::
EGNM_DEL:Leeds Delivery:121.800:NMD:M:EGNM:DEL:-:-:2655:2676:N053.51.57.230:W001.39.38.050::
EGNM_ATIS:Leeds ATIS:118.020:NMI:M:EGNM:ATIS:-:-::::::