EGPF_APP:Glasgow Approach:119.100:PFA:G1:EGPF:APP:-:-:1730:1747:N055.52.20.000:W004.25.55.000::
EGPF_F_APP:Glasgow Director:119.300:PFD:G5:EGPF:APP:EGPF_F:APP:1730:1747:N055.52.20.000:W004.25.55.000::
EGPF_TWR:Glasgow Tower:118.800:PFT:G2:EGPF:TWR:-:-:1730:1747:N055.52.19.000:W004.25.59.000::
EGPF_GND:Glasgow Ground:121.700:PFG:G3:EGPF:GND:-:-:1730:1747:N055.52.20.000:W004.25.55.000::
EGPF_ATIS:Glasgow ATIS:129.570:PFI:S:EGPF:ATIS:-:-::::::