;Stands
N055.52.03.493:W004.25.50.676:EGPF Stands:6
N055.51.57.365:W004.25.52.442:EGPF Stands:12
N055.51.59.235:W004.25.59.511:EGPF Stands:17
N055.51.54.466:W004.26.18.544:EGPF Stands:33
N055.52.07.923:W004.25.55.222:EGPF Stands:81
N055.52.12.035:W004.25.35.624:EGPF Stands:46
N055.52.24.815:W004.26.10.705:EGPF Stands:50
N055.52.25.092:W004.26.08.694:EGPF Stands:52
N055.52.25.367:W004.26.06.587:EGPF Stands:54
N055.52.11.746:W004.25.34.685:EGPF Stands:47
N055.52.25.602:W004.26.04.802:EGPF Stands:56
N055.52.26.365:W004.26.04.390:EGPF Stands:57
N055.51.58.841:W004.26.14.412:EGPF Stands:30
N055.52.01.421:W004.26.05.985:EGPF Stands:21
N055.51.58.642:W004.25.53.145:EGPF Stands:11
N055.51.59.912:W004.25.53.830:EGPF Stands:10
N055.52.03.219:W004.25.54.223:EGPF Stands:7
N055.51.54.747:W004.26.11.855:EGPF Stands:28
N055.52.09.522:W004.25.56.390:EGPF Stands:81
N055.52.03.840:W004.25.52.377:EGPF Stands:6
N055.51.58.327:W004.26.04.498:EGPF Stands:23
N055.52.01.764:W004.25.49.933:EGPF Stands:5
N055.51.57.625:W004.25.47.669:EGPF Stands:2
N055.51.56.104:W004.25.48.596:EGPF Stands:1
N055.51.57.232:W004.25.42.668:EGPF Stands:62
N055.51.56.214:W004.25.42.023:EGPF Stands:61
N055.51.58.868:W004.25.42.506:EGPF Stands:64
N055.52.00.058:W004.25.43.118:EGPF Stands:65
N055.52.02.233:W004.26.01.568:EGPF Stands:19
N055.52.00.931:W004.25.59.875:EGPF Stands:18
N055.51.58.112:W004.26.17.929:EGPF Stands:31
N055.51.57.928:W004.25.58.835:EGPF Stands:16
N055.51.56.681:W004.25.57.869:EGPF Stands:15
N055.51.55.419:W004.25.57.233:EGPF Stands:14
N055.51.54.086:W004.26.02.490:EGPF Stands:26
N055.51.55.456:W004.26.03.308:EGPF Stands:25
N055.51.56.908:W004.26.03.950:EGPF Stands:24
N055.51.59.800:W004.26.04.786:EGPF Stands:22
N055.52.02.275:W004.26.03.874:EGPF Stands:20
N055.51.56.638:W004.26.13.632:EGPF Stands:29
N055.51.53.167:W004.26.10.626:EGPF Stands:27
N055.51.51.473:W004.26.15.960:EGPF Stands:36
N055.51.52.594:W004.26.17.022:EGPF Stands:34
N055.51.58.825:W004.25.48.236:EGPF Stands:3
N055.51.56.175:W004.26.20.426:EGPF Stands:32
N055.52.00.431:W004.25.48.699:EGPF Stands:4
N055.52.01.446:W004.25.54.267:EGPF Stands:8
N055.52.12.881:W004.25.31.063:EGPF Stands:49
N055.52.13.386:W004.25.34.753:EGPF Stands:54
N055.52.11.420:W004.25.33.825:EGPF Stands:48
N055.52.12.330:W004.25.31.351:EGPF Stands:53
N055.52.11.863:W004.25.31.599:EGPF Stands:54
N055.52.14.484:W004.25.36.577:EGPF Stands:52
N055.52.15.065:W004.25.36.134:EGPF Stands:53
N055.52.03.676:W004.25.43.346:EGPF Stands:66
;Holding Points
N055.52.42.367:W004.25.04.224:EGPF Holding Points:A1
N055.52.38.524:W004.25.08.597:EGPF Holding Points:A2
N055.52.16.179:W004.25.38.519:EGPF Holding Points:A3
N055.52.36.703:W004.25.16.450:EGPF Holding Points:B1
N055.52.04.339:W004.26.14.426:EGPF Holding Points:D1
N055.51.58.552:W004.26.29.289:EGPF Holding Points:E1
N055.51.50.436:W004.26.41.338:EGPF Holding Points:F1
N055.51.47.500:W004.26.51.200:EGPF Holding Points:G1
N055.51.44.800:W004.26.55.460:EGPF Holding Points:G1A
N055.51.44.315:W004.26.46.077:EGPF Holding Points:G2
N055.52.22.505:W004.26.20.691:EGPF Holding Points:W
N055.52.20.678:W004.26.08.157:EGPF Holding Points:Y1
N055.52.20.502:W004.25.47.990:EGPF Holding Points:C1
N055.52.03.241:W004.26.38.549:EGPF Holding Points:Z1