N051.33.45.000 W000.42.22.000 N051.31.57.000 W000.30.31.000
N051.31.57.000 W000.30.31.000 N051.33.32.000 W000.28.31.000
N051.33.32.000 W000.28.31.000 N051.32.54.000 W000.25.07.000
N051.32.54.000 W000.25.07.000 N051.31.56.000 W000.18.52.000
N051.31.56.000 W000.18.52.000 N051.29.51.000 W000.17.31.000
N051.29.51.000 W000.17.31.000 N051.29.14.000 W000.17.16.000
N051.29.14.000 W000.17.16.000 N051.28.27.000 W000.13.25.000
