N051.20.57.000 W000.41.57.000 N051.24.02.000 W000.32.16.000
N051.24.02.000 W000.32.16.000 N051.24.09.000 W000.24.16.000
N051.24.09.000 W000.24.16.000 N051.25.47.000 W000.19.06.000
N051.25.47.000 W000.19.06.000 N051.28.27.000 W000.13.25.000
