N051.20.14.000 W000.25.12.000 N051.20.51.000 W000.22.10.000
N051.20.14.000 W000.20.06.000 N051.20.58.000 W000.21.00.000
N051.20.58.000 W000.21.00.000 N051.20.51.000 W000.22.10.000
N051.20.51.000 W000.22.10.000 N051.24.09.000 W000.24.16.000
N051.24.09.000 W000.24.16.000 N051.26.30.000 W000.25.33.000
N051.26.30.000 W000.25.33.000 N051.27.32.000 W000.26.10.000
N051.29.00.000 W000.27.06.000 N051.29.44.000 W000.27.15.000
N051.29.44.000 W000.27.15.000 N051.30.42.000 W000.26.36.000
N051.30.42.000 W000.26.36.000 N051.32.54.000 W000.25.07.000
N051.32.54.000 W000.25.07.000 N051.36.12.000 W000.27.19.000
