SID:EGPH:06:GOSAM1D:D068A D053C GOW35 GOW30 CUMBO GOSAM
SID:EGPH:06:GRICE4D:D068A D053C SAB46 GRICE
SID:EGPH:06:TLA6D:D068A D049G TL32A TLA30 D027M TLA
SID:EGPH:24:GOSAM1C:UW D263E D263J MAVIX GOSAM
SID:EGPH:24:GRICE3C:UW TLA32 TLA33 TLA38 GRICE
SID:EGPH:24:TLA6C:UW D242H D346T D346M TLA
SID:EGPH:12:TLA5G:D122I D027M TLA
SID:EGPH:06:#DCS3D:D068A D053C GOW35 GOW30 CUMBO MAVIX TRN30 DCS
SID:EGPH:06:#TRN6D:D068A D053C GOW35 GOW30 CUMBO TRN
SID:EGPH:24:#DCS4C:UW D263E D263J MAVIX TRN30 DCS
SID:EGPH:24:#TRN5C:UW D263E D263J MAVIX TRN