EGPD_APP:Aberdeen Approach:199.998:PDAM:A1:EGPD:APP:-:-:2601:2620:N057.12.15.000W002.11.55.000::
EGPD_R_APP:Aberdeen Radar:199.998:PDRM:A6:EGPD:APP:EGPD_F:APP:-:2601:2620:N057.12.15.000W002.11.55.000::
EGPD_F_APP:Aberdeen Director:199.998:PDDM:A5:EGPD:APP:EGPD_F:APP:2601:2620:N057.12.15.000:W002.11.55.000::
EGPD_TWR:Aberdeen Tower:199.998:PDTM:A2:EGPD:TWR:-:-:2601:2620:N057.12.15.000W002.11.55.000::
EGPD_GND:Aberdeen Ground:199.998:PDGM:A3:EGPD:GND:-:-:2601:2620:N057.12.15.000:W002.11.55.000::