SECTORLINE:PDG
DISPLAY:PDT:PDG:PDT
DISPLAY:PDG:PDG:PDT
COORD:N57.12.36.070:W02.12.16.683
COORD:N57.11.38.327:W02.11.34.446
COORD:N57.11.37.002:W02.11.42.517
COORD:N57.11.57.690:W02.12.39.267
COORD:N57.12.01.197:W02.12.44.622
COORD:N57.12.35.808:W02.12.36.739
COORD:N57.12.36.070:W02.12.16.683

SECTORLINE:PDG1
DISPLAY:PDT:PDG:PDT
DISPLAY:PDG:PDG:PDT
COORD:N57.11.51.866:W02.11.35.447
COORD:N57.11.53.908:W02.11.23.352
COORD:N57.12.28.985:W02.11.29.711
COORD:N57.12.36.832:W02.12.05.500
COORD:N57.11.51.866:W02.11.35.447

CIRCLE_SECTORLINE:PDT:EGPD:2.5
DISPLAY:PDA:PDA:PDT
DISPLAY:PDT:PDA:PDT

;EGPD APP
SECTORLINE:PDA_FL120
DISPLAY:PXE:PXE:PDA
DISPLAY:PDA:PXE:PDA
COORD:N057.00.15.472:W002.50.56.219
COORD:N056.54.33.749:W002.35.50.660
COORD:N056.55.35.087:W002.07.19.716
COORD:N056.55.48.409:W002.03.37.075
COORD:N056.56.28.375:W002.00.17.467
COORD:N056.57.26.103:W001.57.13.213
COORD:N056.58.49.702:W001.54.27.612
COORD:N057.00.30.878:W001.52.25.759
COORD:N057.02.21.893:W001.50.55.791
COORD:N057.04.16.378:W001.50.7.808
COORD:N057.06.38.617:W001.50.1.810
COORD:N057.08.40.003:W001.50.58.642
COORD:N057.16.55.186:W001.55.25.737
COORD:N057.22.1.589:W001.58.41.507
COORD:N057.25.32.855:W002.03.22.669
COORD:N057.27.20.436:W002.07.18.517
COORD:N057.28.19.052:W002.11.45.686
COORD:N057.28.35.039:W002.16.0.571
COORD:N057.28.15.500:W002.20.40.023
COORD:N057.27.13.331:W002.24.54.908
COORD:N057.25.35.637:W002.28.42.155
COORD:N057.23.41.957:W002.31.15.700
COORD:N057.21.18.081:W002.33.40.032
COORD:N057.00.13.293:W002.50.56.274
COORD:N057.00.15.472:W002.50.56.219

;EGPD APP
SECTORLINE:PDR
DISPLAY:PXE:PXE:PDR
DISPLAY:PDR:PXE:PDR
COORD:N059.00.0.009:E001.37.53.534
COORD:N058.25.45.184:E001.29.1.111
COORD:N057.53.33.007:E001.58.45.752
COORD:N056.35.45.770:E002.36.36.659
COORD:N056.04.59.557:E003.15.6.577
COORD:N056.00.7.677:W000.21.49.842
COORD:N056.00.7.677:W001.30.45.083
COORD:N057.18.37.381:W002.16.3.237
COORD:N057.21.0.789:W002.34.4.382
COORD:N058.03.38.846:W003.17.53.878
COORD:N058.04.0.598:W003.18.6.414
COORD:N058.04.48.798:W003.18.33.143
COORD:N058.05.44.274:W003.18.41.004
COORD:N058.06.45.207:W003.18.25.281
COORD:N058.07.35.872:W003.17.52.816
COORD:N058.08.20.279:W003.17.10.591
COORD:N058.09.0.244:W003.16.13.011
COORD:N058.09.42.430:W003.14.44.723
COORD:N058.20.6.775:W002.45.45.318
COORD:N058.48.11.873:W002.18.9.842
COORD:N059.00.0.878:W002.16.0.263