;EGAC City CTLZ  
EGAC City CTLZ  N054.31.21.000 W006.02.19.000 N054.44.31.000 W005.46.35.000  
EGAC City CTLZ  N054.44.31.000 W005.46.35.000 N054.40.48.000 W005.37.21.000  
EGAC City CTLZ  N054.27.39.000 W005.53.06.000 N054.31.21.000 W006.02.19.000  
EGAC City CTLZ  N054.28.02.000 W006.06.13.000 N054.31.21.000 W006.02.19.000  
EGAC City CTLZ  N054.31.21.000 W006.02.19.000 N054.27.39.000 W005.53.06.000  
EGAC City CTLZ  N054.27.39.000 W005.53.06.000 N054.24.22.000 W005.57.01.000  
EGAC City CTLZ  N054.24.22.000 W005.57.01.000 N054.28.02.000 W006.06.13.000  
EGAC City CTLZ  N054.44.31.000 W005.46.35.000 N054.50.14.000 W005.39.39.000  
EGAC City CTLZ  N054.50.14.000 W005.39.39.000 N054.46.32.000 W005.30.24.000  
EGAC City CTLZ  N054.24.22.000 W005.57.01.000 N054.46.32.000 W005.30.24.000  
EGAC City CTLZ  N054.46.32.000 W005.30.24.000 N054.44.49.000 W005.26.08.000  
EGAC City CTLZ  N054.20.16.000 W005.46.47.000 N054.24.22.000 W005.57.01.000  