EGGP_APP:Liverpool Approach:119.850:GPA:O:EGGP:APP:-:-:4361:4367:N053.20.01.000:W002.50.59.000::
EGGP_APP:Liverpool Approach:118.450:GPR:O:EGGP:APP:-:-:4361:4367:N053.20.01.000:W002.50.59.000::
EGGP_TWR:Liverpool Tower:126.350:GPT:O:EGGP:TWR:-:-:4361:4367:N053.20.01.000:W002.50.59.000::
EGGP_GND:Liverpool Tower:121.950:GPG:O:EGGP:GND:-:-:4361:4367:N053.20.01.000:W002.50.59.000::
EGGP_ATIS:Liverpool ATIS:124.320:GPI:O:EGGP:ATIS:-:-::::::