;bkgnd
REGIONNAME Aldergrove
apron N54.39.45.292 W06.11.45.652 
 N54.39.32.386 W06.12.33.374
 N54.39.30.997 W06.12.32.468
 N54.39.30.407 W06.12.32.343
 N54.39.29.791 W06.12.32.471
 N54.39.29.269 W06.12.32.833
 N54.39.28.673 W06.12.33.576
 N54.39.28.318 W06.12.33.789
 N54.39.24.875 W06.12.31.149
 N54.39.24.714 W06.12.30.437
 N54.39.25.296 W06.12.28.057
 N54.39.25.340 W06.12.27.534
 N54.39.25.279 W06.12.27.114
 N54.39.25.036 W06.12.26.790
 N54.39.24.064 W06.12.26.042
 N54.39.24.377 W06.12.24.596
 N54.39.24.358 W06.12.24.033
 N54.39.24.259 W06.12.23.496
 N54.39.24.032 W06.12.23.144
 N54.39.22.625 W06.12.22.283
 N54.39.21.386 W06.12.23.169
 N54.39.20.990 W06.12.24.901
 N54.39.20.947 W06.12.26.178
 N54.39.21.213 W06.12.26.885
 N54.39.22.159 W06.12.27.526
 N54.39.21.909 W06.12.29.152
 N54.39.21.907 W06.12.29.761
 N54.39.21.992 W06.12.30.255
 N54.39.22.210 W06.12.30.531
 N54.39.23.185 W06.12.31.148
 N54.39.23.652 W06.12.33.306
 N54.39.23.671 W06.12.33.807
 N54.39.23.815 W06.12.34.233
 N54.39.24.086 W06.12.34.513
 N54.39.24.391 W06.12.34.548
 N54.39.26.380 W06.12.33.428
 N54.39.27.333 W06.12.34.385
 N54.39.27.610 W06.12.35.120
 N54.39.27.717 W06.12.35.769
 N54.39.27.696 W06.12.36.339
 N54.39.26.992 W06.12.39.320
 N54.39.25.847 W06.12.44.699
 N54.39.24.858 W06.12.49.740
 N54.39.21.084 W06.13.01.095
 N54.39.20.465 W06.13.02.456
 N54.39.19.994 W06.13.03.144
 N54.39.19.177 W06.13.04.201
 N54.39.18.084 W06.13.05.429
 N54.39.17.445 W06.13.05.919
 N54.39.16.862 W06.13.06.567
 N54.39.15.839 W06.13.07.025
 N54.39.16.238 W06.13.05.027 
 N54.39.16.604 W06.13.04.589
 N54.39.17.049 W06.13.02.317
 N54.39.16.073 W06.13.01.655
 N54.39.15.660 W06.13.01.584
 N54.39.15.441 W06.13.01.877
 N54.39.15.215 W06.13.03.181
 N54.39.15.018 W06.13.03.597
 N54.39.13.917 W06.13.02.978
 N54.39.13.714 W06.13.02.520
 N54.39.13.193 W06.13.02.354
 N54.39.13.201 W06.13.02.699
 N54.39.13.555 W06.13.02.917
 N54.39.13.709 W06.13.03.174
 N54.39.13.725 W06.13.03.352
 N54.39.13.800 W06.13.03.721
 N54.39.13.812 W06.13.03.824
 N54.39.13.806 W06.13.03.954
 N54.39.13.206 W06.13.03.335
 N54.39.12.754 W06.13.03.047
 N54.39.12.209 W06.13.05.620
 N54.39.12.489 W06.13.05.652
 N54.39.12.664 W06.13.05.097
 N54.39.13.438 W06.13.05.421
 N54.39.13.664 W06.13.05.821
 N54.39.13.690 W06.13.06.790
 N54.39.12.288 W06.13.08.792
 N54.39.11.844 W06.13.08.563
 N54.39.12.255 W06.13.06.274
 N54.39.09.337 W06.13.04.468
 N54.39.09.431 W06.13.04.121
 N54.39.09.689 W06.13.03.776
 N54.39.09.941 W06.13.03.651
 N54.39.10.110 W06.13.03.734
 N54.39.10.675 W06.13.01.625
 N54.39.08.394 W06.13.00.084
 N54.39.07.878 W06.13.02.633
 N54.39.02.429 W06.12.59.699
 N54.38.59.535 W06.13.15.155
 N54.39.00.746 W06.13.15.945
 N54.38.57.935 W06.13.18.743
 N54.38.55.130 W06.13.17.613
 N54.38.54.949 W06.13.16.786
 N54.38.54.994 W06.13.15.876
 N54.38.54.435 W06.13.15.864
 N54.38.54.329 W06.13.16.373
 N54.38.54.127 W06.13.16.716
 N54.38.53.854 W06.13.16.888
 N54.38.51.831 W06.13.15.945
 N54.38.51.360 W06.13.15.117
 N54.38.51.321 W06.13.14.569
 N54.38.51.468 W06.13.13.154
 N54.38.51.435 W06.13.12.540
 N54.38.51.212 W06.13.11.901
 N54.38.50.861 W06.13.11.436
 N54.38.46.295 W06.13.08.970
 N54.38.45.929 W06.13.09.076
 N54.38.45.680 W06.13.09.427
 N54.38.45.285 W06.13.10.952
 N54.38.44.993 W06.13.11.483
 N54.38.44.602 W06.13.11.765
 N54.38.44.074 W06.13.11.713
 N54.38.43.581 W06.13.11.423
 N54.38.34.878 W06.13.06.719
 N54.38.32.089 W06.13.06.733
 N54.38.31.288 W06.13.07.183
 N54.38.30.619 W06.13.07.436
 N54.38.30.289 W06.13.07.804
 N54.38.30.243 W06.13.08.316
 N54.38.29.272 W06.13.07.853
 N54.38.28.669 W06.13.11.131
 N54.38.29.533 W06.13.11.557
 N54.38.29.653 W06.13.13.627
 N54.38.29.798 W06.13.14.527
 N54.38.30.023 W06.13.15.492
 N54.38.30.489 W06.13.16.499
 N54.38.31.099 W06.13.17.280
 N54.38.31.652 W06.13.17.814
 N54.38.47.647 W06.13.26.603
 N54.38.49.357 W06.13.29.250
 N54.38.49.355 W06.13.29.500
 N54.38.47.390 W06.13.29.455
 N54.38.46.831 W06.13.28.960
 N54.38.46.692 W06.13.31.487
 N54.38.47.930 W06.13.31.497
 N54.38.48.005 W06.13.32.085
 N54.38.48.322 W06.13.32.265
 N54.38.48.494 W06.13.30.893 
 N54.38.49.403 W06.13.30.875
 N54.38.49.525 W06.13.30.615
 N54.38.49.755 W06.13.30.493
 N54.38.49.791 W06.13.30.642
 N54.38.49.256 W06.13.32.641
 N54.38.49.456 W06.13.32.948
 N54.38.50.064 W06.13.30.730
 N54.38.50.136 W06.13.30.679
 N54.38.51.798 W06.13.33.600
 N54.38.52.922 W06.13.35.889
 N54.38.52.237 W06.13.39.183 
 N54.38.52.176 W06.13.39.245
 N54.38.50.841 W06.13.38.683
 N54.38.50.472 W06.13.39.862
 N54.38.51.467 W06.13.40.583
 N54.38.51.328 W06.13.41.821
 N54.38.51.950 W06.13.42.364
 N54.38.53.244 W06.13.36.453
 N54.38.54.934 W06.13.39.103
 N54.38.55.137 W06.13.39.890
 N54.38.56.095 W06.13.42.565
 N54.38.56.454 W06.13.42.838
 N54.38.57.686 W06.13.42.220
 N54.38.58.351 W06.13.44.059
 N54.38.58.830 W06.13.44.307
 N54.38.59.371 W06.13.43.931
 N54.39.00.224 W06.13.43.237
 N54.39.00.495 W06.13.43.247
 N54.39.00.500 W06.13.43.265
 N54.39.00.372 W06.13.45.233
 N54.39.00.407 W06.13.46.073
 N54.39.00.617 W06.13.46.612
 N54.39.01.091 W06.13.46.817
 N54.39.01.571 W06.13.46.868
 N54.39.02.221 W06.13.46.990
 N54.39.02.620 W06.13.47.263
 N54.39.07.918 W06.14.03.686
 N54.39.07.713 W06.14.04.091
 N54.39.07.609 W06.14.04.660
 N54.39.07.631 W06.14.05.327
 N54.39.07.382 W06.14.06.238;south side end
 N54.39.08.865 W06.14.07.456
 N54.39.09.054 W06.14.06.614
 N54.39.09.405 W06.14.06.363
 N54.39.09.592 W06.14.05.839
 N54.39.09.696 W06.14.05.233
 N54.39.09.636 W06.14.04.493
 N54.39.10.008 W06.14.02.962
 N54.39.10.469 W06.14.02.153
 N54.39.10.883 W06.14.01.938
 N54.39.11.684 W06.14.01.942
 N54.39.12.983 W06.14.02.974
 N54.39.12.873 W06.14.04.000
 N54.39.13.522 W06.14.04.319
 N54.39.14.459 W06.14.04.938
 N54.39.14.535 W06.14.05.117
 N54.39.14.476 W06.14.05.620
 N54.39.15.834 W06.14.06.503
 N54.39.15.931 W06.14.05.954
 N54.39.15.693 W06.14.05.764
 N54.39.16.017 W06.14.04.849
 N54.39.16.335 W06.14.04.521
 N54.39.16.703 W06.14.04.239
 N54.39.17.093 W06.14.04.475
 N54.39.17.357 W06.14.04.814
 N54.39.17.896 W06.14.05.662
 N54.39.20.269 W06.14.11.336
 N54.39.21.326 W06.14.11.298
 N54.39.21.970 W06.14.12.126
 N54.39.22.077 W06.14.13.404
 N54.39.22.058 W06.14.13.878
 N54.39.22.354 W06.14.14.005
 N54.39.22.532 W06.14.13.505
 N54.39.22.580 W06.14.13.422
 N54.39.24.001 W06.14.13.169
 N54.39.24.092 W06.14.12.664
 N54.39.23.850 W06.14.12.566
 N54.39.24.072 W06.14.09.703
 N54.39.23.651 W06.14.07.803
 N54.39.23.596 W06.14.07.391
 N54.39.24.385 W06.14.03.887
 N54.39.25.147 W06.13.59.157
 N54.39.26.266 W06.13.50.228
 N54.39.26.620 W06.13.46.617
 N54.39.26.728 W06.13.43.575
 N54.39.30.103 W06.13.45.390
 N54.39.30.602 W06.13.42.744
 N54.39.26.720 W06.13.40.600
 N54.39.28.026 W06.13.20.268
 N54.39.28.883 W06.13.15.291
 N54.39.29.433 W06.13.13.089
 N54.39.29.723 W06.13.12.630
 N54.39.30.034 W06.13.12.526
 N54.39.30.343 W06.13.12.599
 N54.39.33.921 W06.13.15.627
 N54.39.34.109 W06.13.16.153
 N54.39.34.148 W06.13.16.649
 N54.39.34.083 W06.13.17.572
 N54.39.31.176 W06.13.15.150
 N54.39.30.715 W06.13.17.015
 N54.39.31.071 W06.13.19.533
 N54.39.33.059 W06.13.21.245
 N54.39.32.947 W06.13.21.765
 N54.39.36.430 W06.13.24.861
 N54.39.38.319 W06.13.18.013
 N54.39.38.426 W06.13.18.094
 N54.39.38.624 W06.13.17.345
 N54.39.36.766 W06.13.07.191
 N54.39.34.608 W06.13.05.390
 N54.39.34.884 W06.13.04.364
 N54.39.34.984 W06.13.04.435
 N54.39.35.441 W06.13.03.234
 N54.39.35.666 W06.13.03.448
 N54.39.35.272 W06.13.04.715
 N54.39.37.039 W06.13.06.240
 N54.39.37.018 W06.13.06.603
 N54.39.37.700 W06.13.07.063
 N54.39.40.022 W06.13.02.404
 N54.39.39.715 W06.13.02.085
 N54.39.42.747 W06.12.54.685
 N54.39.43.580 W06.12.51.538
 N54.39.45.543 W06.12.42.958
 N54.39.39.018 W06.12.37.964
 N54.39.40.449 W06.12.32.538
 N54.39.40.657 W06.12.32.327
 N54.39.43.598 W06.12.34.354
 N54.39.45.060 W06.12.29.513
 N54.39.43.657 W06.12.28.362
 N54.39.42.383 W06.12.32.424
 N54.39.41.113 W06.12.31.604
 N54.39.40.970 W06.12.31.081
 N54.39.40.971 W06.12.30.560
 N54.39.50.435 W06.11.55.714
 N54.39.50.646 W06.11.53.210
 N54.39.50.370 W06.11.51.355
 N54.39.49.792 W06.11.49.823
 N54.39.48.576 W06.11.48.318
 N54.39.46.677 W06.11.46.714
 
;35/17
REGIONNAME Aldergrove
runway N54.38.28.668 W06.13.11.138
 N54.38.29.263 W06.13.07.847
 N54.38.30.246 W06.13.08.324
 N54.38.33.116 W06.13.10.392
 N54.39.24.387 W06.13.39.202
 N54.39.26.715 W06.13.40.582
 N54.39.30.611 W06.13.42.744
 N54.39.30.112 W06.13.45.387
 N54.38.42.009 W06.13.18.393
 N54.38.41.333 W06.13.18.103
 N54.38.30.499 W06.13.12.175
 N54.38.29.535 W06.13.11.550
 
;17/07
REGIONNAME Aldergrove
runway N54.39.45.290 W06.11.45.651
 N54.39.08.528 W06.14.01.762
 N54.39.07.920 W06.14.03.697
 N54.39.07.712 W06.14.04.083
 N54.39.07.608 W06.14.04.645
 N54.39.07.630 W06.14.05.198
 N54.39.07.358 W06.14.06.220
 N54.39.08.863 W06.14.07.453
 N54.39.09.403 W06.14.06.363
 N54.39.09.591 W06.14.05.836
 N54.39.09.695 W06.14.05.238
 N54.39.09.636 W06.14.04.490
 N54.39.11.305 W06.13.58.321
 N54.39.46.739 W06.11.46.762

;island between 25 and A
REGIONNAME Aldergrove
grass N54.39.46.090 W06.11.49.203
 N54.39.46.354 W06.11.49.094
 N54.39.46.606 W06.11.49.096
 N54.39.48.275 W06.11.49.917
 N54.39.48.959 W06.11.50.848
 N54.39.49.422 W06.11.51.834
 N54.39.49.711 W06.11.53.289
 N54.39.49.603 W06.11.55.237
 N54.39.35.459 W06.12.48.031
 N54.39.34.940 W06.12.48.977
 N54.39.33.556 W06.12.48.769
 N54.39.31.229 W06.12.46.412
 N54.39.31.048 W06.12.45.924
 N54.39.30.972 W06.12.45.296

;islands between 25 and terminal
REGIONNAME Aldergrove
grass N54.39.30.087 W06.12.48.676
 N54.39.30.418 W06.12.48.403
 N54.39.30.852 W06.12.48.398
 N54.39.33.289 W06.12.49.860
 N54.39.34.152 W06.12.51.429
 N54.39.34.106 W06.12.53.130
 N54.39.28.169 W06.13.14.706
 N54.39.27.693 W06.13.16.997
 N54.39.27.371 W06.13.19.127
 N54.39.26.105 W06.13.36.731
 N54.39.25.777 W06.13.37.859
 N54.39.25.280 W06.13.38.711
 N54.39.24.432 W06.13.39.229
 N54.39.17.497 W06.13.35.326

;35 end islands
REGIONNAME Aldergrove
grass N54.38.30.496 W06.13.12.186
 N54.38.41.339 W06.13.18.122
 N54.38.41.214 W06.13.18.687
 N54.38.41.229 W06.13.19.678
 N54.38.41.430 W06.13.21.243
 N54.38.41.389 W06.13.21.703
 N54.38.41.184 W06.13.21.843
 N54.38.41.029 W06.13.21.932
 N54.38.40.897 W06.13.21.995
 N54.38.31.753 W06.13.16.931
 N54.38.31.290 W06.13.16.464
 N54.38.30.973 W06.13.16.076
 N54.38.30.811 W06.13.15.790
 N54.38.30.698 W06.13.15.460
 N54.38.30.425 W06.13.14.834
 N54.38.30.328 W06.13.14.516
 N54.38.30.250 W06.13.14.203
 N54.38.30.159 W06.13.13.637
 N54.38.30.160 W06.13.13.131
 N54.38.30.234 W06.13.12.714
 N54.38.30.356 W06.13.12.303

REGIONNAME Aldergrove
grass N54.38.33.125 W06.13.10.385
 N54.38.41.809 W06.13.15.277
 N54.38.42.027 W06.13.14.375
 N54.38.42.339 W06.13.13.738
 N54.38.42.778 W06.13.13.345
 N54.38.43.667 W06.13.12.959
 N54.38.43.689 W06.13.12.504
 N54.38.43.372 W06.13.12.213
 N54.38.34.815 W06.13.07.599
 N54.38.34.205 W06.13.07.533
 N54.38.33.043 W06.13.07.600
 N54.38.32.572 W06.13.07.778
 N54.38.32.579 W06.13.08.432
 N54.38.32.911 W06.13.09.841
 
;islands 35 and F
REGIONNAME Aldergrove
grass N54.39.01.231 W06.13.26.108
 N54.39.01.691 W06.13.25.528
 N54.39.01.933 W06.13.25.043
 N54.39.01.930 W06.13.25.039
 N54.39.01.993 W06.13.24.338
 N54.39.01.918 W06.13.23.479
 N54.39.01.714 W06.13.22.858
 N54.39.01.098 W06.13.22.215
 N54.38.56.909 W06.13.19.432 
 N54.38.44.049 W06.13.13.986
 N54.38.43.605 W06.13.13.884
 N54.38.43.165 W06.13.14.060
 N54.38.42.674 W06.13.14.552
 N54.38.42.544 W06.13.14.904
 N54.38.42.607 W06.13.15.408
 N54.38.42.698 W06.13.15.775
 
;islands between f and apron e
REGIONNAME Aldergrove
grass N54.39.10.421 W06.13.11.507
 N54.39.04.252 W06.13.08.066
 N54.39.03.393 W06.13.12.498
 N54.39.04.189 W06.13.12.947
 N54.39.03.810 W06.13.14.947
 N54.39.04.074 W06.13.15.210
 N54.39.04.540 W06.13.16.032
 N54.39.04.241 W06.13.16.229
 N54.39.04.078 W06.13.15.914
 N54.39.03.823 W06.13.15.552
 N54.39.01.882 W06.13.14.592
 N54.39.01.560 W06.13.15.083
 N54.39.01.288 W06.13.16.238
 N54.38.59.618 W06.13.18.062
 N54.38.59.393 W06.13.18.698
 N54.38.59.432 W06.13.19.199
 N54.38.59.347 W06.13.19.657
 N54.38.59.430 W06.13.19.870
 N54.39.01.453 W06.13.17.923
 N54.39.01.808 W06.13.17.854
 N54.39.02.101 W06.13.18.178
 N54.39.02.241 W06.13.18.747
 N54.39.02.808 W06.13.21.897
 N54.39.03.346 W06.13.21.703
 N54.39.03.462 W06.13.18.186
 N54.39.03.649 W06.13.17.659
 N54.39.03.964 W06.13.17.375
 N54.39.04.393 W06.13.17.374
 N54.39.05.422 W06.13.18.065
 N54.39.05.362 W06.13.16.278
 N54.39.05.430 W06.13.15.711
 N54.39.05.640 W06.13.15.110
 N54.39.07.836 W06.13.12.500
 N54.39.10.250 W06.13.13.499
 N54.39.12.609 W06.13.10.531
 N54.39.12.517 W06.13.10.055
 N54.39.12.309 W06.13.09.797
 N54.39.10.907 W06.13.08.842

;islands between 25 and DA1
REGIONNAME Aldergrove
grass N54.39.31.934 W06.12.35.083
 N54.39.15.907 W06.13.34.435
 N54.39.02.632 W06.13.26.931
 N54.39.02.408 W06.13.26.013
 N54.39.02.410 W06.13.25.124
 N54.39.02.705 W06.13.23.714
 N54.39.02.974 W06.13.23.246
 N54.39.03.308 W06.13.23.003
 N54.39.03.719 W06.13.23.039
 N54.39.05.989 W06.13.24.219
 N54.39.06.361 W06.13.24.152
 N54.39.06.630 W06.13.23.793
 N54.39.06.774 W06.13.23.302
 N54.39.06.717 W06.13.20.990
 N54.39.07.728 W06.13.21.815
 N54.39.08.121 W06.13.21.817
 N54.39.08.431 W06.13.21.607
 N54.39.10.337 W06.13.19.242
 N54.39.10.464 W06.13.18.852
 N54.39.10.508 W06.13.16.261
 N54.39.11.748 W06.13.16.974
 N54.39.12.080 W06.13.16.945
 N54.39.12.346 W06.13.16.627
 N54.39.12.473 W06.13.16.133
 N54.39.12.355 W06.13.13.867
 N54.39.13.613 W06.13.14.786
 N54.39.13.983 W06.13.14.718
 N54.39.14.228 W06.13.14.439
 N54.39.14.335 W06.13.13.835
 N54.39.14.261 W06.13.11.502
 N54.39.15.536 W06.13.12.370
 N54.39.16.218 W06.13.11.637
 N54.39.16.661 W06.13.08.127
 N54.39.17.119 W06.13.07.639
 N54.39.17.835 W06.13.06.628
 N54.39.18.105 W06.13.06.439
 N54.39.18.739 W06.13.05.734
 N54.39.20.334 W06.13.03.841
 N54.39.21.349 W06.13.02.134
 N54.39.25.232 W06.12.50.319
 N54.39.27.288 W06.12.40.266
 N54.39.28.233 W06.12.36.623
 N54.39.28.671 W06.12.35.181
 N54.39.29.019 W06.12.34.345
 N54.39.29.515 W06.12.33.717
 N54.39.29.977 W06.12.33.371
 N54.39.30.404 W06.12.33.271
 N54.39.30.906 W06.12.33.338
 N54.39.31.503 W06.12.33.837
 N54.39.31.812 W06.12.34.408

;NORTH OF D1 ISLAND
REGIONNAME Aldergrove
grass N54.39.21.421 W06.13.59.220
 N54.39.23.588 W06.14.04.170
 N54.39.23.669 W06.14.04.191
 N54.39.23.832 W06.14.04.005
 N54.39.24.743 W06.13.59.236
 N54.39.25.554 W06.13.52.795
 N54.39.26.166 W06.13.46.967
 N54.39.26.255 W06.13.45.599
 N54.39.26.132 W06.13.44.320
 N54.39.25.867 W06.13.44.357
 N54.39.24.865 W06.13.46.731
 N54.39.25.541 W06.13.49.988
 N54.39.25.556 W06.13.50.826
 N54.39.25.330 W06.13.51.574
 N54.39.24.896 W06.13.51.855
 N54.39.23.743 W06.13.51.677
 N54.39.24.149 W06.13.53.768
 N54.39.24.147 W06.13.54.439
 N54.39.23.980 W06.13.54.866
 N54.39.23.613 W06.13.55.145
 N54.39.22.312 W06.13.55.005
 N54.39.22.759 W06.13.57.069
 N54.39.22.777 W06.13.57.560
 N54.39.22.651 W06.13.58.049
 N54.39.22.363 W06.13.58.364
 N54.39.19.893 W06.13.58.468
 N54.39.19.370 W06.13.59.703
 N54.39.19.388 W06.14.00.129
 N54.39.19.508 W06.14.00.474
 N54.39.19.989 W06.14.00.723
 N54.39.20.129 W06.14.00.654

;island between 07 and D1
REGIONNAME Aldergrove
grass N54.39.24.309 W06.13.42.249
 N54.39.16.792 W06.13.37.914
 N54.39.11.303 W06.13.58.323
 N54.39.11.280 W06.13.58.870
 N54.39.11.317 W06.13.59.493
 N54.39.12.024 W06.14.00.918
 N54.39.13.967 W06.14.02.254
 N54.39.18.688 W06.13.58.855
 N54.39.19.054 W06.13.58.370
 N54.39.19.464 W06.13.57.371
 N54.39.18.799 W06.13.54.210
 N54.39.18.865 W06.13.53.460
 N54.39.19.114 W06.13.53.050
 N54.39.19.570 W06.13.52.947
 N54.39.20.643 W06.13.53.059
 N54.39.20.216 W06.13.51.083
 N54.39.20.174 W06.13.50.400
 N54.39.20.341 W06.13.49.863
 N54.39.20.690 W06.13.49.623
 N54.39.22.072 W06.13.49.594
 N54.39.21.556 W06.13.47.355
 N54.39.21.565 W06.13.46.786
 N54.39.21.669 W06.13.46.545
 N54.39.22.000 W06.13.46.294
 N54.39.24.094 W06.13.46.380
 N54.39.24.779 W06.13.44.705
 N54.39.24.847 W06.13.43.788
 N54.39.24.728 W06.13.43.121

;J islands
REGIONNAME Aldergrove
grass N54.38.42.016 W06.13.18.415
 N54.39.15.202 W06.13.37.020
 N54.39.08.479 W06.14.01.895
 N54.39.08.156 W06.14.01.929
 N54.39.07.912 W06.14.01.684
 N54.39.07.748 W06.14.01.286
 N54.39.05.443 W06.13.53.946
 N54.39.05.362 W06.13.53.318
 N54.39.05.365 W06.13.52.528
 N54.39.05.773 W06.13.50.497
 N54.39.05.794 W06.13.50.037
 N54.39.05.764 W06.13.49.371
 N54.39.05.640 W06.13.48.970
 N54.39.05.104 W06.13.48.340
 N54.39.04.612 W06.13.48.086
 N54.39.04.547 W06.13.47.314
 N54.39.04.742 W06.13.45.744
 N54.39.04.719 W06.13.45.568
 N54.39.03.056 W06.13.41.417
 N54.39.02.759 W06.13.41.183
 N54.39.00.839 W06.13.40.803
 N54.39.00.043 W06.13.38.455
 N54.38.59.631 W06.13.38.130
 N54.38.58.394 W06.13.38.945
 N54.38.58.084 W06.13.37.719 
 N54.38.57.726 W06.13.36.936
 N54.38.57.311 W06.13.36.697
 N54.38.55.158 W06.13.38.179
 N54.38.54.988 W06.13.38.096
 N54.38.54.786 W06.13.37.796
 N54.38.54.617 W06.13.37.409
 N54.38.54.633 W06.13.37.069
 N54.38.54.750 W06.13.35.813
 N54.38.54.578 W06.13.35.596
 N54.38.54.268 W06.13.35.620
 N54.38.54.093 W06.13.35.955
 N54.38.53.921 W06.13.36.023
 N54.38.53.762 W06.13.35.555
 N54.38.53.922 W06.13.32.486
 N54.38.53.849 W06.13.31.876
 N54.38.53.407 W06.13.31.226
 N54.38.52.923 W06.13.30.955
 N54.38.51.301 W06.13.31.191
 N54.38.51.098 W06.13.30.841
 N54.38.51.097 W06.13.27.830
 N54.38.51.054 W06.13.27.399
 N54.38.51.000 W06.13.27.012
 N54.38.50.723 W06.13.26.601
 N54.38.50.134 W06.13.26.441
 N54.38.48.413 W06.13.26.463
 N54.38.47.546 W06.13.25.596
 N54.38.43.282 W06.13.23.237
 N54.38.42.595 W06.13.22.532
 N54.38.42.030 W06.13.21.530
 N54.38.41.828 W06.13.20.583
 N54.38.41.724 W06.13.19.620
 N54.38.41.751 W06.13.18.871

;buildings
REGIONNAME Aldergrove
terminal N54.39.19.417 W06.14.10.049
 N54.39.20.770 W06.14.08.534
 N54.39.18.972 W06.14.04.242
 N54.39.17.749 W06.14.05.666

REGIONNAME Aldergrove
terminal N54.38.51.130 W06.13.41.861
 N54.38.50.265 W06.13.41.266
 N54.38.50.537 W06.13.40.114
 N54.38.51.360 W06.13.40.600

REGIONNAME Aldergrove
terminal N54.38.46.465 W06.13.31.388
 N54.38.46.494 W06.13.29.068
 N54.38.44.296 W06.13.29.156
 N54.38.44.290 W06.13.31.314

REGIONNAME Aldergrove
terminal N54.38.55.638 W06.13.13.641
 N54.38.55.249 W06.13.07.821
 N54.38.54.136 W06.13.08.179
 N54.38.54.564 W06.13.13.757

REGIONNAME Aldergrove
terminal N54.39.02.755 W06.12.59.339
 N54.39.03.129 W06.12.57.506
 N54.39.06.076 W06.12.58.962
 N54.39.05.707 W06.13.00.948

REGIONNAME Aldergrove
terminal N54.39.06.131 W06.13.01.268
 N54.39.06.587 W06.12.59.121
 N54.39.08.203 W06.12.59.957
 N54.39.07.791 W06.13.02.202

REGIONNAME Aldergrove
terminal N54.39.12.000 W06.13.05.626 
 N54.39.12.560 W06.13.02.945
 N54.39.10.682 W06.13.01.795
 N54.39.10.032 W06.13.04.393

REGIONNAME Aldergrove
terminal N54.39.37.696 W06.13.26.753
 N54.39.36.347 W06.13.25.717
 N54.39.38.767 W06.13.17.425
 N54.39.39.992 W06.13.18.312

REGIONNAME Aldergrove
terminal N54.39.34.610 W06.13.05.392
 N54.39.37.757 W06.13.08.017
 N54.39.40.846 W06.13.02.191
 N54.39.41.139 W06.13.02.332
 N54.39.41.283 W06.13.01.840
 N54.39.41.902 W06.13.02.308
 N54.39.42.173 W06.13.01.350
 N54.39.42.359 W06.13.01.493
 N54.39.41.878 W06.13.03.191
 N54.39.41.608 W06.13.03.296
 N54.39.41.340 W06.13.04.359
 N54.39.41.420 W06.13.04.822
 N54.39.41.338 W06.13.05.172
 N54.39.42.943 W06.13.06.421
 N54.39.43.381 W06.13.04.682
 N54.39.44.082 W06.13.04.860
 N54.39.44.726 W06.13.02.209
 N54.39.44.027 W06.13.01.714
 N54.39.43.947 W06.13.02.061
 N54.39.42.483 W06.13.00.961
 N54.39.44.292 W06.12.53.488
 N54.39.44.006 W06.12.53.172
 N54.39.43.341 W06.12.55.603
 N54.39.43.053 W06.12.55.433
 N54.39.44.008 W06.12.51.855
 N54.39.43.582 W06.12.51.540
 N54.39.42.744 W06.12.54.686
 N54.39.40.768 W06.12.53.305
 N54.39.40.128 W06.12.55.780
 N54.39.40.225 W06.12.56.343
 N54.39.40.677 W06.12.56.700
 N54.39.40.090 W06.12.59.494
 N54.39.40.334 W06.12.59.735
 N54.39.40.132 W06.13.00.699
 N54.39.39.433 W06.13.00.169
 N54.39.39.538 W06.12.59.604
 N54.39.39.329 W06.12.59.423
 N54.39.39.078 W06.13.00.232
 N54.39.39.898 W06.13.00.909
 N54.39.39.531 W06.13.01.234
 N54.39.39.713 W06.13.02.084
 N54.39.40.023 W06.13.02.404
 N54.39.37.700 W06.13.07.060
 N54.39.37.021 W06.13.06.605
 N54.39.37.043 W06.13.06.252
 N54.39.35.272 W06.13.04.719
 N54.39.35.667 W06.13.03.448
 N54.39.35.441 W06.13.03.235
 N54.39.34.984 W06.13.04.431
 N54.39.34.882 W06.13.04.364

;- J ISLANDS
REGIONNAME Aldergrove
grass N054.39.05.187 W006.13.50.189
 N054.39.04.856 W006.13.49.243
 N054.39.04.108 W006.13.48.987
 N054.39.04.093 W006.13.49.645
 N054.39.04.582 W006.13.51.141
 N054.39.05.089 W006.13.51.073
 N054.39.05.126 W006.13.50.942
 N054.39.05.187 W006.13.50.189

REGIONNAME Aldergrove
grass N054.39.03.857 W006.13.47.697
 N054.39.03.982 W006.13.46.557
 N054.39.03.657 W006.13.45.596
 N054.39.02.954 W006.13.45.232
 N054.39.02.906 W006.13.45.978
 N054.39.03.396 W006.13.47.496
 N054.39.03.571 W006.13.47.685
 N054.39.03.657 W006.13.47.748 
 N054.39.03.857 W006.13.47.697

REGIONNAME Aldergrove
grass N054.39.02.736 W006.13.42.760
 N054.39.02.416 W006.13.41.947 
 N054.39.01.623 W006.13.41.771 
 N054.39.01.421 W006.13.42.663 
 N054.39.02.157 W006.13.43.891 
 N054.39.02.666 W006.13.43.858 
 N054.39.02.736 W006.13.42.760

REGIONNAME Aldergrove
grass N054.39.00.128 W006.13.40.782
 N054.38.59.864 W006.13.39.670 
 N054.38.59.332 W006.13.39.081 
 N054.38.58.539 W006.13.39.879 
 N054.38.58.790 W006.13.40.423 
 N054.38.59.818 W006.13.41.128 
 N054.39.00.128 W006.13.40.782

REGIONNAME Aldergrove
grass N054.38.53.362 W006.13.33.590
 N054.38.53.364 W006.13.32.943 
 N054.38.53.157 W006.13.32.473 
 N054.38.52.980 W006.13.32.269
 N054.38.52.532 W006.13.32.114 
 N054.38.52.333 W006.13.32.250 
 N054.38.52.230 W006.13.32.505 
 N054.38.52.302 W006.13.32.942
 N054.38.52.922 W006.13.34.051 
 N054.38.53.091 W006.13.34.121 
 N054.38.53.362 W006.13.33.590

REGIONNAME Aldergrove
grass N054.38.50.594 W006.13.29.096
 N054.38.50.546 W006.13.28.109 
 N054.38.50.098 W006.13.27.437 
 N054.38.49.421 W006.13.27.412 
 N054.38.49.401 W006.13.28.263 
 N054.38.50.101 W006.13.29.323 
 N054.38.50.462 W006.13.29.324 

REGIONNAME Aldergrove
grass N054.38.58.216 W006.13.42.051
 N054.38.58.587 W006.13.42.972
 N054.38.59.072 W006.13.43.293
 N054.38.59.785 W006.13.42.737
 N054.38.59.386 W006.13.41.829 
 N054.38.58.635 W006.13.41.365 
 N054.38.58.216 W006.13.42.051

REGIONNAME Aldergrove
grass N054.39.01.494 W006.13.44.039
 N054.39.02.151 W006.13.45.365 
 N054.39.02.034 W006.13.45.904 
 N054.39.01.338 W006.13.45.882 
 N054.39.00.871 W006.13.45.135 
 N054.39.00.926 W006.13.43.952 
 N054.39.01.494 W006.13.44.039

;e islands
REGIONNAME Aldergrove
grass N54.39.01.983 W06.13.21.214
 N54.39.01.759 W06.13.20.155
 N54.39.01.143 W06.13.19.764
 N54.39.00.522 W06.13.20.296
 N54.39.00.744 W06.13.21.177
 N54.39.01.613 W06.13.21.535

REGIONNAME Aldergrove
grass N54.39.04.174 W06.13.20.695
 N54.39.04.528 W06.13.20.906
 N54.39.05.392 W06.13.19.995
 N54.39.05.422 W06.13.19.141
 N54.39.04.818 W06.13.18.928
 N54.39.04.161 W06.13.19.587

REGIONNAME Aldergrove
grass N54.39.04.935 W06.13.22.443
 N54.39.05.514 W06.13.22.649
 N54.39.06.028 W06.13.22.017
 N54.39.06.134 W06.13.20.816
 N54.39.05.701 W06.13.20.676
 N54.39.04.941 W06.13.21.445

REGIONNAME Aldergrove
grass N54.39.06.797 W06.13.20.038
 N54.39.07.478 W06.13.20.139
 N54.39.07.954 W06.13.19.615
 N54.39.07.980 W06.13.18.405
 N54.39.07.591 W06.13.18.303
 N54.39.06.781 W06.13.19.254

REGIONNAME Aldergrove
grass N54.39.06.063 W06.13.18.328
 N54.39.06.535 W06.13.18.373
 N54.39.07.304 W06.13.17.486
 N54.39.07.345 W06.13.16.636
 N54.39.06.702 W06.13.16.494
 N54.39.06.169 W06.13.17.130

REGIONNAME Aldergrove
grass N54.39.08.750 W06.13.17.638
 N54.39.09.348 W06.13.17.782
 N54.39.09.846 W06.13.17.224
 N54.39.09.932 W06.13.16.188
 N54.39.09.392 W06.13.16.044
 N54.39.08.713 W06.13.16.819

REGIONNAME Aldergrove
grass N54.39.07.948 W06.13.16.002
 N54.39.08.380 W06.13.16.107
 N54.39.09.085 W06.13.15.192
 N54.39.09.148 W06.13.14.450
 N54.39.08.510 W06.13.14.238
 N54.39.07.994 W06.13.14.863

REGIONNAME Aldergrove
grass N54.39.12.437 W06.13.12.865
 N54.39.13.077 W06.13.13.153
 N54.39.13.677 W06.13.12.415
 N54.39.13.762 W06.13.11.418
 N54.39.13.223 W06.13.11.104
 N54.39.12.479 W06.13.12.125

REGIONNAME Aldergrove
grass N54.39.15.563 W06.13.06.855
 N54.39.15.878 W06.13.05.182
 N54.39.15.189 W06.13.04.821
 N54.39.14.919 W06.13.04.245
 N54.39.14.843 W06.13.03.938
 N54.39.14.263 W06.13.03.621
 N54.39.14.151 W06.13.04.311
 N54.39.15.398 W06.13.06.765

REGIONNAME Aldergrove
grass N54.39.23.467 W06.12.25.692
 N54.39.23.780 W06.12.24.735
 N54.39.23.510 W06.12.23.664
 N54.39.22.846 W06.12.23.350
 N54.39.22.667 W06.12.24.044
 N54.39.23.033 W06.12.25.547

REGIONNAME Aldergrove
grass N54.39.22.559 W06.12.25.794
 N54.39.22.210 W06.12.24.407
 N54.39.21.794 W06.12.24.263
 N54.39.21.550 W06.12.25.332
 N54.39.21.771 W06.12.26.251
 N54.39.22.412 W06.12.26.431

REGIONNAME Aldergrove
grass N54.39.23.586 W06.12.27.573
 N54.39.24.027 W06.12.29.091
 N54.39.24.387 W06.12.29.330
 N54.39.24.701 W06.12.28.142
 N54.39.24.518 W06.12.27.325
 N54.39.23.795 W06.12.26.866

REGIONNAME Aldergrove
grass N54.39.22.530 W06.12.29.010
 N54.39.22.752 W06.12.27.921
 N54.39.23.213 W06.12.28.085
 N54.39.23.538 W06.12.29.554
 N54.39.23.230 W06.12.30.085
 N54.39.22.777 W06.12.29.944

REGIONNAME Aldergrove
grass N54.39.24.150 W06.12.32.923
 N54.39.24.726 W06.12.33.558
 N54.39.25.261 W06.12.33.101
 N54.39.25.261 W06.12.33.095
 N54.39.25.021 W06.12.32.177
 N54.39.24.382 W06.12.31.610
 N54.39.23.885 W06.12.31.893
 
;islands north of d1/2
REGIONNAME Aldergrove
grass N54.39.20.532 W06.14.07.669
 N54.39.21.346 W06.14.06.903
 N54.39.21.503 W06.14.06.959
 N54.39.21.601 W06.14.08.354
 N54.39.21.527 W06.14.08.634
 N54.39.21.249 W06.14.08.836
 N54.39.21.078 W06.14.08.821
 N54.39.20.920 W06.14.08.767
 N54.39.20.773 W06.14.08.500
 N54.39.20.713 W06.14.08.266

REGIONNAME Aldergrove
grass N54.39.18.860 W06.14.04.004
 N54.39.18.929 W06.14.03.722
 N54.39.19.586 W06.14.03.126
 N54.39.19.796 W06.14.03.092
 N54.39.20.572 W06.14.04.598
 N54.39.20.588 W06.14.04.905
 N54.39.19.692 W06.14.05.978

REGIONNAME Aldergrove
grass N54.39.14.573 W06.14.03.475
 N54.39.14.774 W06.14.03.752
 N54.39.15.044 W06.14.03.752
 N54.39.16.121 W06.14.03.085
 N54.39.16.206 W06.14.02.627
 N54.39.15.980 W06.14.02.344
 N54.39.14.676 W06.14.03.118

REGIONNAME Aldergrove
grass N54.39.17.626 W06.14.03.448
 N54.39.18.118 W06.14.03.162
 N54.39.18.805 W06.14.02.322
 N54.39.18.972 W06.14.01.827
 N54.39.18.931 W06.14.01.437
 N54.39.18.726 W06.14.01.084
 N54.39.18.413 W06.14.00.900
 N54.39.17.895 W06.14.00.970
 N54.39.17.221 W06.14.01.357
 N54.39.16.908 W06.14.01.890
 N54.39.16.865 W06.14.02.528
 N54.39.17.112 W06.14.03.091

REGIONNAME Aldergrove
grass N54.39.20.385 W06.13.57.307
 N54.39.21.730 W06.13.57.130
 N54.39.21.894 W06.13.56.812
 N54.39.21.814 W06.13.55.144
 N54.39.21.318 W06.13.55.103

REGIONNAME Aldergrove
grass N54.39.19.735 W06.13.54.217
 N54.39.20.910 W06.13.53.960
 N54.39.19.936 W06.13.56.278

REGIONNAME Aldergrove
grass N54.39.22.293 W06.13.54.116
 N54.39.23.199 W06.13.53.802
 N54.39.23.302 W06.13.53.488
 N54.39.23.187 W06.13.52.104
 N54.39.22.706 W06.13.51.828
 N54.39.22.106 W06.13.53.239

REGIONNAME Aldergrove
grass N54.39.23.644 W06.13.50.901
 N54.39.24.572 W06.13.50.694
 N54.39.24.737 W06.13.50.446
 N54.39.24.798 W06.13.50.057
 N54.39.24.659 W06.13.48.498
 N54.39.24.096 W06.13.48.537
 N54.39.23.526 W06.13.49.883

REGIONNAME Aldergrove
grass N54.39.21.355 W06.13.52.902
 N54.39.21.101 W06.13.51.384
 N54.39.21.164 W06.13.51.034
 N54.39.21.270 W06.13.50.890
 N54.39.22.287 W06.13.50.684

REGIONNAME Aldergrove
grass N54.39.22.699 W06.13.49.704
 N54.39.22.452 W06.13.47.919
 N54.39.22.457 W06.13.47.601
 N54.39.22.599 W06.13.47.493
 N54.39.23.669 W06.13.47.393

REGIONNAME Aldergrove
apron N054.39.05.807 W006.13.57.019
N054.39.05.444 W006.13.56.848
N054.39.04.965 W006.13.56.819
N054.39.04.503 W006.14.01.582
N054.39.03.695 W006.14.02.467
N054.38.59.372 W006.14.01.754
N054.38.58.250 W006.13.59.386
N054.38.58.250 W006.13.53.453
N054.38.58.943 W006.13.52.198
N054.39.00.230 W006.13.51.998
N054.39.01.138 W006.13.51.742
N054.39.01.600 W006.13.48.975
N054.39.01.913 W006.13.48.633
N054.39.02.606 W006.13.49.032
N054.39.02.837 W006.13.48.889
N054.39.02.969 W006.13.48.404
N054.39.05.840 W006.13.57.076

REGIONNAME Aldergrove
terminal N054.39.03.192 W006.13.58.901
N054.39.03.150 W006.14.00.791
N054.39.01.315 W006.14.00.648
N054.39.01.356 W006.13.58.901
N054.39.03.192 W006.13.58.865