CIRCLE_SECTORLINE:PMT:EGPM:2.5
DISPLAY:PMR:PMR:PMT
DISPLAY:PMT:PMR:PMT

;EGPM RADAR
SECTORLINE:PMR
DISPLAY:PXE:PXE:PMR
DISPLAY:PMR:PXE:PMR
DISPLAY:PMR:PMR:PBA
DISPLAY:PBA:PMR:PBA
COORD:N060.23.37.051:W001.42.9.080
COORD:N060.36.26.200:W001.04.44.122
COORD:N060.35.43.203:W001.01.19.584
COORD:N060.34.54.059:W000.59.2.314
COORD:N060.33.54.250:W000.57.1.202
COORD:N060.32.42.281:W000.55.17.012
COORD:N060.31.28.812:W000.54.14.031
COORD:N060.30.6.610:W000.53.25.485
COORD:N060.28.39.923:W000.53.15.968
COORD:N060.27.20.299:W000.53.33.462
COORD:N060.25.59.695:W000.54.15.487
COORD:N060.24.42.662:W000.55.30.988
COORD:N060.23.35.843:W000.57.10.528
COORD:N060.22.38.125:W000.59.6.072
COORD:N060.16.13.352:W001.17.55.402
COORD:N060.15.34.126:W001.20.41.806
COORD:N060.15.14.396:W001.23.19.022
COORD:N060.15.7.130:W001.26.13.691
COORD:N060.15.17.464:W001.29.1.732
COORD:N060.15.39.064:W001.31.35.875
COORD:N060.16.6.747:W001.33.44.655
COORD:N060.16.48.449:W001.35.49.008
COORD:N060.17.25.048:W001.37.15.643
COORD:N060.18.3.315:W001.38.31.882
COORD:N060.19.13.660:W001.40.6.777
COORD:N060.20.18.057:W001.41.8.304
COORD:N060.21.38.882:W001.41.55.788
COORD:N060.23.9.905:W001.42.13.290
COORD:N060.23.37.051:W001.42.9.080