CIRCLE_SECTORLINE:NVTWR:EGNV:2.5
DISPLAY:NVAPP:NVAPP:NVTWR
DISPLAY:NVTWR:NVAPP:NVTWR

SECTORLINE:NVAPP
DISPLAY:ME285:ME285:NVAPP
DISPLAY:NVAPP:ME285:ME285
COORD:N054.24.16.999:W001.24.49.000;cta4
COORD:N054.22.50.999:W001.31.00.001
COORD:N054.23.07.455:W001.32.09.186
COORD:N054.23.28.539:W001.33.14.614
COORD:N054.23.52.855:W001.34.16.627
COORD:N054.24.20.215:W001.35.14.754
COORD:N054.24.50.413:W001.36.08.553
COORD:N054.25.23.218:W001.36.57.613
COORD:N054.25.58.381:W001.37.41.562
COORD:N054.26.35.634:W001.38.20.065
COORD:N054.27.14.693:W001.38.52.829
COORD:N054.27.55.261:W001.39.19.605
COORD:N054.28.37.030:W001.39.40.189
COORD:N054.29.44.999:W001.39.56.002
COORD:N054.42.19.001:W001.16.21.000;cta3
COORD:N054.41.49.041:W001.14.35.861
COORD:N054.41.12.559:W001.12.56.924
COORD:N054.40.31.210:W001.11.23.840
COORD:N054.39.45.308:W001.09.57.317
COORD:N054.38.55.203:W001.08.38.015
COORD:N054.38.01.276:W001.07.26.536
COORD:N054.37.03.937:W001.06.23.424
COORD:N054.36.03.623:W001.05.29.161
COORD:N054.34.55.999:W001.04.45.998
COORD:N054.24.16.999:W001.24.49.000;cta4