;Stands
N056.27.14.029:W003.00.46.629:EGPN Stands:8
N056.27.13.662:W003.00.58.259:EGPN Stands:2
N056.27.13.254:W003.00.51.979:EGPN Stands:6
N056.27.13.662:W003.00.59.756:EGPN Stands:1
N056.27.13.664:W003.00.56.859:EGPN Stands:3
N056.27.15.166:W003.01.05.966:EGPN Stands:9
N056.27.13.883:W003.00.49.300:EGPN Stands:7
N056.27.13.653:W003.00.55.354:EGPN Stands:4
N056.27.13.642:W003.00.53.787:EGPN Stands:5
;Holding Points
N056.27.11.643:W003.01.17.611:EGPN Holding Points:C
N056.27.10.772:W003.01.09.496:EGPN Holding Points:B
N056.27.11.038:W003.00.54.617:EGPN Holding Points:A
N056.27.11.671:W003.00.50.764:EGPN Holding Points:E
N056.27.12.962:W003.01.04.025:EGPN Holding Points:D