Inverness N00.00.00.000 W000.00.00.000 N00.00.00.000 W000.00.00.000
;Holding pOints
N57.32.14.961 W04.03.39.593 N57.32.15.388 W04.03.39.098 Yellow;a1
N57.32.19.961 W04.03.45.463 N57.32.19.375 W04.03.43.590 Yellow;a2
N57.32.40.509 W04.03.39.090 N57.32.40.129 W04.03.38.479 Yellow;e1
N57.32.29.602 W04.03.43.479 N57.32.29.898 W04.03.41.320 Yellow;e2
N057.32.33.468 W004.03.48.460 N57.32.32.069 W04.03.48.643 Yellow;d
N57.32.34.063 W04.02.57.542 N57.32.33.341 W04.02.58.049 yellow; F
;AIRFIELD GEO
N057.32.35.354 W004.03.53.532 N057.32.35.264 W004.03.51.372 Olive
N057.32.35.264 W004.03.51.372 N057.32.33.460 W004.03.51.600 Olive
N057.32.33.460 W004.03.51.600 N057.32.33.568 W004.03.53.762 Olive
N057.32.33.568 W004.03.53.762 N057.32.35.354 W004.03.53.532 Olive
;GA Terminal
N057.32.36.747 W004.03.50.814 N057.32.36.765 W004.03.50.324 Olive
N057.32.36.765 W004.03.50.324 N057.32.36.075 W004.03.50.324 Olive
N057.32.36.075 W004.03.50.324 N057.32.36.092 W004.03.50.846 Olive
N057.32.36.092 W004.03.50.846 N057.32.36.747 W004.03.50.814 Olive
;
N057.32.33.460 W004.03.51.600 N057.32.33.095 W004.03.51.700 Teal
N057.32.33.095 W004.03.51.700 N057.32.33.600 W004.03.50.030 Teal
N057.32.33.600 W004.03.50.030 N057.32.38.235 W004.03.49.147 Teal
N057.32.38.235 W004.03.49.147 N057.32.38.515 W004.03.48.950 Teal
N057.32.38.515 W004.03.48.950 N057.32.38.745 W004.03.48.524 Teal
N057.32.38.745 W004.03.48.524 N057.32.38.795 W004.03.48.100 Teal
;
N057.32.38.795 W004.03.48.100 N057.32.39.379 W004.03.48.067 Olive
N057.32.39.379 W004.03.48.067 N057.32.39.325 W004.03.46.462 Olive
N057.32.39.325 W004.03.46.462 N057.32.38.706 W004.03.46.462 Olive
N057.32.38.706 W004.03.46.462 N057.32.38.795 W004.03.48.100 Olive
;
N057.32.38.706 W004.03.46.462 N057.32.38.602 W004.03.43.974 Teal
N057.32.38.602 W004.03.43.974 N057.32.38.634 W004.03.43.416 Teal
N057.32.38.634 W004.03.43.416 N057.32.38.760 W004.03.42.991 Teal
N057.32.38.760 W004.03.42.991 N057.32.41.125 W004.03.37.854 Teal
N057.32.41.125 W004.03.37.854 N057.32.41.406 W004.03.37.000 Teal
N057.32.41.406 W004.03.37.000 N057.32.41.478 W004.03.36.414 Teal
N057.32.41.478 W004.03.36.414 N057.32.41.103 W004.03.34.351 Teal
;N Side rwy 12
N057.32.41.103 W004.03.34.351 N057.32.33.306 W004.02.53.502 Olive
N057.32.33.306 W004.02.53.502 N057.32.53.682 W004.02.09.053 Olive
N057.32.53.682 W004.02.09.053 N057.32.52.462 W004.02.06.990 Olive
N057.32.52.462 W004.02.06.990 N057.32.12.840 W004.03.33.595 Olive
N057.32.12.840 W004.03.33.595 N057.32.17.475 W004.03.46.753 Teal
;
N057.32.17.955 W004.03.46.264 N057.32.17.765 W004.03.45.840 Teal
N057.32.17.765 W004.03.45.840 N057.32.20.735 W004.03.45.382 Teal
N057.32.20.735 W004.03.45.382 N057.32.20.835 W004.03.47.440 Teal
N057.32.20.835 W004.03.47.440 N057.32.20.659 W004.03.47.440 Teal
N057.32.20.659 W004.03.47.440 N057.32.20.252 W004.03.48.360 Teal
;Terminal Building
N057.32.20.767 W004.03.50.684 N057.32.20.677 W004.03.48.096 Olive
N057.32.20.677 W004.03.48.096 N057.32.24.478 W004.03.47.574 Olive
N057.32.24.478 W004.03.47.574 N057.32.24.586 W004.03.50.030 Olive
N057.32.24.586 W004.03.50.030 N057.32.20.767 W004.03.50.684 Olive
;West Edge S Apron
N057.32.24.532 W004.03.49.014 N057.32.24.845 W004.03.48.982 Teal
N057.32.24.845 W004.03.48.982 N057.32.24.815 W004.03.47.671 Teal
N057.32.24.815 W004.03.47.671 N057.32.24.867 W004.03.47.408 Teal
N057.32.24.867 W004.03.47.408 N057.32.25.045 W004.03.47.279 Teal
N057.32.25.045 W004.03.47.279 N057.32.26.265 W004.03.47.117 Teal
N057.32.26.265 W004.03.47.117 N057.32.26.495 W004.03.47.280 Teal
N057.32.26.495 W004.03.47.280 N057.32.26.600 W004.03.47.704 Teal
N057.32.26.600 W004.03.47.704 N057.32.26.689 W004.03.49.144 Teal
N057.32.26.689 W004.03.49.144 N057.32.27.025 W004.03.49.111 Teal
N057.32.27.025 W004.03.49.111 N057.32.26.988 W004.03.47.804 Teal
N057.32.26.988 W004.03.47.804 N057.32.27.025 W004.03.47.477 Teal
N057.32.27.025 W004.03.47.477 N057.32.27.165 W004.03.47.280 Teal
N057.32.27.165 W004.03.47.280 N057.32.27.628 W004.03.47.182 Teal
N057.32.27.628 W004.03.47.182 N057.32.28.348 W004.03.47.214 Teal
N057.32.28.348 W004.03.47.214 N057.32.28.737 W004.03.47.311 Teal
N057.32.28.737 W004.03.47.311 N057.32.28.915 W004.03.47.477 Teal
N057.32.28.915 W004.03.47.477 N057.32.29.005 W004.03.47.804 Teal
N057.32.29.005 W004.03.47.804 N057.32.29.095 W004.03.51.044 Teal
;
N057.32.29.875 W004.03.48.784 N057.32.29.868 W004.03.46.886 Teal
N057.32.29.868 W004.03.46.886 N057.32.30.292 W004.03.46.822 Teal
N057.32.30.292 W004.03.46.822 N057.32.30.645 W004.03.47.016 Teal
N057.32.30.645 W004.03.47.016 N057.32.30.685 W004.03.47.542 Teal
N057.32.30.685 W004.03.47.542 N057.32.31.125 W004.03.47.509 Teal
N057.32.31.125 W004.03.47.509 N057.32.31.142 W004.03.46.692 Teal
N057.32.31.142 W004.03.46.692 N057.32.31.423 W004.03.46.624 Teal
N057.32.31.423 W004.03.46.624 N057.32.31.812 W004.03.46.724 Teal
N057.32.31.812 W004.03.46.724 N057.32.32.015 W004.03.47.052 Teal
N057.32.32.015 W004.03.47.052 N057.32.32.150 W004.03.50.094 Teal
N057.32.32.150 W004.03.50.094 N057.32.31.695 W004.03.50.160 Teal
;
N057.32.31.695 W004.03.50.160 N057.32.30.508 W004.03.50.292 Olive
N057.32.30.508 W004.03.50.292 N057.32.30.472 W004.03.49.046 Olive
N057.32.30.472 W004.03.49.046 N057.32.30.807 W004.03.49.014 Olive
N057.32.30.807 W004.03.49.014 N057.32.30.825 W004.03.49.309 Olive
N057.32.30.825 W004.03.49.309 N057.32.31.690 W004.03.49.212 Olive
N057.32.31.690 W004.03.49.212 N057.32.31.695 W004.03.50.160 Olive
;Island in front of Fire Station
N057.32.28.402 W004.03.46.037 N057.32.28.565 W004.03.46.264 Teal
N057.32.28.565 W004.03.46.264 N057.32.31.690 W004.03.45.840 Teal
N057.32.31.690 W004.03.45.840 N057.32.31.671 W004.03.45.252 Teal
N057.32.31.671 W004.03.45.252 N057.32.28.770 W004.03.42.760 Teal
N057.32.28.770 W004.03.42.760 N057.32.28.082 W004.03.42.829 Teal
N057.32.28.082 W004.03.42.829 N057.32.28.295 W004.03.43.157 Teal
N057.32.28.295 W004.03.43.157 N057.32.28.417 W004.03.43.680 Teal
N057.32.28.417 W004.03.43.680 N057.32.28.438 W004.03.44.237 Teal
N057.32.28.438 W004.03.44.237 N057.32.28.366 W004.03.44.597 Teal
N057.32.28.366 W004.03.44.597 N057.32.28.402 W004.03.46.037 Teal
;Large Island
N057.32.40.418 W004.03.34.840 N057.32.32.722 W004.02.54.776 Olive
N057.32.32.722 W004.02.54.776 N057.32.14.450 W004.03.34.578 Olive
N057.32.14.450 W004.03.34.578 N057.32.14.445 W004.03.35.824 Teal
N057.32.14.445 W004.03.35.824 N057.32.14.557 W004.03.36.738 Teal
N057.32.14.557 W004.03.36.738 N057.32.16.998 W004.03.43.680 Teal
N057.32.16.998 W004.03.43.680 N057.32.17.282 W004.03.44.006 Teal
N057.32.17.282 W004.03.44.006 N057.32.19.719 W004.03.43.582 Teal
N057.32.19.719 W004.03.43.582 N057.32.19.773 W004.03.43.153 Teal
N057.32.19.773 W004.03.43.153 N057.32.19.986 W004.03.42.862 Teal
N057.32.19.986 W004.03.42.862 N057.32.20.337 W004.03.42.534 Teal
N057.32.20.337 W004.03.42.534 N057.32.29.688 W004.03.41.224 Teal
N057.32.29.688 W004.03.41.224 N057.32.29.990 W004.03.41.390 Teal
N057.32.29.990 W004.03.41.390 N057.32.30.289 W004.03.41.749 Teal
N057.32.30.289 W004.03.41.749 N057.32.30.515 W004.03.42.206 Teal
N057.32.30.515 W004.03.42.206 N057.32.35.718 W004.03.41.616 Teal
N057.32.35.718 W004.03.41.616 N057.32.36.283 W004.03.41.288 Teal
N057.32.36.283 W004.03.41.288 N057.32.36.600 W004.03.40.831 Teal
N057.32.36.600 W004.03.40.831 N057.32.37.500 W004.03.39.160 Teal
N057.32.37.500 W004.03.39.160 N057.32.37.745 W004.03.38.966 Teal
N057.32.37.745 W004.03.38.966 N057.32.38.068 W004.03.39.000 Teal
N057.32.38.068 W004.03.39.000 N057.32.38.608 W004.03.39.784 Teal
N057.32.38.608 W004.03.39.784 N057.32.39.058 W004.03.40.080 Teal
N057.32.39.058 W004.03.40.080 N057.32.39.428 W004.03.39.950 Teal
N057.32.39.428 W004.03.39.950 N057.32.39.692 W004.03.39.557 Teal
N057.32.39.692 W004.03.39.557 N057.32.40.560 W004.03.37.526 Teal
N057.32.40.560 W004.03.37.526 N057.32.40.736 W004.03.36.936 Teal
N057.32.40.736 W004.03.36.936 N057.32.40.735 W004.03.36.248 Teal
N057.32.40.735 W004.03.36.248 N057.32.40.418 W004.03.34.840 Teal
;
N057.32.30.516 W004.03.51.894 N057.32.31.458 W004.03.51.862 Olive
N057.32.31.458 W004.03.51.862 N057.32.31.434 W004.03.50.454 Olive
N057.32.31.434 W004.03.50.454 N057.32.30.850 W004.03.50.422 Olive
N057.32.30.850 W004.03.50.422 N057.32.30.854 W004.03.51.534 Olive
N057.32.30.854 W004.03.51.534 N057.32.30.516 W004.03.51.534 Olive
N057.32.30.516 W004.03.51.534 N057.32.30.516 W004.03.51.894 Olive
;
N057.32.30.516 W004.03.51.894 N057.32.30.108 W004.03.52.222 Teal
N057.32.30.108 W004.03.52.222 N057.32.30.185 W004.03.52.680 Teal
N057.32.30.185 W004.03.52.680 N057.32.32.002 W004.03.52.420 Teal
N057.32.32.002 W004.03.52.420 N057.32.32.233 W004.03.52.092 Teal
N057.32.32.233 W004.03.52.092 N057.32.32.265 W004.03.51.667 Teal
N057.32.32.265 W004.03.51.667 N057.32.32.125 W004.03.51.206 Teal
N057.32.32.125 W004.03.51.206 N057.32.31.437 W004.03.51.206 Teal
;
N057.32.32.305 W004.03.56.477 N057.32.32.645 W004.03.55.102 Teal
N057.32.32.645 W004.03.55.102 N057.32.32.695 W004.03.54.382 Teal
N057.32.32.695 W004.03.54.382 N057.32.32.604 W004.03.53.694 Teal
N057.32.32.604 W004.03.53.694 N057.32.32.390 W004.03.53.204 Teal
N057.32.32.390 W004.03.53.204 N057.32.32.035 W004.03.53.075 Teal
N057.32.32.035 W004.03.53.075 N057.32.30.335 W004.03.53.630 Teal
N057.32.30.335 W004.03.53.630 N057.32.30.217 W004.03.53.990 Teal
N057.32.30.217 W004.03.53.990 N057.32.30.345 W004.03.55.627 Teal
;
N057.32.33.550 W004.03.53.140 N057.32.32.932 W004.03.53.237 Teal
N057.32.32.932 W004.03.53.237 N057.32.33.018 W004.03.53.924 Teal
N057.32.33.018 W004.03.53.924 N057.32.33.054 W004.03.54.612 Teal
N057.32.33.054 W004.03.54.612 N057.32.33.003 W004.03.55.332 Teal
N057.32.33.003 W004.03.55.332 N057.32.34.310 W004.03.54.742 Teal
;
N057.32.32.650 W004.03.56.837 N057.32.33.000 W004.03.56.182 Teal
N057.32.33.000 W004.03.56.182 N057.32.33.515 W004.03.55.660 Teal
N057.32.33.515 W004.03.55.660 N057.32.34.400 W004.03.55.202 Teal
;
;Crosses
;
N057.32.18.130 W004.03.46.393 N057.32.17.397 W004.03.46.264 Red
N057.32.17.840 W004.03.46.984 N057.32.17.768 W004.03.45.608 Red
;
N057.32.20.725 W004.03.48.031 N057.32.20.137 W004.03.47.606 Red
N057.32.20.705 W004.03.47.408 N057.32.20.245 W004.03.48.391 Red
;
N057.32.29.932 W004.03.53.039 N057.32.29.457 W004.03.52.060 Red
N057.32.29.896 W004.03.51.926 N057.32.29.511 W004.03.53.075 Red
;
N057.32.29.792 W004.03.48.622 N057.32.29.277 W004.03.47.640 Red
N057.32.29.738 W004.03.47.509 N057.32.29.350 W004.03.48.654 Red
;
N057.33.58.464 W004.04.39.290 N057.34.36.770 W004.03.40.970 Red 
N057.34.36.770 W004.03.40.970 N057.35.19.000 W004.00.50.940 Red 
N057.35.19.000 W004.00.50.940 N057.33.50.800 W004.01.30.500 Red 
N057.33.50.800 W004.01.30.500 N057.33.41.690 W004.03.00.470 Red 
N057.33.41.690 W004.03.00.470 N057.33.58.464 W004.04.39.290 Red