SID:EGBB:15:COWLY1L:BBS05 BBE13 BBE17 COWLY
SID:EGBB:33:COWLY3D:D330B D318Z D318T CPT55 CPT53 CPT30 COWLY
SID:EGBB:15:#COWLY2E:D169D D156G D156K COWLY
SID:EGBB:15:CPT1L:BBS05 BBS13 BBS17 CPT
SID:EGBB:33:CPT4D:D330B D318Z D318T CPT55 CPT53 CPT
SID:EGBB:15:#CPT2E:D169D D165G D165K CPT
SID:EGBB:15:DTY1L:BBS05 BBE12 BBE16 BBE19 DTY
SID:EGBB:15:DTY4E:D147E D302P D302L DTY
SID:EGBB:33:DTY4F:D330B D189Z DTY27 DTY
SID:EGBB:33:DTY5D:D330B D318Z D318I DTY
SID:EGBB:15:#DTY3E:D169D D302P D302L D302I DTY
SID:EGBB:15:TNT1L:BBE05 BBE07 BBN11 BBN18 TNT
SID:EGBB:15:TNT1K:BBE05 BBE07 BBN11 BBN14 BBN26 TNT
SID:EGBB:15:TNT3G:D145B TNT33 TNT30 D178R TNT
SID:EGBB:33:TNT4D:D330B D189W D189S TNT
SID:EGBB:15:TNT5E:D145B TNT33 DTY32 D185Z TNT
SID:EGBB:15:WCO1L:BBS05 BBN13 BBN17 BBE22 WCO
SID:EGBB:33:WCO5D:D330B D318Z D318T DTY18 D314P WCO
SID:EGBB:15:#WCO4E:D169D HON D142G D142K D142P WCO
SID:EGBB:15:WHI1L:BBE05 BBE07 BBN11 BBN18 WHI
SID:EGBB:33:WHI4D:D330B D328T D328X HON27 WHI
SID:EGBB:15:#WHI4E:D169B D018I DTY34 WHI
;RNAV Trial SIDs
SID:EGBB:15:COWLY1Y:BBS03 BBS06 BBE13 BBE17 COWLY
SID:EGBB:15:CPT1Y:BBS03 BBS06 BBS13 BBS17 CPT
SID:EGBB:15:DTY1Y:BBS03 BBS06 BBE09 BBE12 BBE16 BBE19 DTY
SID:EGBB:15:WCO1Y:BBS03 BBS06 BBN13 BBN17 BBE22 WCO